TMS320C2000 Assembler PC v6.2.11 Wed Jul 28 15:52:31 2021

Tools Copyright (c) 1996-2015 Texas Instruments Incorporated
adc.asm                                                              PAGE    1

       1              ;***************************************************************
       2              ;* TMS320C2000 C/C++ Codegen                        PC v6.2.11 *
       3              ;* Date/Time created: Wed Jul 28 15:52:30 2021                 *
       4              ;***************************************************************
       5                      .compiler_opts --cla_support=cla0 --float_support=fpu32 --hll_source=on --mem_model:code=flat --mem_m
       6        0002  FP      .set    XAR2
       7              
       8              $C$DW$CU        .dwtag  DW_TAG_compile_unit
       9                      .dwattr $C$DW$CU, DW_AT_name("../ExtraData/driverlib/adc.c")
      10                      .dwattr $C$DW$CU, DW_AT_producer("TMS320C2000 C/C++ Codegen PC v6.2.11 Copyright (c) 1996-2015 Texas 
      11                      .dwattr $C$DW$CU, DW_AT_TI_version(0x01)
      12                      .dwattr $C$DW$CU, DW_AT_comp_dir("C:\Users\aen17\Desktop\Working\SVN\Repository\AEC_Standard\PTM079")
      13              
      14              $C$DW$1 .dwtag  DW_TAG_subprogram, DW_AT_name("__edis")
      15                      .dwattr $C$DW$1, DW_AT_TI_symbol_name("___edis")
      16                      .dwattr $C$DW$1, DW_AT_declaration
      17                      .dwattr $C$DW$1, DW_AT_external
      18              
      19              $C$DW$2 .dwtag  DW_TAG_subprogram, DW_AT_name("__eallow")
      20                      .dwattr $C$DW$2, DW_AT_TI_symbol_name("___eallow")
      21                      .dwattr $C$DW$2, DW_AT_declaration
      22                      .dwattr $C$DW$2, DW_AT_external
      23              ;       C:\ti\ccsv5\tools\compiler\c2000_6.2.11\bin\ac2000.exe -@C:\\Users\\ADMINI~1\\AppData\\Local\\Temp\\2
      24 00000000               .sect   ".text"
      25                      .clink
      26                      .global _ADC_setPPBTripLimits
      27              
      28              $C$DW$3 .dwtag  DW_TAG_subprogram, DW_AT_name("ADC_setPPBTripLimits")
      29                      .dwattr $C$DW$3, DW_AT_low_pc(_ADC_setPPBTripLimits)
      30                      .dwattr $C$DW$3, DW_AT_high_pc(0x00)
      31                      .dwattr $C$DW$3, DW_AT_TI_symbol_name("_ADC_setPPBTripLimits")
      32                      .dwattr $C$DW$3, DW_AT_external
      33                      .dwattr $C$DW$3, DW_AT_TI_begin_file("../ExtraData/driverlib/adc.c")
      34                      .dwattr $C$DW$3, DW_AT_TI_begin_line(0x33)
      35                      .dwattr $C$DW$3, DW_AT_TI_begin_column(0x01)
      36                      .dwattr $C$DW$3, DW_AT_TI_max_frame_size(-12)
      37                      .dwpsn  file "../ExtraData/driverlib/adc.c",line 53,column 1,is_stmt,address _ADC_setPPBTripLimits
      38              
      39                      .dwfde $C$DW$CIE, _ADC_setPPBTripLimits
      40              $C$DW$4 .dwtag  DW_TAG_formal_parameter, DW_AT_name("base")
      41                      .dwattr $C$DW$4, DW_AT_TI_symbol_name("_base")
      42                      .dwattr $C$DW$4, DW_AT_type(*$C$DW$T$23)
      43                      .dwattr $C$DW$4, DW_AT_location[DW_OP_reg0]
      44              $C$DW$5 .dwtag  DW_TAG_formal_parameter, DW_AT_name("ppbNumber")
      45                      .dwattr $C$DW$5, DW_AT_TI_symbol_name("_ppbNumber")
      46                      .dwattr $C$DW$5, DW_AT_type(*$C$DW$T$20)
      47                      .dwattr $C$DW$5, DW_AT_location[DW_OP_reg12]
      48              $C$DW$6 .dwtag  DW_TAG_formal_parameter, DW_AT_name("tripHiLimit")
      49                      .dwattr $C$DW$6, DW_AT_TI_symbol_name("_tripHiLimit")
      50                      .dwattr $C$DW$6, DW_AT_type(*$C$DW$T$24)
      51                      .dwattr $C$DW$6, DW_AT_location[DW_OP_breg20 -14]
      52              $C$DW$7 .dwtag  DW_TAG_formal_parameter, DW_AT_name("tripLoLimit")
      53                      .dwattr $C$DW$7, DW_AT_TI_symbol_name("_tripLoLimit")
      54                      .dwattr $C$DW$7, DW_AT_type(*$C$DW$T$24)
      55                      .dwattr $C$DW$7, DW_AT_location[DW_OP_breg20 -16]
TMS320C2000 Assembler PC v6.2.11 Wed Jul 28 15:52:31 2021

Tools Copyright (c) 1996-2015 Texas Instruments Incorporated
adc.asm                                                              PAGE    2

      56              
      57              ;***************************************************************
      58              ;* FNAME: _ADC_setPPBTripLimits         FR SIZE:  10           *
      59              ;*                                                             *
      60              ;* FUNCTION ENVIRONMENT                                        *
      61              ;*                                                             *
      62              ;* FUNCTION PROPERTIES                                         *
      63              ;*                            0 Parameter, 10 Auto,  0 SOE     *
      64              ;***************************************************************
      65              
      66 00000000       _ADC_setPPBTripLimits:
      67                      .dwcfi  cfa_offset, -2
      68                      .dwcfi  save_reg_to_mem, 26, 0
      69                      .dwcfi  save_reg_to_reg, 78, 26
      70 00000000 FE0A          ADDB      SP,#10                ; [CPU_U] 
      71                      .dwcfi  cfa_offset, -12
      72              $C$DW$8 .dwtag  DW_TAG_variable, DW_AT_name("base")
      73                      .dwattr $C$DW$8, DW_AT_TI_symbol_name("_base")
      74                      .dwattr $C$DW$8, DW_AT_type(*$C$DW$T$23)
      75                      .dwattr $C$DW$8, DW_AT_location[DW_OP_breg20 -2]
      76              $C$DW$9 .dwtag  DW_TAG_variable, DW_AT_name("ppbNumber")
      77                      .dwattr $C$DW$9, DW_AT_TI_symbol_name("_ppbNumber")
      78                      .dwattr $C$DW$9, DW_AT_type(*$C$DW$T$20)
      79                      .dwattr $C$DW$9, DW_AT_location[DW_OP_breg20 -3]
      80              $C$DW$10        .dwtag  DW_TAG_variable, DW_AT_name("ppbHiOffset")
      81                      .dwattr $C$DW$10, DW_AT_TI_symbol_name("_ppbHiOffset")
      82                      .dwattr $C$DW$10, DW_AT_type(*$C$DW$T$23)
      83                      .dwattr $C$DW$10, DW_AT_location[DW_OP_breg20 -6]
      84              $C$DW$11        .dwtag  DW_TAG_variable, DW_AT_name("ppbLoOffset")
      85                      .dwattr $C$DW$11, DW_AT_TI_symbol_name("_ppbLoOffset")
      86                      .dwattr $C$DW$11, DW_AT_type(*$C$DW$T$23)
      87                      .dwattr $C$DW$11, DW_AT_location[DW_OP_breg20 -8]
      88 00000001 7C43          MOV       *-SP[3],AR4           ; [CPU_] |53| 
      89 00000002 1E42          MOVL      *-SP[2],ACC           ; [CPU_] |53| 
      90                      .dwpsn  file "../ExtraData/driverlib/adc.c",line 67,column 5,is_stmt
      91 00000003 3B01          SETC      SXM                   ; [CPU_] 
      92 00000004 8543          MOV       ACC,*-SP[3]           ; [CPU_] |67| 
      93 00000005 FF32          LSL       ACC,3                 ; [CPU_] |67| 
      94 00000006 0944          ADDB      ACC,#68               ; [CPU_] |67| 
      95 00000007 1E46          MOVL      *-SP[6],ACC           ; [CPU_] |67| 
      96                      .dwpsn  file "../ExtraData/driverlib/adc.c",line 69,column 5,is_stmt
      97 00000008 8543          MOV       ACC,*-SP[3]           ; [CPU_] |69| 
      98 00000009 FF32          LSL       ACC,3                 ; [CPU_] |69| 
      99 0000000a 0946          ADDB      ACC,#70               ; [CPU_] |69| 
     100 0000000b 1E48          MOVL      *-SP[8],ACC           ; [CPU_] |69| 
     101                      .dwpsn  file "../ExtraData/driverlib/adc.c",line 72,column 5,is_stmt
     102              $C$DW$12        .dwtag  DW_TAG_TI_branch
     103                      .dwattr $C$DW$12, DW_AT_low_pc(0x00)
     104                      .dwattr $C$DW$12, DW_AT_name("___eallow")
     105                      .dwattr $C$DW$12, DW_AT_TI_call
     106 0000000c 7640!         LCR       #___eallow            ; [CPU_] |72| 
         0000000d 0000 
     107                      ; call occurs [#___eallow] ; [] |72| 
     108                      .dwpsn  file "../ExtraData/driverlib/adc.c",line 77,column 5,is_stmt
     109 0000000e 0646          MOVL      ACC,*-SP[6]           ; [CPU_] |77| 
TMS320C2000 Assembler PC v6.2.11 Wed Jul 28 15:52:31 2021

Tools Copyright (c) 1996-2015 Texas Instruments Incorporated
adc.asm                                                              PAGE    3

     110 0000000f A34E          MOVL      P,*-SP[14]            ; [CPU_] |77| 
     111 00000010 0742          ADDL      ACC,*-SP[2]           ; [CPU_] |77| 
     112 00000011 18AA          AND       PH,#1                 ; [CPU_] |77| 
         00000012 0001 
     113 00000013 8AA9          MOVL      XAR4,ACC              ; [CPU_] |77| 
     114 00000014 06C4          MOVL      ACC,*+XAR4[0]         ; [CPU_] |77| 
     115 00000015 1E4A          MOVL      *-SP[10],ACC          ; [CPU_] |77| 
     116 00000016 064A          MOVL      ACC,*-SP[10]          ; [CPU_] |77| 
     117 00000017 5608          AND       ACC,#65534 << 16      ; [CPU_] |77| 
         00000018 FFFE 
     118 00000019 1E4A          MOVL      *-SP[10],ACC          ; [CPU_] |77| 
     119 0000001a 924A          MOV       AL,*-SP[10]           ; [CPU_] |77| 
     120 0000001b CAAB          OR        AL,PL                 ; [CPU_] |77| 
     121 0000001c 964A          MOV       *-SP[10],AL           ; [CPU_] |77| 
     122 0000001d 9349          MOV       AH,*-SP[9]            ; [CPU_] |77| 
     123 0000001e CBAA          OR        AH,PH                 ; [CPU_] |77| 
     124 0000001f 9749          MOV       *-SP[9],AH            ; [CPU_] |77| 
     125 00000020 0646          MOVL      ACC,*-SP[6]           ; [CPU_] |77| 
     126 00000021 0742          ADDL      ACC,*-SP[2]           ; [CPU_] |77| 
     127 00000022 8AA9          MOVL      XAR4,ACC              ; [CPU_] |77| 
     128 00000023 064A          MOVL      ACC,*-SP[10]          ; [CPU_] |77| 
     129 00000024 1EC4          MOVL      *+XAR4[0],ACC         ; [CPU_] |77| 
     130                      .dwpsn  file "../ExtraData/driverlib/adc.c",line 84,column 5,is_stmt
     131 00000025 0648          MOVL      ACC,*-SP[8]           ; [CPU_] |84| 
     132 00000026 A350          MOVL      P,*-SP[16]            ; [CPU_] |84| 
     133 00000027 0742          ADDL      ACC,*-SP[2]           ; [CPU_] |84| 
     134 00000028 18AA          AND       PH,#1                 ; [CPU_] |84| 
         00000029 0001 
     135 0000002a 8AA9          MOVL      XAR4,ACC              ; [CPU_] |84| 
     136 0000002b 06C4          MOVL      ACC,*+XAR4[0]         ; [CPU_] |84| 
     137 0000002c 1E4A          MOVL      *-SP[10],ACC          ; [CPU_] |84| 
     138 0000002d 064A          MOVL      ACC,*-SP[10]          ; [CPU_] |84| 
     139 0000002e 5608          AND       ACC,#65534 << 16      ; [CPU_] |84| 
         0000002f FFFE 
     140 00000030 1E4A          MOVL      *-SP[10],ACC          ; [CPU_] |84| 
     141 00000031 924A          MOV       AL,*-SP[10]           ; [CPU_] |84| 
     142 00000032 CAAB          OR        AL,PL                 ; [CPU_] |84| 
     143 00000033 964A          MOV       *-SP[10],AL           ; [CPU_] |84| 
     144 00000034 9349          MOV       AH,*-SP[9]            ; [CPU_] |84| 
     145 00000035 CBAA          OR        AH,PH                 ; [CPU_] |84| 
     146 00000036 9749          MOV       *-SP[9],AH            ; [CPU_] |84| 
     147 00000037 0648          MOVL      ACC,*-SP[8]           ; [CPU_] |84| 
     148 00000038 0742          ADDL      ACC,*-SP[2]           ; [CPU_] |84| 
     149 00000039 8AA9          MOVL      XAR4,ACC              ; [CPU_] |84| 
     150 0000003a 064A          MOVL      ACC,*-SP[10]          ; [CPU_] |84| 
     151 0000003b 1EC4          MOVL      *+XAR4[0],ACC         ; [CPU_] |84| 
     152                      .dwpsn  file "../ExtraData/driverlib/adc.c",line 88,column 5,is_stmt
     153              $C$DW$13        .dwtag  DW_TAG_TI_branch
     154                      .dwattr $C$DW$13, DW_AT_low_pc(0x00)
     155                      .dwattr $C$DW$13, DW_AT_name("___edis")
     156                      .dwattr $C$DW$13, DW_AT_TI_call
     157 0000003c 7640!         LCR       #___edis              ; [CPU_] |88| 
         0000003d 0000 
     158                      ; call occurs [#___edis] ; [] |88| 
     159                      .dwpsn  file "../ExtraData/driverlib/adc.c",line 89,column 1,is_stmt
TMS320C2000 Assembler PC v6.2.11 Wed Jul 28 15:52:31 2021

Tools Copyright (c) 1996-2015 Texas Instruments Incorporated
adc.asm                                                              PAGE    4

     160 0000003e FE8A          SUBB      SP,#10                ; [CPU_U] 
     161                      .dwcfi  cfa_offset, -2
     162              $C$DW$14        .dwtag  DW_TAG_TI_branch
     163                      .dwattr $C$DW$14, DW_AT_low_pc(0x00)
     164                      .dwattr $C$DW$14, DW_AT_TI_return
     165 0000003f 0006          LRETR     ; [CPU_] 
     166                      ; return occurs ; [] 
     167                      .dwattr $C$DW$3, DW_AT_TI_end_file("../ExtraData/driverlib/adc.c")
     168                      .dwattr $C$DW$3, DW_AT_TI_end_line(0x59)
     169                      .dwattr $C$DW$3, DW_AT_TI_end_column(0x01)
     170                      .dwendentry
     171                      .dwendtag $C$DW$3
     172              
     173              ;**************************************************************
     174              ;* UNDEFINED EXTERNAL REFERENCES                              *
     175              ;**************************************************************
     176                      .global ___edis
     177                      .global ___eallow
     178              
     179              ;***************************************************************
     180              ;* TYPE INFORMATION                                            *
     181              ;***************************************************************
     182              
     183              $C$DW$T$19      .dwtag  DW_TAG_enumeration_type
     184                      .dwattr $C$DW$T$19, DW_AT_byte_size(0x01)
     185              $C$DW$15        .dwtag  DW_TAG_enumerator, DW_AT_name("ADC_PPB_NUMBER1"), DW_AT_const_value(0x00)
     186              $C$DW$16        .dwtag  DW_TAG_enumerator, DW_AT_name("ADC_PPB_NUMBER2"), DW_AT_const_value(0x01)
     187              $C$DW$17        .dwtag  DW_TAG_enumerator, DW_AT_name("ADC_PPB_NUMBER3"), DW_AT_const_value(0x02)
     188              $C$DW$18        .dwtag  DW_TAG_enumerator, DW_AT_name("ADC_PPB_NUMBER4"), DW_AT_const_value(0x03)
     189                      .dwendtag $C$DW$T$19
     190              
     191              $C$DW$T$20      .dwtag  DW_TAG_typedef, DW_AT_name("ADC_PPBNumber")
     192                      .dwattr $C$DW$T$20, DW_AT_type(*$C$DW$T$19)
     193                      .dwattr $C$DW$T$20, DW_AT_language(DW_LANG_C)
     194              $C$DW$T$4       .dwtag  DW_TAG_base_type
     195                      .dwattr $C$DW$T$4, DW_AT_encoding(DW_ATE_boolean)
     196                      .dwattr $C$DW$T$4, DW_AT_name("bool")
     197                      .dwattr $C$DW$T$4, DW_AT_byte_size(0x01)
     198              $C$DW$T$5       .dwtag  DW_TAG_base_type
     199                      .dwattr $C$DW$T$5, DW_AT_encoding(DW_ATE_signed_char)
     200                      .dwattr $C$DW$T$5, DW_AT_name("signed char")
     201                      .dwattr $C$DW$T$5, DW_AT_byte_size(0x01)
     202              $C$DW$T$6       .dwtag  DW_TAG_base_type
     203                      .dwattr $C$DW$T$6, DW_AT_encoding(DW_ATE_unsigned_char)
     204                      .dwattr $C$DW$T$6, DW_AT_name("unsigned char")
     205                      .dwattr $C$DW$T$6, DW_AT_byte_size(0x01)
     206              $C$DW$T$7       .dwtag  DW_TAG_base_type
     207                      .dwattr $C$DW$T$7, DW_AT_encoding(DW_ATE_signed_char)
     208                      .dwattr $C$DW$T$7, DW_AT_name("wchar_t")
     209                      .dwattr $C$DW$T$7, DW_AT_byte_size(0x01)
     210              $C$DW$T$8       .dwtag  DW_TAG_base_type
     211                      .dwattr $C$DW$T$8, DW_AT_encoding(DW_ATE_signed)
     212                      .dwattr $C$DW$T$8, DW_AT_name("short")
     213                      .dwattr $C$DW$T$8, DW_AT_byte_size(0x01)
     214              $C$DW$T$9       .dwtag  DW_TAG_base_type
TMS320C2000 Assembler PC v6.2.11 Wed Jul 28 15:52:31 2021

Tools Copyright (c) 1996-2015 Texas Instruments Incorporated
adc.asm                                                              PAGE    5

     215                      .dwattr $C$DW$T$9, DW_AT_encoding(DW_ATE_unsigned)
     216                      .dwattr $C$DW$T$9, DW_AT_name("unsigned short")
     217                      .dwattr $C$DW$T$9, DW_AT_byte_size(0x01)
     218              $C$DW$T$10      .dwtag  DW_TAG_base_type
     219                      .dwattr $C$DW$T$10, DW_AT_encoding(DW_ATE_signed)
     220                      .dwattr $C$DW$T$10, DW_AT_name("int")
     221                      .dwattr $C$DW$T$10, DW_AT_byte_size(0x01)
     222              $C$DW$T$11      .dwtag  DW_TAG_base_type
     223                      .dwattr $C$DW$T$11, DW_AT_encoding(DW_ATE_unsigned)
     224                      .dwattr $C$DW$T$11, DW_AT_name("unsigned int")
     225                      .dwattr $C$DW$T$11, DW_AT_byte_size(0x01)
     226              $C$DW$T$12      .dwtag  DW_TAG_base_type
     227                      .dwattr $C$DW$T$12, DW_AT_encoding(DW_ATE_signed)
     228                      .dwattr $C$DW$T$12, DW_AT_name("long")
     229                      .dwattr $C$DW$T$12, DW_AT_byte_size(0x02)
     230              $C$DW$T$24      .dwtag  DW_TAG_typedef, DW_AT_name("int32_t")
     231                      .dwattr $C$DW$T$24, DW_AT_type(*$C$DW$T$12)
     232                      .dwattr $C$DW$T$24, DW_AT_language(DW_LANG_C)
     233              $C$DW$T$13      .dwtag  DW_TAG_base_type
     234                      .dwattr $C$DW$T$13, DW_AT_encoding(DW_ATE_unsigned)
     235                      .dwattr $C$DW$T$13, DW_AT_name("unsigned long")
     236                      .dwattr $C$DW$T$13, DW_AT_byte_size(0x02)
     237              $C$DW$T$23      .dwtag  DW_TAG_typedef, DW_AT_name("uint32_t")
     238                      .dwattr $C$DW$T$23, DW_AT_type(*$C$DW$T$13)
     239                      .dwattr $C$DW$T$23, DW_AT_language(DW_LANG_C)
     240              $C$DW$T$14      .dwtag  DW_TAG_base_type
     241                      .dwattr $C$DW$T$14, DW_AT_encoding(DW_ATE_signed)
     242                      .dwattr $C$DW$T$14, DW_AT_name("long long")
     243                      .dwattr $C$DW$T$14, DW_AT_byte_size(0x04)
     244              $C$DW$T$15      .dwtag  DW_TAG_base_type
     245                      .dwattr $C$DW$T$15, DW_AT_encoding(DW_ATE_unsigned)
     246                      .dwattr $C$DW$T$15, DW_AT_name("unsigned long long")
     247                      .dwattr $C$DW$T$15, DW_AT_byte_size(0x04)
     248              $C$DW$T$16      .dwtag  DW_TAG_base_type
     249                      .dwattr $C$DW$T$16, DW_AT_encoding(DW_ATE_float)
     250                      .dwattr $C$DW$T$16, DW_AT_name("float")
     251                      .dwattr $C$DW$T$16, DW_AT_byte_size(0x02)
     252              $C$DW$T$17      .dwtag  DW_TAG_base_type
     253                      .dwattr $C$DW$T$17, DW_AT_encoding(DW_ATE_float)
     254                      .dwattr $C$DW$T$17, DW_AT_name("double")
     255                      .dwattr $C$DW$T$17, DW_AT_byte_size(0x02)
     256              $C$DW$T$18      .dwtag  DW_TAG_base_type
     257                      .dwattr $C$DW$T$18, DW_AT_encoding(DW_ATE_float)
     258                      .dwattr $C$DW$T$18, DW_AT_name("long double")
     259                      .dwattr $C$DW$T$18, DW_AT_byte_size(0x04)
     260                      .dwattr $C$DW$CU, DW_AT_language(DW_LANG_C)
     261              
     262              ;***************************************************************
     263              ;* DWARF CIE ENTRIES                                           *
     264              ;***************************************************************
     265              
     266              $C$DW$CIE       .dwcie 78
     267                      .dwcfi  cfa_register, 20
     268                      .dwcfi  cfa_offset, 0
     269                      .dwcfi  undefined, 0
TMS320C2000 Assembler PC v6.2.11 Wed Jul 28 15:52:31 2021

Tools Copyright (c) 1996-2015 Texas Instruments Incorporated
adc.asm                                                              PAGE    6

     270                      .dwcfi  undefined, 1
     271                      .dwcfi  undefined, 2
     272                      .dwcfi  undefined, 3
     273                      .dwcfi  undefined, 20
     274                      .dwcfi  undefined, 21
     275                      .dwcfi  undefined, 22
     276                      .dwcfi  undefined, 23
     277                      .dwcfi  undefined, 24
     278                      .dwcfi  undefined, 25
     279                      .dwcfi  undefined, 26
     280                      .dwcfi  same_value, 28
     281                      .dwcfi  undefined, 29
     282                      .dwcfi  undefined, 30
     283                      .dwcfi  undefined, 31
     284                      .dwcfi  undefined, 32
     285                      .dwcfi  undefined, 33
     286                      .dwcfi  undefined, 34
     287                      .dwcfi  undefined, 35
     288                      .dwcfi  undefined, 36
     289                      .dwcfi  undefined, 37
     290                      .dwcfi  undefined, 38
     291                      .dwcfi  undefined, 75
     292                      .dwcfi  undefined, 76
     293                      .dwcfi  undefined, 77
     294                      .dwcfi  undefined, 4
     295                      .dwcfi  same_value, 6
     296                      .dwcfi  same_value, 8
     297                      .dwcfi  same_value, 10
     298                      .dwcfi  undefined, 12
     299                      .dwcfi  undefined, 14
     300                      .dwcfi  undefined, 16
     301                      .dwcfi  undefined, 17
     302                      .dwcfi  undefined, 18
     303                      .dwcfi  undefined, 19
     304                      .dwcfi  undefined, 5
     305                      .dwcfi  same_value, 7
     306                      .dwcfi  same_value, 9
     307                      .dwcfi  same_value, 11
     308                      .dwcfi  undefined, 13
     309                      .dwcfi  undefined, 15
     310                      .dwcfi  undefined, 43
     311                      .dwcfi  undefined, 44
     312                      .dwcfi  undefined, 47
     313                      .dwcfi  undefined, 48
     314                      .dwcfi  undefined, 51
     315                      .dwcfi  undefined, 52
     316                      .dwcfi  undefined, 55
     317                      .dwcfi  undefined, 56
     318                      .dwcfi  same_value, 59
     319                      .dwcfi  same_value, 60
     320                      .dwcfi  same_value, 63
     321                      .dwcfi  same_value, 64
     322                      .dwcfi  same_value, 67
     323                      .dwcfi  same_value, 68
     324                      .dwcfi  same_value, 71
TMS320C2000 Assembler PC v6.2.11 Wed Jul 28 15:52:31 2021

Tools Copyright (c) 1996-2015 Texas Instruments Incorporated
adc.asm                                                              PAGE    7

     325                      .dwcfi  same_value, 72
     326                      .dwcfi  undefined, 73
     327                      .dwcfi  undefined, 74
     328                      .dwcfi  undefined, 39
     329                      .dwcfi  undefined, 40
     330                      .dwcfi  undefined, 27
     331                      .dwcfi  undefined, 78
     332                      .dwendentry
     333              
     334              ;***************************************************************
     335              ;* DWARF REGISTER MAP                                          *
     336              ;***************************************************************
     337              
     338              $C$DW$19        .dwtag  DW_TAG_TI_assign_register, DW_AT_name("AL")
     339                      .dwattr $C$DW$19, DW_AT_location[DW_OP_reg0]
     340              $C$DW$20        .dwtag  DW_TAG_TI_assign_register, DW_AT_name("AH")
     341                      .dwattr $C$DW$20, DW_AT_location[DW_OP_reg1]
     342              $C$DW$21        .dwtag  DW_TAG_TI_assign_register, DW_AT_name("PL")
     343                      .dwattr $C$DW$21, DW_AT_location[DW_OP_reg2]
     344              $C$DW$22        .dwtag  DW_TAG_TI_assign_register, DW_AT_name("PH")
     345                      .dwattr $C$DW$22, DW_AT_location[DW_OP_reg3]
     346              $C$DW$23        .dwtag  DW_TAG_TI_assign_register, DW_AT_name("SP")
     347                      .dwattr $C$DW$23, DW_AT_location[DW_OP_reg20]
     348              $C$DW$24        .dwtag  DW_TAG_TI_assign_register, DW_AT_name("XT")
     349                      .dwattr $C$DW$24, DW_AT_location[DW_OP_reg21]
     350              $C$DW$25        .dwtag  DW_TAG_TI_assign_register, DW_AT_name("T")
     351                      .dwattr $C$DW$25, DW_AT_location[DW_OP_reg22]
     352              $C$DW$26        .dwtag  DW_TAG_TI_assign_register, DW_AT_name("ST0")
     353                      .dwattr $C$DW$26, DW_AT_location[DW_OP_reg23]
     354              $C$DW$27        .dwtag  DW_TAG_TI_assign_register, DW_AT_name("ST1")
     355                      .dwattr $C$DW$27, DW_AT_location[DW_OP_reg24]
     356              $C$DW$28        .dwtag  DW_TAG_TI_assign_register, DW_AT_name("PC")
     357                      .dwattr $C$DW$28, DW_AT_location[DW_OP_reg25]
     358              $C$DW$29        .dwtag  DW_TAG_TI_assign_register, DW_AT_name("RPC")
     359                      .dwattr $C$DW$29, DW_AT_location[DW_OP_reg26]
     360              $C$DW$30        .dwtag  DW_TAG_TI_assign_register, DW_AT_name("FP")
     361                      .dwattr $C$DW$30, DW_AT_location[DW_OP_reg28]
     362              $C$DW$31        .dwtag  DW_TAG_TI_assign_register, DW_AT_name("DP")
     363                      .dwattr $C$DW$31, DW_AT_location[DW_OP_reg29]
     364              $C$DW$32        .dwtag  DW_TAG_TI_assign_register, DW_AT_name("SXM")
     365                      .dwattr $C$DW$32, DW_AT_location[DW_OP_reg30]
     366              $C$DW$33        .dwtag  DW_TAG_TI_assign_register, DW_AT_name("PM")
     367                      .dwattr $C$DW$33, DW_AT_location[DW_OP_reg31]
     368              $C$DW$34        .dwtag  DW_TAG_TI_assign_register, DW_AT_name("OVM")
     369                      .dwattr $C$DW$34, DW_AT_location[DW_OP_regx 0x20]
     370              $C$DW$35        .dwtag  DW_TAG_TI_assign_register, DW_AT_name("PAGE0")
     371                      .dwattr $C$DW$35, DW_AT_location[DW_OP_regx 0x21]
     372              $C$DW$36        .dwtag  DW_TAG_TI_assign_register, DW_AT_name("AMODE")
     373                      .dwattr $C$DW$36, DW_AT_location[DW_OP_regx 0x22]
     374              $C$DW$37        .dwtag  DW_TAG_TI_assign_register, DW_AT_name("INTM")
     375                      .dwattr $C$DW$37, DW_AT_location[DW_OP_regx 0x23]
     376              $C$DW$38        .dwtag  DW_TAG_TI_assign_register, DW_AT_name("IFR")
     377                      .dwattr $C$DW$38, DW_AT_location[DW_OP_regx 0x24]
     378              $C$DW$39        .dwtag  DW_TAG_TI_assign_register, DW_AT_name("IER")
     379                      .dwattr $C$DW$39, DW_AT_location[DW_OP_regx 0x25]
TMS320C2000 Assembler PC v6.2.11 Wed Jul 28 15:52:31 2021

Tools Copyright (c) 1996-2015 Texas Instruments Incorporated
adc.asm                                                              PAGE    8

     380              $C$DW$40        .dwtag  DW_TAG_TI_assign_register, DW_AT_name("V")
     381                      .dwattr $C$DW$40, DW_AT_location[DW_OP_regx 0x26]
     382              $C$DW$41        .dwtag  DW_TAG_TI_assign_register, DW_AT_name("PSEUDOH")
     383                      .dwattr $C$DW$41, DW_AT_location[DW_OP_regx 0x4c]
     384              $C$DW$42        .dwtag  DW_TAG_TI_assign_register, DW_AT_name("VOL")
     385                      .dwattr $C$DW$42, DW_AT_location[DW_OP_regx 0x4d]
     386              $C$DW$43        .dwtag  DW_TAG_TI_assign_register, DW_AT_name("AR0")
     387                      .dwattr $C$DW$43, DW_AT_location[DW_OP_reg4]
     388              $C$DW$44        .dwtag  DW_TAG_TI_assign_register, DW_AT_name("AR1")
     389                      .dwattr $C$DW$44, DW_AT_location[DW_OP_reg6]
     390              $C$DW$45        .dwtag  DW_TAG_TI_assign_register, DW_AT_name("AR2")
     391                      .dwattr $C$DW$45, DW_AT_location[DW_OP_reg8]
     392              $C$DW$46        .dwtag  DW_TAG_TI_assign_register, DW_AT_name("AR3")
     393                      .dwattr $C$DW$46, DW_AT_location[DW_OP_reg10]
     394              $C$DW$47        .dwtag  DW_TAG_TI_assign_register, DW_AT_name("AR4")
     395                      .dwattr $C$DW$47, DW_AT_location[DW_OP_reg12]
     396              $C$DW$48        .dwtag  DW_TAG_TI_assign_register, DW_AT_name("AR5")
     397                      .dwattr $C$DW$48, DW_AT_location[DW_OP_reg14]
     398              $C$DW$49        .dwtag  DW_TAG_TI_assign_register, DW_AT_name("AR6")
     399                      .dwattr $C$DW$49, DW_AT_location[DW_OP_reg16]
     400              $C$DW$50        .dwtag  DW_TAG_TI_assign_register, DW_AT_name("XAR6")
     401                      .dwattr $C$DW$50, DW_AT_location[DW_OP_reg17]
     402              $C$DW$51        .dwtag  DW_TAG_TI_assign_register, DW_AT_name("AR7")
     403                      .dwattr $C$DW$51, DW_AT_location[DW_OP_reg18]
     404              $C$DW$52        .dwtag  DW_TAG_TI_assign_register, DW_AT_name("XAR7")
     405                      .dwattr $C$DW$52, DW_AT_location[DW_OP_reg19]
     406              $C$DW$53        .dwtag  DW_TAG_TI_assign_register, DW_AT_name("XAR0")
     407                      .dwattr $C$DW$53, DW_AT_location[DW_OP_reg5]
     408              $C$DW$54        .dwtag  DW_TAG_TI_assign_register, DW_AT_name("XAR1")
     409                      .dwattr $C$DW$54, DW_AT_location[DW_OP_reg7]
     410              $C$DW$55        .dwtag  DW_TAG_TI_assign_register, DW_AT_name("XAR2")
     411                      .dwattr $C$DW$55, DW_AT_location[DW_OP_reg9]
     412              $C$DW$56        .dwtag  DW_TAG_TI_assign_register, DW_AT_name("XAR3")
     413                      .dwattr $C$DW$56, DW_AT_location[DW_OP_reg11]
     414              $C$DW$57        .dwtag  DW_TAG_TI_assign_register, DW_AT_name("XAR4")
     415                      .dwattr $C$DW$57, DW_AT_location[DW_OP_reg13]
     416              $C$DW$58        .dwtag  DW_TAG_TI_assign_register, DW_AT_name("XAR5")
     417                      .dwattr $C$DW$58, DW_AT_location[DW_OP_reg15]
     418              $C$DW$59        .dwtag  DW_TAG_TI_assign_register, DW_AT_name("R0HL")
     419                      .dwattr $C$DW$59, DW_AT_location[DW_OP_regx 0x2b]
     420              $C$DW$60        .dwtag  DW_TAG_TI_assign_register, DW_AT_name("R0H")
     421                      .dwattr $C$DW$60, DW_AT_location[DW_OP_regx 0x2c]
     422              $C$DW$61        .dwtag  DW_TAG_TI_assign_register, DW_AT_name("R1HL")
     423                      .dwattr $C$DW$61, DW_AT_location[DW_OP_regx 0x2f]
     424              $C$DW$62        .dwtag  DW_TAG_TI_assign_register, DW_AT_name("R1H")
     425                      .dwattr $C$DW$62, DW_AT_location[DW_OP_regx 0x30]
     426              $C$DW$63        .dwtag  DW_TAG_TI_assign_register, DW_AT_name("R2HL")
     427                      .dwattr $C$DW$63, DW_AT_location[DW_OP_regx 0x33]
     428              $C$DW$64        .dwtag  DW_TAG_TI_assign_register, DW_AT_name("R2H")
     429                      .dwattr $C$DW$64, DW_AT_location[DW_OP_regx 0x34]
     430              $C$DW$65        .dwtag  DW_TAG_TI_assign_register, DW_AT_name("R3HL")
     431                      .dwattr $C$DW$65, DW_AT_location[DW_OP_regx 0x37]
     432              $C$DW$66        .dwtag  DW_TAG_TI_assign_register, DW_AT_name("R3H")
     433                      .dwattr $C$DW$66, DW_AT_location[DW_OP_regx 0x38]
     434              $C$DW$67        .dwtag  DW_TAG_TI_assign_register, DW_AT_name("R4HL")
TMS320C2000 Assembler PC v6.2.11 Wed Jul 28 15:52:31 2021

Tools Copyright (c) 1996-2015 Texas Instruments Incorporated
adc.asm                                                              PAGE    9

     435                      .dwattr $C$DW$67, DW_AT_location[DW_OP_regx 0x3b]
     436              $C$DW$68        .dwtag  DW_TAG_TI_assign_register, DW_AT_name("R4H")
     437                      .dwattr $C$DW$68, DW_AT_location[DW_OP_regx 0x3c]
     438              $C$DW$69        .dwtag  DW_TAG_TI_assign_register, DW_AT_name("R5HL")
     439                      .dwattr $C$DW$69, DW_AT_location[DW_OP_regx 0x3f]
     440              $C$DW$70        .dwtag  DW_TAG_TI_assign_register, DW_AT_name("R5H")
     441                      .dwattr $C$DW$70, DW_AT_location[DW_OP_regx 0x40]
     442              $C$DW$71        .dwtag  DW_TAG_TI_assign_register, DW_AT_name("R6HL")
     443                      .dwattr $C$DW$71, DW_AT_location[DW_OP_regx 0x43]
     444              $C$DW$72        .dwtag  DW_TAG_TI_assign_register, DW_AT_name("R6H")
     445                      .dwattr $C$DW$72, DW_AT_location[DW_OP_regx 0x44]
     446              $C$DW$73        .dwtag  DW_TAG_TI_assign_register, DW_AT_name("R7HL")
     447                      .dwattr $C$DW$73, DW_AT_location[DW_OP_regx 0x47]
     448              $C$DW$74        .dwtag  DW_TAG_TI_assign_register, DW_AT_name("R7H")
     449                      .dwattr $C$DW$74, DW_AT_location[DW_OP_regx 0x48]
     450              $C$DW$75        .dwtag  DW_TAG_TI_assign_register, DW_AT_name("RBL")
     451                      .dwattr $C$DW$75, DW_AT_location[DW_OP_regx 0x49]
     452              $C$DW$76        .dwtag  DW_TAG_TI_assign_register, DW_AT_name("RB")
     453                      .dwattr $C$DW$76, DW_AT_location[DW_OP_regx 0x4a]
     454              $C$DW$77        .dwtag  DW_TAG_TI_assign_register, DW_AT_name("STFL")
     455                      .dwattr $C$DW$77, DW_AT_location[DW_OP_regx 0x27]
     456              $C$DW$78        .dwtag  DW_TAG_TI_assign_register, DW_AT_name("STF")
     457                      .dwattr $C$DW$78, DW_AT_location[DW_OP_regx 0x28]
     458              $C$DW$79        .dwtag  DW_TAG_TI_assign_register, DW_AT_name("FPUHAZ")
     459                      .dwattr $C$DW$79, DW_AT_location[DW_OP_reg27]
     460              $C$DW$80        .dwtag  DW_TAG_TI_assign_register, DW_AT_name("CIE_RETA")
     461                      .dwattr $C$DW$80, DW_AT_location[DW_OP_regx 0x4e]
     462                      .dwendtag $C$DW$CU
     463              

No Assembly Errors, No Assembly Warnings
