TMS320C2000 Assembler PC v6.2.11 Wed Jul 28 15:52:31 2021

Tools Copyright (c) 1996-2015 Texas Instruments Incorporated
dac.asm                                                              PAGE    1

       1              ;***************************************************************
       2              ;* TMS320C2000 C/C++ Codegen                        PC v6.2.11 *
       3              ;* Date/Time created: Wed Jul 28 15:52:31 2021                 *
       4              ;***************************************************************
       5                      .compiler_opts --cla_support=cla0 --float_support=fpu32 --hll_source=on --mem_model:code=flat --mem_m
       6        0002  FP      .set    XAR2
       7              
       8              $C$DW$CU        .dwtag  DW_TAG_compile_unit
       9                      .dwattr $C$DW$CU, DW_AT_name("../ExtraData/driverlib/dac.c")
      10                      .dwattr $C$DW$CU, DW_AT_producer("TMS320C2000 C/C++ Codegen PC v6.2.11 Copyright (c) 1996-2015 Texas 
      11                      .dwattr $C$DW$CU, DW_AT_TI_version(0x01)
      12                      .dwattr $C$DW$CU, DW_AT_comp_dir("C:\Users\aen17\Desktop\Working\SVN\Repository\AEC_Standard\PTM079")
      13              
      14              $C$DW$1 .dwtag  DW_TAG_subprogram, DW_AT_name("__edis")
      15                      .dwattr $C$DW$1, DW_AT_TI_symbol_name("___edis")
      16                      .dwattr $C$DW$1, DW_AT_declaration
      17                      .dwattr $C$DW$1, DW_AT_external
      18              
      19              $C$DW$2 .dwtag  DW_TAG_subprogram, DW_AT_name("__eallow")
      20                      .dwattr $C$DW$2, DW_AT_TI_symbol_name("___eallow")
      21                      .dwattr $C$DW$2, DW_AT_declaration
      22                      .dwattr $C$DW$2, DW_AT_external
      23              ;       C:\ti\ccsv5\tools\compiler\c2000_6.2.11\bin\ac2000.exe -@C:\\Users\\ADMINI~1\\AppData\\Local\\Temp\\0
      24 00000000               .sect   ".text"
      25                      .clink
      26                      .global _DAC_tuneOffsetTrim
      27              
      28              $C$DW$3 .dwtag  DW_TAG_subprogram, DW_AT_name("DAC_tuneOffsetTrim")
      29                      .dwattr $C$DW$3, DW_AT_low_pc(_DAC_tuneOffsetTrim)
      30                      .dwattr $C$DW$3, DW_AT_high_pc(0x00)
      31                      .dwattr $C$DW$3, DW_AT_TI_symbol_name("_DAC_tuneOffsetTrim")
      32                      .dwattr $C$DW$3, DW_AT_external
      33                      .dwattr $C$DW$3, DW_AT_TI_begin_file("../ExtraData/driverlib/dac.c")
      34                      .dwattr $C$DW$3, DW_AT_TI_begin_line(0x34)
      35                      .dwattr $C$DW$3, DW_AT_TI_begin_column(0x01)
      36                      .dwattr $C$DW$3, DW_AT_TI_max_frame_size(-10)
      37                      .dwpsn  file "../ExtraData/driverlib/dac.c",line 53,column 1,is_stmt,address _DAC_tuneOffsetTrim
      38              
      39                      .dwfde $C$DW$CIE, _DAC_tuneOffsetTrim
      40              $C$DW$4 .dwtag  DW_TAG_formal_parameter, DW_AT_name("base")
      41                      .dwattr $C$DW$4, DW_AT_TI_symbol_name("_base")
      42                      .dwattr $C$DW$4, DW_AT_type(*$C$DW$T$21)
      43                      .dwattr $C$DW$4, DW_AT_location[DW_OP_reg0]
      44              $C$DW$5 .dwtag  DW_TAG_formal_parameter, DW_AT_name("referenceVoltage")
      45                      .dwattr $C$DW$5, DW_AT_TI_symbol_name("_referenceVoltage")
      46                      .dwattr $C$DW$5, DW_AT_type(*$C$DW$T$22)
      47                      .dwattr $C$DW$5, DW_AT_location[DW_OP_regx 0x2b]
      48              
      49              ;***************************************************************
      50              ;* FNAME: _DAC_tuneOffsetTrim           FR SIZE:   8           *
      51              ;*                                                             *
      52              ;* FUNCTION ENVIRONMENT                                        *
      53              ;*                                                             *
      54              ;* FUNCTION PROPERTIES                                         *
      55              ;*                            0 Parameter,  8 Auto,  0 SOE     *
TMS320C2000 Assembler PC v6.2.11 Wed Jul 28 15:52:31 2021

Tools Copyright (c) 1996-2015 Texas Instruments Incorporated
dac.asm                                                              PAGE    2

      56              ;***************************************************************
      57              
      58 00000000       _DAC_tuneOffsetTrim:
      59                      .dwcfi  cfa_offset, -2
      60                      .dwcfi  save_reg_to_mem, 26, 0
      61                      .dwcfi  save_reg_to_reg, 78, 26
      62 00000000 FE08          ADDB      SP,#8                 ; [CPU_U] 
      63                      .dwcfi  cfa_offset, -10
      64              $C$DW$6 .dwtag  DW_TAG_variable, DW_AT_name("base")
      65                      .dwattr $C$DW$6, DW_AT_TI_symbol_name("_base")
      66                      .dwattr $C$DW$6, DW_AT_type(*$C$DW$T$21)
      67                      .dwattr $C$DW$6, DW_AT_location[DW_OP_breg20 -2]
      68              $C$DW$7 .dwtag  DW_TAG_variable, DW_AT_name("referenceVoltage")
      69                      .dwattr $C$DW$7, DW_AT_TI_symbol_name("_referenceVoltage")
      70                      .dwattr $C$DW$7, DW_AT_type(*$C$DW$T$22)
      71                      .dwattr $C$DW$7, DW_AT_location[DW_OP_breg20 -4]
      72              $C$DW$8 .dwtag  DW_TAG_variable, DW_AT_name("oldOffsetTrim")
      73                      .dwattr $C$DW$8, DW_AT_TI_symbol_name("_oldOffsetTrim")
      74                      .dwattr $C$DW$8, DW_AT_type(*$C$DW$T$25)
      75                      .dwattr $C$DW$8, DW_AT_location[DW_OP_breg20 -5]
      76              $C$DW$9 .dwtag  DW_TAG_variable, DW_AT_name("newOffsetTrim")
      77                      .dwattr $C$DW$9, DW_AT_TI_symbol_name("_newOffsetTrim")
      78                      .dwattr $C$DW$9, DW_AT_type(*$C$DW$T$22)
      79                      .dwattr $C$DW$9, DW_AT_location[DW_OP_breg20 -8]
      80 00000001 E203          MOV32     *-SP[4],R0H           ; [CPU_] |53| 
         00000002 0044 
      81 00000003 1E42          MOVL      *-SP[2],ACC           ; [CPU_] |53| 
      82                      .dwpsn  file "../ExtraData/driverlib/dac.c",line 66,column 5,is_stmt
      83 00000004 0206          MOVB      ACC,#6                ; [CPU_] |66| 
      84 00000005 0742          ADDL      ACC,*-SP[2]           ; [CPU_] |66| 
      85 00000006 8AA9          MOVL      XAR4,ACC              ; [CPU_] |66| 
      86 00000007 92C4          MOV       AL,*+XAR4[0]          ; [CPU_] |66| 
      87 00000008 90FF          ANDB      AL,#0xff              ; [CPU_] |66| 
      88 00000009 9645          MOV       *-SP[5],AL            ; [CPU_] |66| 
      89                      .dwpsn  file "../ExtraData/driverlib/dac.c",line 67,column 5,is_stmt
      90 0000000a 90FF          ANDB      AL,#0xff              ; [CPU_] |67| 
      91 0000000b F080          XORB      AL,#0x80              ; [CPU_] |67| 
      92 0000000c 08A9          SUB       AL,#128               ; [CPU_] |67| 
         0000000d FF80 
      93 0000000e 9645          MOV       *-SP[5],AL            ; [CPU_] |67| 
      94                      .dwpsn  file "../ExtraData/driverlib/dac.c",line 74,column 5,is_stmt
      95 0000000f E2AF          MOV32     R1H,*-SP[4]           ; [CPU_] |74| 
         00000010 0144 
      96 00000011 E802          MOVIZ     R0H,#16416            ; [CPU_] |74| 
         00000012 0100 
      97              $C$DW$10        .dwtag  DW_TAG_TI_branch
      98                      .dwattr $C$DW$10, DW_AT_low_pc(0x00)
      99                      .dwattr $C$DW$10, DW_AT_name("FS$$DIV")
     100                      .dwattr $C$DW$10, DW_AT_TI_call
     101 00000013 7640!         LCR       #FS$$DIV              ; [CPU_] |74| 
         00000014 0000 
     102                      ; call occurs [#FS$$DIV] ; [] |74| 
     103 00000015 E2C8          I16TOF32  R1H,*-SP[5]           ; [CPU_] |74| 
         00000016 0145 
     104 00000017 7700          NOP       ; [CPU_] 
TMS320C2000 Assembler PC v6.2.11 Wed Jul 28 15:52:31 2021

Tools Copyright (c) 1996-2015 Texas Instruments Incorporated
dac.asm                                                              PAGE    3

     105 00000018 E700          MPYF32    R0H,R1H,R0H           ; [CPU_] |74| 
         00000019 0008 
     106 0000001a 7700          NOP       ; [CPU_] 
     107 0000001b E203          MOV32     *-SP[8],R0H           ; [CPU_] |74| 
         0000001c 0048 
     108                      .dwpsn  file "../ExtraData/driverlib/dac.c",line 85,column 5,is_stmt
     109              $C$DW$11        .dwtag  DW_TAG_TI_branch
     110                      .dwattr $C$DW$11, DW_AT_low_pc(0x00)
     111                      .dwattr $C$DW$11, DW_AT_name("___eallow")
     112                      .dwattr $C$DW$11, DW_AT_TI_call
     113 0000001d 7640!         LCR       #___eallow            ; [CPU_] |85| 
         0000001e 0000 
     114                      ; call occurs [#___eallow] ; [] |85| 
     115                      .dwpsn  file "../ExtraData/driverlib/dac.c",line 86,column 5,is_stmt
     116 0000001f E2AF          MOV32     R0H,*-SP[8]           ; [CPU_] |86| 
         00000020 0048 
     117 00000021 E68C          F32TOI16  R0H,R0H               ; [CPU_] |86| 
         00000022 0000 
     118 00000023 7700          NOP       ; [CPU_] 
     119 00000024 0206          MOVB      ACC,#6                ; [CPU_] |86| 
     120 00000025 BFA6          MOV32     XAR6,R0H              ; [CPU_] |86| 
         00000026 0F12 
     121 00000027 0742          ADDL      ACC,*-SP[2]           ; [CPU_] |86| 
     122 00000028 8AA9          MOVL      XAR4,ACC              ; [CPU_] |86| 
     123 00000029 CCC4          AND       AL,*+XAR4[0],#0xff00  ; [CPU_] |86| 
         0000002a FF00 
     124 0000002b 98A6          OR        AR6,AL                ; [CPU_] |86| 
     125 0000002c 0206          MOVB      ACC,#6                ; [CPU_] |86| 
     126 0000002d 0742          ADDL      ACC,*-SP[2]           ; [CPU_] |86| 
     127 0000002e 8AA9          MOVL      XAR4,ACC              ; [CPU_] |86| 
     128 0000002f 7EC4          MOV       *+XAR4[0],AR6         ; [CPU_] |86| 
     129                      .dwpsn  file "../ExtraData/driverlib/dac.c",line 90,column 5,is_stmt
     130              $C$DW$12        .dwtag  DW_TAG_TI_branch
     131                      .dwattr $C$DW$12, DW_AT_low_pc(0x00)
     132                      .dwattr $C$DW$12, DW_AT_name("___edis")
     133                      .dwattr $C$DW$12, DW_AT_TI_call
     134 00000030 7640!         LCR       #___edis              ; [CPU_] |90| 
         00000031 0000 
     135                      ; call occurs [#___edis] ; [] |90| 
     136                      .dwpsn  file "../ExtraData/driverlib/dac.c",line 92,column 1,is_stmt
     137 00000032 FE88          SUBB      SP,#8                 ; [CPU_U] 
     138                      .dwcfi  cfa_offset, -2
     139              $C$DW$13        .dwtag  DW_TAG_TI_branch
     140                      .dwattr $C$DW$13, DW_AT_low_pc(0x00)
     141                      .dwattr $C$DW$13, DW_AT_TI_return
     142 00000033 0006          LRETR     ; [CPU_] 
     143                      ; return occurs ; [] 
     144                      .dwattr $C$DW$3, DW_AT_TI_end_file("../ExtraData/driverlib/dac.c")
     145                      .dwattr $C$DW$3, DW_AT_TI_end_line(0x5c)
     146                      .dwattr $C$DW$3, DW_AT_TI_end_column(0x01)
     147                      .dwendentry
     148                      .dwendtag $C$DW$3
     149              
     150              ;**************************************************************
     151              ;* UNDEFINED EXTERNAL REFERENCES                              *
TMS320C2000 Assembler PC v6.2.11 Wed Jul 28 15:52:31 2021

Tools Copyright (c) 1996-2015 Texas Instruments Incorporated
dac.asm                                                              PAGE    4

     152              ;**************************************************************
     153                      .global ___edis
     154                      .global ___eallow
     155                      .global FS$$DIV
     156              
     157              ;***************************************************************
     158              ;* TYPE INFORMATION                                            *
     159              ;***************************************************************
     160              $C$DW$T$4       .dwtag  DW_TAG_base_type
     161                      .dwattr $C$DW$T$4, DW_AT_encoding(DW_ATE_boolean)
     162                      .dwattr $C$DW$T$4, DW_AT_name("bool")
     163                      .dwattr $C$DW$T$4, DW_AT_byte_size(0x01)
     164              $C$DW$T$5       .dwtag  DW_TAG_base_type
     165                      .dwattr $C$DW$T$5, DW_AT_encoding(DW_ATE_signed_char)
     166                      .dwattr $C$DW$T$5, DW_AT_name("signed char")
     167                      .dwattr $C$DW$T$5, DW_AT_byte_size(0x01)
     168              $C$DW$T$6       .dwtag  DW_TAG_base_type
     169                      .dwattr $C$DW$T$6, DW_AT_encoding(DW_ATE_unsigned_char)
     170                      .dwattr $C$DW$T$6, DW_AT_name("unsigned char")
     171                      .dwattr $C$DW$T$6, DW_AT_byte_size(0x01)
     172              $C$DW$T$7       .dwtag  DW_TAG_base_type
     173                      .dwattr $C$DW$T$7, DW_AT_encoding(DW_ATE_signed_char)
     174                      .dwattr $C$DW$T$7, DW_AT_name("wchar_t")
     175                      .dwattr $C$DW$T$7, DW_AT_byte_size(0x01)
     176              $C$DW$T$8       .dwtag  DW_TAG_base_type
     177                      .dwattr $C$DW$T$8, DW_AT_encoding(DW_ATE_signed)
     178                      .dwattr $C$DW$T$8, DW_AT_name("short")
     179                      .dwattr $C$DW$T$8, DW_AT_byte_size(0x01)
     180              $C$DW$T$24      .dwtag  DW_TAG_typedef, DW_AT_name("int16_t")
     181                      .dwattr $C$DW$T$24, DW_AT_type(*$C$DW$T$8)
     182                      .dwattr $C$DW$T$24, DW_AT_language(DW_LANG_C)
     183              $C$DW$T$9       .dwtag  DW_TAG_base_type
     184                      .dwattr $C$DW$T$9, DW_AT_encoding(DW_ATE_unsigned)
     185                      .dwattr $C$DW$T$9, DW_AT_name("unsigned short")
     186                      .dwattr $C$DW$T$9, DW_AT_byte_size(0x01)
     187              $C$DW$T$25      .dwtag  DW_TAG_typedef, DW_AT_name("uint16_t")
     188                      .dwattr $C$DW$T$25, DW_AT_type(*$C$DW$T$9)
     189                      .dwattr $C$DW$T$25, DW_AT_language(DW_LANG_C)
     190              $C$DW$T$10      .dwtag  DW_TAG_base_type
     191                      .dwattr $C$DW$T$10, DW_AT_encoding(DW_ATE_signed)
     192                      .dwattr $C$DW$T$10, DW_AT_name("int")
     193                      .dwattr $C$DW$T$10, DW_AT_byte_size(0x01)
     194              $C$DW$T$11      .dwtag  DW_TAG_base_type
     195                      .dwattr $C$DW$T$11, DW_AT_encoding(DW_ATE_unsigned)
     196                      .dwattr $C$DW$T$11, DW_AT_name("unsigned int")
     197                      .dwattr $C$DW$T$11, DW_AT_byte_size(0x01)
     198              $C$DW$T$12      .dwtag  DW_TAG_base_type
     199                      .dwattr $C$DW$T$12, DW_AT_encoding(DW_ATE_signed)
     200                      .dwattr $C$DW$T$12, DW_AT_name("long")
     201                      .dwattr $C$DW$T$12, DW_AT_byte_size(0x02)
     202              $C$DW$T$13      .dwtag  DW_TAG_base_type
     203                      .dwattr $C$DW$T$13, DW_AT_encoding(DW_ATE_unsigned)
     204                      .dwattr $C$DW$T$13, DW_AT_name("unsigned long")
     205                      .dwattr $C$DW$T$13, DW_AT_byte_size(0x02)
     206              $C$DW$T$21      .dwtag  DW_TAG_typedef, DW_AT_name("uint32_t")
TMS320C2000 Assembler PC v6.2.11 Wed Jul 28 15:52:31 2021

Tools Copyright (c) 1996-2015 Texas Instruments Incorporated
dac.asm                                                              PAGE    5

     207                      .dwattr $C$DW$T$21, DW_AT_type(*$C$DW$T$13)
     208                      .dwattr $C$DW$T$21, DW_AT_language(DW_LANG_C)
     209              $C$DW$T$14      .dwtag  DW_TAG_base_type
     210                      .dwattr $C$DW$T$14, DW_AT_encoding(DW_ATE_signed)
     211                      .dwattr $C$DW$T$14, DW_AT_name("long long")
     212                      .dwattr $C$DW$T$14, DW_AT_byte_size(0x04)
     213              $C$DW$T$15      .dwtag  DW_TAG_base_type
     214                      .dwattr $C$DW$T$15, DW_AT_encoding(DW_ATE_unsigned)
     215                      .dwattr $C$DW$T$15, DW_AT_name("unsigned long long")
     216                      .dwattr $C$DW$T$15, DW_AT_byte_size(0x04)
     217              $C$DW$T$16      .dwtag  DW_TAG_base_type
     218                      .dwattr $C$DW$T$16, DW_AT_encoding(DW_ATE_float)
     219                      .dwattr $C$DW$T$16, DW_AT_name("float")
     220                      .dwattr $C$DW$T$16, DW_AT_byte_size(0x02)
     221              $C$DW$T$22      .dwtag  DW_TAG_typedef, DW_AT_name("float32_t")
     222                      .dwattr $C$DW$T$22, DW_AT_type(*$C$DW$T$16)
     223                      .dwattr $C$DW$T$22, DW_AT_language(DW_LANG_C)
     224              $C$DW$T$17      .dwtag  DW_TAG_base_type
     225                      .dwattr $C$DW$T$17, DW_AT_encoding(DW_ATE_float)
     226                      .dwattr $C$DW$T$17, DW_AT_name("double")
     227                      .dwattr $C$DW$T$17, DW_AT_byte_size(0x02)
     228              $C$DW$T$18      .dwtag  DW_TAG_base_type
     229                      .dwattr $C$DW$T$18, DW_AT_encoding(DW_ATE_float)
     230                      .dwattr $C$DW$T$18, DW_AT_name("long double")
     231                      .dwattr $C$DW$T$18, DW_AT_byte_size(0x04)
     232                      .dwattr $C$DW$CU, DW_AT_language(DW_LANG_C)
     233              
     234              ;***************************************************************
     235              ;* DWARF CIE ENTRIES                                           *
     236              ;***************************************************************
     237              
     238              $C$DW$CIE       .dwcie 78
     239                      .dwcfi  cfa_register, 20
     240                      .dwcfi  cfa_offset, 0
     241                      .dwcfi  undefined, 0
     242                      .dwcfi  undefined, 1
     243                      .dwcfi  undefined, 2
     244                      .dwcfi  undefined, 3
     245                      .dwcfi  undefined, 20
     246                      .dwcfi  undefined, 21
     247                      .dwcfi  undefined, 22
     248                      .dwcfi  undefined, 23
     249                      .dwcfi  undefined, 24
     250                      .dwcfi  undefined, 25
     251                      .dwcfi  undefined, 26
     252                      .dwcfi  same_value, 28
     253                      .dwcfi  undefined, 29
     254                      .dwcfi  undefined, 30
     255                      .dwcfi  undefined, 31
     256                      .dwcfi  undefined, 32
     257                      .dwcfi  undefined, 33
     258                      .dwcfi  undefined, 34
     259                      .dwcfi  undefined, 35
     260                      .dwcfi  undefined, 36
     261                      .dwcfi  undefined, 37
TMS320C2000 Assembler PC v6.2.11 Wed Jul 28 15:52:31 2021

Tools Copyright (c) 1996-2015 Texas Instruments Incorporated
dac.asm                                                              PAGE    6

     262                      .dwcfi  undefined, 38
     263                      .dwcfi  undefined, 75
     264                      .dwcfi  undefined, 76
     265                      .dwcfi  undefined, 77
     266                      .dwcfi  undefined, 4
     267                      .dwcfi  same_value, 6
     268                      .dwcfi  same_value, 8
     269                      .dwcfi  same_value, 10
     270                      .dwcfi  undefined, 12
     271                      .dwcfi  undefined, 14
     272                      .dwcfi  undefined, 16
     273                      .dwcfi  undefined, 17
     274                      .dwcfi  undefined, 18
     275                      .dwcfi  undefined, 19
     276                      .dwcfi  undefined, 5
     277                      .dwcfi  same_value, 7
     278                      .dwcfi  same_value, 9
     279                      .dwcfi  same_value, 11
     280                      .dwcfi  undefined, 13
     281                      .dwcfi  undefined, 15
     282                      .dwcfi  undefined, 43
     283                      .dwcfi  undefined, 44
     284                      .dwcfi  undefined, 47
     285                      .dwcfi  undefined, 48
     286                      .dwcfi  undefined, 51
     287                      .dwcfi  undefined, 52
     288                      .dwcfi  undefined, 55
     289                      .dwcfi  undefined, 56
     290                      .dwcfi  same_value, 59
     291                      .dwcfi  same_value, 60
     292                      .dwcfi  same_value, 63
     293                      .dwcfi  same_value, 64
     294                      .dwcfi  same_value, 67
     295                      .dwcfi  same_value, 68
     296                      .dwcfi  same_value, 71
     297                      .dwcfi  same_value, 72
     298                      .dwcfi  undefined, 73
     299                      .dwcfi  undefined, 74
     300                      .dwcfi  undefined, 39
     301                      .dwcfi  undefined, 40
     302                      .dwcfi  undefined, 27
     303                      .dwcfi  undefined, 78
     304                      .dwendentry
     305              
     306              ;***************************************************************
     307              ;* DWARF REGISTER MAP                                          *
     308              ;***************************************************************
     309              
     310              $C$DW$14        .dwtag  DW_TAG_TI_assign_register, DW_AT_name("AL")
     311                      .dwattr $C$DW$14, DW_AT_location[DW_OP_reg0]
     312              $C$DW$15        .dwtag  DW_TAG_TI_assign_register, DW_AT_name("AH")
     313                      .dwattr $C$DW$15, DW_AT_location[DW_OP_reg1]
     314              $C$DW$16        .dwtag  DW_TAG_TI_assign_register, DW_AT_name("PL")
     315                      .dwattr $C$DW$16, DW_AT_location[DW_OP_reg2]
     316              $C$DW$17        .dwtag  DW_TAG_TI_assign_register, DW_AT_name("PH")
TMS320C2000 Assembler PC v6.2.11 Wed Jul 28 15:52:31 2021

Tools Copyright (c) 1996-2015 Texas Instruments Incorporated
dac.asm                                                              PAGE    7

     317                      .dwattr $C$DW$17, DW_AT_location[DW_OP_reg3]
     318              $C$DW$18        .dwtag  DW_TAG_TI_assign_register, DW_AT_name("SP")
     319                      .dwattr $C$DW$18, DW_AT_location[DW_OP_reg20]
     320              $C$DW$19        .dwtag  DW_TAG_TI_assign_register, DW_AT_name("XT")
     321                      .dwattr $C$DW$19, DW_AT_location[DW_OP_reg21]
     322              $C$DW$20        .dwtag  DW_TAG_TI_assign_register, DW_AT_name("T")
     323                      .dwattr $C$DW$20, DW_AT_location[DW_OP_reg22]
     324              $C$DW$21        .dwtag  DW_TAG_TI_assign_register, DW_AT_name("ST0")
     325                      .dwattr $C$DW$21, DW_AT_location[DW_OP_reg23]
     326              $C$DW$22        .dwtag  DW_TAG_TI_assign_register, DW_AT_name("ST1")
     327                      .dwattr $C$DW$22, DW_AT_location[DW_OP_reg24]
     328              $C$DW$23        .dwtag  DW_TAG_TI_assign_register, DW_AT_name("PC")
     329                      .dwattr $C$DW$23, DW_AT_location[DW_OP_reg25]
     330              $C$DW$24        .dwtag  DW_TAG_TI_assign_register, DW_AT_name("RPC")
     331                      .dwattr $C$DW$24, DW_AT_location[DW_OP_reg26]
     332              $C$DW$25        .dwtag  DW_TAG_TI_assign_register, DW_AT_name("FP")
     333                      .dwattr $C$DW$25, DW_AT_location[DW_OP_reg28]
     334              $C$DW$26        .dwtag  DW_TAG_TI_assign_register, DW_AT_name("DP")
     335                      .dwattr $C$DW$26, DW_AT_location[DW_OP_reg29]
     336              $C$DW$27        .dwtag  DW_TAG_TI_assign_register, DW_AT_name("SXM")
     337                      .dwattr $C$DW$27, DW_AT_location[DW_OP_reg30]
     338              $C$DW$28        .dwtag  DW_TAG_TI_assign_register, DW_AT_name("PM")
     339                      .dwattr $C$DW$28, DW_AT_location[DW_OP_reg31]
     340              $C$DW$29        .dwtag  DW_TAG_TI_assign_register, DW_AT_name("OVM")
     341                      .dwattr $C$DW$29, DW_AT_location[DW_OP_regx 0x20]
     342              $C$DW$30        .dwtag  DW_TAG_TI_assign_register, DW_AT_name("PAGE0")
     343                      .dwattr $C$DW$30, DW_AT_location[DW_OP_regx 0x21]
     344              $C$DW$31        .dwtag  DW_TAG_TI_assign_register, DW_AT_name("AMODE")
     345                      .dwattr $C$DW$31, DW_AT_location[DW_OP_regx 0x22]
     346              $C$DW$32        .dwtag  DW_TAG_TI_assign_register, DW_AT_name("INTM")
     347                      .dwattr $C$DW$32, DW_AT_location[DW_OP_regx 0x23]
     348              $C$DW$33        .dwtag  DW_TAG_TI_assign_register, DW_AT_name("IFR")
     349                      .dwattr $C$DW$33, DW_AT_location[DW_OP_regx 0x24]
     350              $C$DW$34        .dwtag  DW_TAG_TI_assign_register, DW_AT_name("IER")
     351                      .dwattr $C$DW$34, DW_AT_location[DW_OP_regx 0x25]
     352              $C$DW$35        .dwtag  DW_TAG_TI_assign_register, DW_AT_name("V")
     353                      .dwattr $C$DW$35, DW_AT_location[DW_OP_regx 0x26]
     354              $C$DW$36        .dwtag  DW_TAG_TI_assign_register, DW_AT_name("PSEUDOH")
     355                      .dwattr $C$DW$36, DW_AT_location[DW_OP_regx 0x4c]
     356              $C$DW$37        .dwtag  DW_TAG_TI_assign_register, DW_AT_name("VOL")
     357                      .dwattr $C$DW$37, DW_AT_location[DW_OP_regx 0x4d]
     358              $C$DW$38        .dwtag  DW_TAG_TI_assign_register, DW_AT_name("AR0")
     359                      .dwattr $C$DW$38, DW_AT_location[DW_OP_reg4]
     360              $C$DW$39        .dwtag  DW_TAG_TI_assign_register, DW_AT_name("AR1")
     361                      .dwattr $C$DW$39, DW_AT_location[DW_OP_reg6]
     362              $C$DW$40        .dwtag  DW_TAG_TI_assign_register, DW_AT_name("AR2")
     363                      .dwattr $C$DW$40, DW_AT_location[DW_OP_reg8]
     364              $C$DW$41        .dwtag  DW_TAG_TI_assign_register, DW_AT_name("AR3")
     365                      .dwattr $C$DW$41, DW_AT_location[DW_OP_reg10]
     366              $C$DW$42        .dwtag  DW_TAG_TI_assign_register, DW_AT_name("AR4")
     367                      .dwattr $C$DW$42, DW_AT_location[DW_OP_reg12]
     368              $C$DW$43        .dwtag  DW_TAG_TI_assign_register, DW_AT_name("AR5")
     369                      .dwattr $C$DW$43, DW_AT_location[DW_OP_reg14]
     370              $C$DW$44        .dwtag  DW_TAG_TI_assign_register, DW_AT_name("AR6")
     371                      .dwattr $C$DW$44, DW_AT_location[DW_OP_reg16]
TMS320C2000 Assembler PC v6.2.11 Wed Jul 28 15:52:31 2021

Tools Copyright (c) 1996-2015 Texas Instruments Incorporated
dac.asm                                                              PAGE    8

     372              $C$DW$45        .dwtag  DW_TAG_TI_assign_register, DW_AT_name("XAR6")
     373                      .dwattr $C$DW$45, DW_AT_location[DW_OP_reg17]
     374              $C$DW$46        .dwtag  DW_TAG_TI_assign_register, DW_AT_name("AR7")
     375                      .dwattr $C$DW$46, DW_AT_location[DW_OP_reg18]
     376              $C$DW$47        .dwtag  DW_TAG_TI_assign_register, DW_AT_name("XAR7")
     377                      .dwattr $C$DW$47, DW_AT_location[DW_OP_reg19]
     378              $C$DW$48        .dwtag  DW_TAG_TI_assign_register, DW_AT_name("XAR0")
     379                      .dwattr $C$DW$48, DW_AT_location[DW_OP_reg5]
     380              $C$DW$49        .dwtag  DW_TAG_TI_assign_register, DW_AT_name("XAR1")
     381                      .dwattr $C$DW$49, DW_AT_location[DW_OP_reg7]
     382              $C$DW$50        .dwtag  DW_TAG_TI_assign_register, DW_AT_name("XAR2")
     383                      .dwattr $C$DW$50, DW_AT_location[DW_OP_reg9]
     384              $C$DW$51        .dwtag  DW_TAG_TI_assign_register, DW_AT_name("XAR3")
     385                      .dwattr $C$DW$51, DW_AT_location[DW_OP_reg11]
     386              $C$DW$52        .dwtag  DW_TAG_TI_assign_register, DW_AT_name("XAR4")
     387                      .dwattr $C$DW$52, DW_AT_location[DW_OP_reg13]
     388              $C$DW$53        .dwtag  DW_TAG_TI_assign_register, DW_AT_name("XAR5")
     389                      .dwattr $C$DW$53, DW_AT_location[DW_OP_reg15]
     390              $C$DW$54        .dwtag  DW_TAG_TI_assign_register, DW_AT_name("R0HL")
     391                      .dwattr $C$DW$54, DW_AT_location[DW_OP_regx 0x2b]
     392              $C$DW$55        .dwtag  DW_TAG_TI_assign_register, DW_AT_name("R0H")
     393                      .dwattr $C$DW$55, DW_AT_location[DW_OP_regx 0x2c]
     394              $C$DW$56        .dwtag  DW_TAG_TI_assign_register, DW_AT_name("R1HL")
     395                      .dwattr $C$DW$56, DW_AT_location[DW_OP_regx 0x2f]
     396              $C$DW$57        .dwtag  DW_TAG_TI_assign_register, DW_AT_name("R1H")
     397                      .dwattr $C$DW$57, DW_AT_location[DW_OP_regx 0x30]
     398              $C$DW$58        .dwtag  DW_TAG_TI_assign_register, DW_AT_name("R2HL")
     399                      .dwattr $C$DW$58, DW_AT_location[DW_OP_regx 0x33]
     400              $C$DW$59        .dwtag  DW_TAG_TI_assign_register, DW_AT_name("R2H")
     401                      .dwattr $C$DW$59, DW_AT_location[DW_OP_regx 0x34]
     402              $C$DW$60        .dwtag  DW_TAG_TI_assign_register, DW_AT_name("R3HL")
     403                      .dwattr $C$DW$60, DW_AT_location[DW_OP_regx 0x37]
     404              $C$DW$61        .dwtag  DW_TAG_TI_assign_register, DW_AT_name("R3H")
     405                      .dwattr $C$DW$61, DW_AT_location[DW_OP_regx 0x38]
     406              $C$DW$62        .dwtag  DW_TAG_TI_assign_register, DW_AT_name("R4HL")
     407                      .dwattr $C$DW$62, DW_AT_location[DW_OP_regx 0x3b]
     408              $C$DW$63        .dwtag  DW_TAG_TI_assign_register, DW_AT_name("R4H")
     409                      .dwattr $C$DW$63, DW_AT_location[DW_OP_regx 0x3c]
     410              $C$DW$64        .dwtag  DW_TAG_TI_assign_register, DW_AT_name("R5HL")
     411                      .dwattr $C$DW$64, DW_AT_location[DW_OP_regx 0x3f]
     412              $C$DW$65        .dwtag  DW_TAG_TI_assign_register, DW_AT_name("R5H")
     413                      .dwattr $C$DW$65, DW_AT_location[DW_OP_regx 0x40]
     414              $C$DW$66        .dwtag  DW_TAG_TI_assign_register, DW_AT_name("R6HL")
     415                      .dwattr $C$DW$66, DW_AT_location[DW_OP_regx 0x43]
     416              $C$DW$67        .dwtag  DW_TAG_TI_assign_register, DW_AT_name("R6H")
     417                      .dwattr $C$DW$67, DW_AT_location[DW_OP_regx 0x44]
     418              $C$DW$68        .dwtag  DW_TAG_TI_assign_register, DW_AT_name("R7HL")
     419                      .dwattr $C$DW$68, DW_AT_location[DW_OP_regx 0x47]
     420              $C$DW$69        .dwtag  DW_TAG_TI_assign_register, DW_AT_name("R7H")
     421                      .dwattr $C$DW$69, DW_AT_location[DW_OP_regx 0x48]
     422              $C$DW$70        .dwtag  DW_TAG_TI_assign_register, DW_AT_name("RBL")
     423                      .dwattr $C$DW$70, DW_AT_location[DW_OP_regx 0x49]
     424              $C$DW$71        .dwtag  DW_TAG_TI_assign_register, DW_AT_name("RB")
     425                      .dwattr $C$DW$71, DW_AT_location[DW_OP_regx 0x4a]
     426              $C$DW$72        .dwtag  DW_TAG_TI_assign_register, DW_AT_name("STFL")
TMS320C2000 Assembler PC v6.2.11 Wed Jul 28 15:52:31 2021

Tools Copyright (c) 1996-2015 Texas Instruments Incorporated
dac.asm                                                              PAGE    9

     427                      .dwattr $C$DW$72, DW_AT_location[DW_OP_regx 0x27]
     428              $C$DW$73        .dwtag  DW_TAG_TI_assign_register, DW_AT_name("STF")
     429                      .dwattr $C$DW$73, DW_AT_location[DW_OP_regx 0x28]
     430              $C$DW$74        .dwtag  DW_TAG_TI_assign_register, DW_AT_name("FPUHAZ")
     431                      .dwattr $C$DW$74, DW_AT_location[DW_OP_reg27]
     432              $C$DW$75        .dwtag  DW_TAG_TI_assign_register, DW_AT_name("CIE_RETA")
     433                      .dwattr $C$DW$75, DW_AT_location[DW_OP_regx 0x4e]
     434                      .dwendtag $C$DW$CU
     435              

No Assembly Errors, No Assembly Warnings
