TMS320C2000 Assembler PC v6.2.11 Wed Jul 28 15:52:33 2021

Tools Copyright (c) 1996-2015 Texas Instruments Incorporated
ecap.asm                                                             PAGE    1

       1              ;***************************************************************
       2              ;* TMS320C2000 C/C++ Codegen                        PC v6.2.11 *
       3              ;* Date/Time created: Wed Jul 28 15:52:32 2021                 *
       4              ;***************************************************************
       5                      .compiler_opts --cla_support=cla0 --float_support=fpu32 --hll_source=on --mem_model:code=flat --mem_m
       6        0002  FP      .set    XAR2
       7              
       8              $C$DW$CU        .dwtag  DW_TAG_compile_unit
       9                      .dwattr $C$DW$CU, DW_AT_name("../ExtraData/driverlib/ecap.c")
      10                      .dwattr $C$DW$CU, DW_AT_producer("TMS320C2000 C/C++ Codegen PC v6.2.11 Copyright (c) 1996-2015 Texas 
      11                      .dwattr $C$DW$CU, DW_AT_TI_version(0x01)
      12                      .dwattr $C$DW$CU, DW_AT_comp_dir("C:\Users\aen17\Desktop\Working\SVN\Repository\AEC_Standard\PTM079")
      13              ;       C:\ti\ccsv5\tools\compiler\c2000_6.2.11\bin\ac2000.exe -@C:\\Users\\ADMINI~1\\AppData\\Local\\Temp\\1
      14 00000000               .sect   ".text"
      15                      .clink
      16                      .global _ECAP_setEmulationMode
      17              
      18              $C$DW$1 .dwtag  DW_TAG_subprogram, DW_AT_name("ECAP_setEmulationMode")
      19                      .dwattr $C$DW$1, DW_AT_low_pc(_ECAP_setEmulationMode)
      20                      .dwattr $C$DW$1, DW_AT_high_pc(0x00)
      21                      .dwattr $C$DW$1, DW_AT_TI_symbol_name("_ECAP_setEmulationMode")
      22                      .dwattr $C$DW$1, DW_AT_external
      23                      .dwattr $C$DW$1, DW_AT_TI_begin_file("../ExtraData/driverlib/ecap.c")
      24                      .dwattr $C$DW$1, DW_AT_TI_begin_line(0x32)
      25                      .dwattr $C$DW$1, DW_AT_TI_begin_column(0x06)
      26                      .dwattr $C$DW$1, DW_AT_TI_max_frame_size(-6)
      27                      .dwpsn  file "../ExtraData/driverlib/ecap.c",line 51,column 1,is_stmt,address _ECAP_setEmulationMode
      28              
      29                      .dwfde $C$DW$CIE, _ECAP_setEmulationMode
      30              $C$DW$2 .dwtag  DW_TAG_formal_parameter, DW_AT_name("base")
      31                      .dwattr $C$DW$2, DW_AT_TI_symbol_name("_base")
      32                      .dwattr $C$DW$2, DW_AT_type(*$C$DW$T$21)
      33                      .dwattr $C$DW$2, DW_AT_location[DW_OP_reg0]
      34              $C$DW$3 .dwtag  DW_TAG_formal_parameter, DW_AT_name("mode")
      35                      .dwattr $C$DW$3, DW_AT_TI_symbol_name("_mode")
      36                      .dwattr $C$DW$3, DW_AT_type(*$C$DW$T$20)
      37                      .dwattr $C$DW$3, DW_AT_location[DW_OP_reg12]
      38              
      39              ;***************************************************************
      40              ;* FNAME: _ECAP_setEmulationMode        FR SIZE:   4           *
      41              ;*                                                             *
      42              ;* FUNCTION ENVIRONMENT                                        *
      43              ;*                                                             *
      44              ;* FUNCTION PROPERTIES                                         *
      45              ;*                            0 Parameter,  3 Auto,  0 SOE     *
      46              ;***************************************************************
      47              
      48 00000000       _ECAP_setEmulationMode:
      49                      .dwcfi  cfa_offset, -2
      50                      .dwcfi  save_reg_to_mem, 26, 0
      51                      .dwcfi  save_reg_to_reg, 78, 26
      52 00000000 FE04          ADDB      SP,#4                 ; [CPU_U] 
      53                      .dwcfi  cfa_offset, -6
      54              $C$DW$4 .dwtag  DW_TAG_variable, DW_AT_name("base")
      55                      .dwattr $C$DW$4, DW_AT_TI_symbol_name("_base")
TMS320C2000 Assembler PC v6.2.11 Wed Jul 28 15:52:33 2021

Tools Copyright (c) 1996-2015 Texas Instruments Incorporated
ecap.asm                                                             PAGE    2

      56                      .dwattr $C$DW$4, DW_AT_type(*$C$DW$T$21)
      57                      .dwattr $C$DW$4, DW_AT_location[DW_OP_breg20 -2]
      58              $C$DW$5 .dwtag  DW_TAG_variable, DW_AT_name("mode")
      59                      .dwattr $C$DW$5, DW_AT_TI_symbol_name("_mode")
      60                      .dwattr $C$DW$5, DW_AT_type(*$C$DW$T$20)
      61                      .dwattr $C$DW$5, DW_AT_location[DW_OP_breg20 -3]
      62 00000001 7C43          MOV       *-SP[3],AR4           ; [CPU_] |51| 
      63 00000002 1E42          MOVL      *-SP[2],ACC           ; [CPU_] |51| 
      64                      .dwpsn  file "../ExtraData/driverlib/ecap.c",line 58,column 5,is_stmt
      65 00000003 0214          MOVB      ACC,#20               ; [CPU_] |58| 
      66 00000004 0742          ADDL      ACC,*-SP[2]           ; [CPU_] |58| 
      67 00000005 8AA9          MOVL      XAR4,ACC              ; [CPU_] |58| 
      68 00000006 CCC4          AND       AL,*+XAR4[0],#0x3fff  ; [CPU_] |58| 
         00000007 3FFF 
      69 00000008 80A9          MOVZ      AR7,AL                ; [CPU_] |58| 
      70 00000009 5603          MOV       ACC,*-SP[3] << #14    ; [CPU_] |58| 
         0000000a 0E43 
      71 0000000b CAA7          OR        AL,AR7                ; [CPU_] |58| 
      72 0000000c 88A9          MOVZ      AR6,AL                ; [CPU_] |58| 
      73 0000000d 0214          MOVB      ACC,#20               ; [CPU_] |58| 
      74 0000000e 0742          ADDL      ACC,*-SP[2]           ; [CPU_] |58| 
      75 0000000f 8AA9          MOVL      XAR4,ACC              ; [CPU_] |58| 
      76 00000010 7EC4          MOV       *+XAR4[0],AR6         ; [CPU_] |58| 
      77                      .dwpsn  file "../ExtraData/driverlib/ecap.c",line 61,column 1,is_stmt
      78 00000011 FE84          SUBB      SP,#4                 ; [CPU_U] 
      79                      .dwcfi  cfa_offset, -2
      80              $C$DW$6 .dwtag  DW_TAG_TI_branch
      81                      .dwattr $C$DW$6, DW_AT_low_pc(0x00)
      82                      .dwattr $C$DW$6, DW_AT_TI_return
      83 00000012 0006          LRETR     ; [CPU_] 
      84                      ; return occurs ; [] 
      85                      .dwattr $C$DW$1, DW_AT_TI_end_file("../ExtraData/driverlib/ecap.c")
      86                      .dwattr $C$DW$1, DW_AT_TI_end_line(0x3d)
      87                      .dwattr $C$DW$1, DW_AT_TI_end_column(0x01)
      88                      .dwendentry
      89                      .dwendtag $C$DW$1
      90              
      91              
      92              ;***************************************************************
      93              ;* TYPE INFORMATION                                            *
      94              ;***************************************************************
      95              
      96              $C$DW$T$19      .dwtag  DW_TAG_enumeration_type
      97                      .dwattr $C$DW$T$19, DW_AT_byte_size(0x01)
      98              $C$DW$7 .dwtag  DW_TAG_enumerator, DW_AT_name("ECAP_EMULATION_STOP"), DW_AT_const_value(0x00)
      99              $C$DW$8 .dwtag  DW_TAG_enumerator, DW_AT_name("ECAP_EMULATION_RUN_TO_ZERO"), DW_AT_const_value(0x01)
     100              $C$DW$9 .dwtag  DW_TAG_enumerator, DW_AT_name("ECAP_EMULATION_FREE_RUN"), DW_AT_const_value(0x02)
     101                      .dwendtag $C$DW$T$19
     102              
     103              $C$DW$T$20      .dwtag  DW_TAG_typedef, DW_AT_name("ECAP_EmulationMode")
     104                      .dwattr $C$DW$T$20, DW_AT_type(*$C$DW$T$19)
     105                      .dwattr $C$DW$T$20, DW_AT_language(DW_LANG_C)
     106              $C$DW$T$4       .dwtag  DW_TAG_base_type
     107                      .dwattr $C$DW$T$4, DW_AT_encoding(DW_ATE_boolean)
     108                      .dwattr $C$DW$T$4, DW_AT_name("bool")
TMS320C2000 Assembler PC v6.2.11 Wed Jul 28 15:52:33 2021

Tools Copyright (c) 1996-2015 Texas Instruments Incorporated
ecap.asm                                                             PAGE    3

     109                      .dwattr $C$DW$T$4, DW_AT_byte_size(0x01)
     110              $C$DW$T$5       .dwtag  DW_TAG_base_type
     111                      .dwattr $C$DW$T$5, DW_AT_encoding(DW_ATE_signed_char)
     112                      .dwattr $C$DW$T$5, DW_AT_name("signed char")
     113                      .dwattr $C$DW$T$5, DW_AT_byte_size(0x01)
     114              $C$DW$T$6       .dwtag  DW_TAG_base_type
     115                      .dwattr $C$DW$T$6, DW_AT_encoding(DW_ATE_unsigned_char)
     116                      .dwattr $C$DW$T$6, DW_AT_name("unsigned char")
     117                      .dwattr $C$DW$T$6, DW_AT_byte_size(0x01)
     118              $C$DW$T$7       .dwtag  DW_TAG_base_type
     119                      .dwattr $C$DW$T$7, DW_AT_encoding(DW_ATE_signed_char)
     120                      .dwattr $C$DW$T$7, DW_AT_name("wchar_t")
     121                      .dwattr $C$DW$T$7, DW_AT_byte_size(0x01)
     122              $C$DW$T$8       .dwtag  DW_TAG_base_type
     123                      .dwattr $C$DW$T$8, DW_AT_encoding(DW_ATE_signed)
     124                      .dwattr $C$DW$T$8, DW_AT_name("short")
     125                      .dwattr $C$DW$T$8, DW_AT_byte_size(0x01)
     126              $C$DW$T$9       .dwtag  DW_TAG_base_type
     127                      .dwattr $C$DW$T$9, DW_AT_encoding(DW_ATE_unsigned)
     128                      .dwattr $C$DW$T$9, DW_AT_name("unsigned short")
     129                      .dwattr $C$DW$T$9, DW_AT_byte_size(0x01)
     130              $C$DW$T$23      .dwtag  DW_TAG_typedef, DW_AT_name("uint16_t")
     131                      .dwattr $C$DW$T$23, DW_AT_type(*$C$DW$T$9)
     132                      .dwattr $C$DW$T$23, DW_AT_language(DW_LANG_C)
     133              $C$DW$T$10      .dwtag  DW_TAG_base_type
     134                      .dwattr $C$DW$T$10, DW_AT_encoding(DW_ATE_signed)
     135                      .dwattr $C$DW$T$10, DW_AT_name("int")
     136                      .dwattr $C$DW$T$10, DW_AT_byte_size(0x01)
     137              $C$DW$T$11      .dwtag  DW_TAG_base_type
     138                      .dwattr $C$DW$T$11, DW_AT_encoding(DW_ATE_unsigned)
     139                      .dwattr $C$DW$T$11, DW_AT_name("unsigned int")
     140                      .dwattr $C$DW$T$11, DW_AT_byte_size(0x01)
     141              $C$DW$T$12      .dwtag  DW_TAG_base_type
     142                      .dwattr $C$DW$T$12, DW_AT_encoding(DW_ATE_signed)
     143                      .dwattr $C$DW$T$12, DW_AT_name("long")
     144                      .dwattr $C$DW$T$12, DW_AT_byte_size(0x02)
     145              $C$DW$T$13      .dwtag  DW_TAG_base_type
     146                      .dwattr $C$DW$T$13, DW_AT_encoding(DW_ATE_unsigned)
     147                      .dwattr $C$DW$T$13, DW_AT_name("unsigned long")
     148                      .dwattr $C$DW$T$13, DW_AT_byte_size(0x02)
     149              $C$DW$T$21      .dwtag  DW_TAG_typedef, DW_AT_name("uint32_t")
     150                      .dwattr $C$DW$T$21, DW_AT_type(*$C$DW$T$13)
     151                      .dwattr $C$DW$T$21, DW_AT_language(DW_LANG_C)
     152              $C$DW$T$14      .dwtag  DW_TAG_base_type
     153                      .dwattr $C$DW$T$14, DW_AT_encoding(DW_ATE_signed)
     154                      .dwattr $C$DW$T$14, DW_AT_name("long long")
     155                      .dwattr $C$DW$T$14, DW_AT_byte_size(0x04)
     156              $C$DW$T$15      .dwtag  DW_TAG_base_type
     157                      .dwattr $C$DW$T$15, DW_AT_encoding(DW_ATE_unsigned)
     158                      .dwattr $C$DW$T$15, DW_AT_name("unsigned long long")
     159                      .dwattr $C$DW$T$15, DW_AT_byte_size(0x04)
     160              $C$DW$T$16      .dwtag  DW_TAG_base_type
     161                      .dwattr $C$DW$T$16, DW_AT_encoding(DW_ATE_float)
     162                      .dwattr $C$DW$T$16, DW_AT_name("float")
     163                      .dwattr $C$DW$T$16, DW_AT_byte_size(0x02)
TMS320C2000 Assembler PC v6.2.11 Wed Jul 28 15:52:33 2021

Tools Copyright (c) 1996-2015 Texas Instruments Incorporated
ecap.asm                                                             PAGE    4

     164              $C$DW$T$17      .dwtag  DW_TAG_base_type
     165                      .dwattr $C$DW$T$17, DW_AT_encoding(DW_ATE_float)
     166                      .dwattr $C$DW$T$17, DW_AT_name("double")
     167                      .dwattr $C$DW$T$17, DW_AT_byte_size(0x02)
     168              $C$DW$T$18      .dwtag  DW_TAG_base_type
     169                      .dwattr $C$DW$T$18, DW_AT_encoding(DW_ATE_float)
     170                      .dwattr $C$DW$T$18, DW_AT_name("long double")
     171                      .dwattr $C$DW$T$18, DW_AT_byte_size(0x04)
     172                      .dwattr $C$DW$CU, DW_AT_language(DW_LANG_C)
     173              
     174              ;***************************************************************
     175              ;* DWARF CIE ENTRIES                                           *
     176              ;***************************************************************
     177              
     178              $C$DW$CIE       .dwcie 78
     179                      .dwcfi  cfa_register, 20
     180                      .dwcfi  cfa_offset, 0
     181                      .dwcfi  undefined, 0
     182                      .dwcfi  undefined, 1
     183                      .dwcfi  undefined, 2
     184                      .dwcfi  undefined, 3
     185                      .dwcfi  undefined, 20
     186                      .dwcfi  undefined, 21
     187                      .dwcfi  undefined, 22
     188                      .dwcfi  undefined, 23
     189                      .dwcfi  undefined, 24
     190                      .dwcfi  undefined, 25
     191                      .dwcfi  undefined, 26
     192                      .dwcfi  same_value, 28
     193                      .dwcfi  undefined, 29
     194                      .dwcfi  undefined, 30
     195                      .dwcfi  undefined, 31
     196                      .dwcfi  undefined, 32
     197                      .dwcfi  undefined, 33
     198                      .dwcfi  undefined, 34
     199                      .dwcfi  undefined, 35
     200                      .dwcfi  undefined, 36
     201                      .dwcfi  undefined, 37
     202                      .dwcfi  undefined, 38
     203                      .dwcfi  undefined, 75
     204                      .dwcfi  undefined, 76
     205                      .dwcfi  undefined, 77
     206                      .dwcfi  undefined, 4
     207                      .dwcfi  same_value, 6
     208                      .dwcfi  same_value, 8
     209                      .dwcfi  same_value, 10
     210                      .dwcfi  undefined, 12
     211                      .dwcfi  undefined, 14
     212                      .dwcfi  undefined, 16
     213                      .dwcfi  undefined, 17
     214                      .dwcfi  undefined, 18
     215                      .dwcfi  undefined, 19
     216                      .dwcfi  undefined, 5
     217                      .dwcfi  same_value, 7
     218                      .dwcfi  same_value, 9
TMS320C2000 Assembler PC v6.2.11 Wed Jul 28 15:52:33 2021

Tools Copyright (c) 1996-2015 Texas Instruments Incorporated
ecap.asm                                                             PAGE    5

     219                      .dwcfi  same_value, 11
     220                      .dwcfi  undefined, 13
     221                      .dwcfi  undefined, 15
     222                      .dwcfi  undefined, 43
     223                      .dwcfi  undefined, 44
     224                      .dwcfi  undefined, 47
     225                      .dwcfi  undefined, 48
     226                      .dwcfi  undefined, 51
     227                      .dwcfi  undefined, 52
     228                      .dwcfi  undefined, 55
     229                      .dwcfi  undefined, 56
     230                      .dwcfi  same_value, 59
     231                      .dwcfi  same_value, 60
     232                      .dwcfi  same_value, 63
     233                      .dwcfi  same_value, 64
     234                      .dwcfi  same_value, 67
     235                      .dwcfi  same_value, 68
     236                      .dwcfi  same_value, 71
     237                      .dwcfi  same_value, 72
     238                      .dwcfi  undefined, 73
     239                      .dwcfi  undefined, 74
     240                      .dwcfi  undefined, 39
     241                      .dwcfi  undefined, 40
     242                      .dwcfi  undefined, 27
     243                      .dwcfi  undefined, 78
     244                      .dwendentry
     245              
     246              ;***************************************************************
     247              ;* DWARF REGISTER MAP                                          *
     248              ;***************************************************************
     249              
     250              $C$DW$10        .dwtag  DW_TAG_TI_assign_register, DW_AT_name("AL")
     251                      .dwattr $C$DW$10, DW_AT_location[DW_OP_reg0]
     252              $C$DW$11        .dwtag  DW_TAG_TI_assign_register, DW_AT_name("AH")
     253                      .dwattr $C$DW$11, DW_AT_location[DW_OP_reg1]
     254              $C$DW$12        .dwtag  DW_TAG_TI_assign_register, DW_AT_name("PL")
     255                      .dwattr $C$DW$12, DW_AT_location[DW_OP_reg2]
     256              $C$DW$13        .dwtag  DW_TAG_TI_assign_register, DW_AT_name("PH")
     257                      .dwattr $C$DW$13, DW_AT_location[DW_OP_reg3]
     258              $C$DW$14        .dwtag  DW_TAG_TI_assign_register, DW_AT_name("SP")
     259                      .dwattr $C$DW$14, DW_AT_location[DW_OP_reg20]
     260              $C$DW$15        .dwtag  DW_TAG_TI_assign_register, DW_AT_name("XT")
     261                      .dwattr $C$DW$15, DW_AT_location[DW_OP_reg21]
     262              $C$DW$16        .dwtag  DW_TAG_TI_assign_register, DW_AT_name("T")
     263                      .dwattr $C$DW$16, DW_AT_location[DW_OP_reg22]
     264              $C$DW$17        .dwtag  DW_TAG_TI_assign_register, DW_AT_name("ST0")
     265                      .dwattr $C$DW$17, DW_AT_location[DW_OP_reg23]
     266              $C$DW$18        .dwtag  DW_TAG_TI_assign_register, DW_AT_name("ST1")
     267                      .dwattr $C$DW$18, DW_AT_location[DW_OP_reg24]
     268              $C$DW$19        .dwtag  DW_TAG_TI_assign_register, DW_AT_name("PC")
     269                      .dwattr $C$DW$19, DW_AT_location[DW_OP_reg25]
     270              $C$DW$20        .dwtag  DW_TAG_TI_assign_register, DW_AT_name("RPC")
     271                      .dwattr $C$DW$20, DW_AT_location[DW_OP_reg26]
     272              $C$DW$21        .dwtag  DW_TAG_TI_assign_register, DW_AT_name("FP")
     273                      .dwattr $C$DW$21, DW_AT_location[DW_OP_reg28]
TMS320C2000 Assembler PC v6.2.11 Wed Jul 28 15:52:33 2021

Tools Copyright (c) 1996-2015 Texas Instruments Incorporated
ecap.asm                                                             PAGE    6

     274              $C$DW$22        .dwtag  DW_TAG_TI_assign_register, DW_AT_name("DP")
     275                      .dwattr $C$DW$22, DW_AT_location[DW_OP_reg29]
     276              $C$DW$23        .dwtag  DW_TAG_TI_assign_register, DW_AT_name("SXM")
     277                      .dwattr $C$DW$23, DW_AT_location[DW_OP_reg30]
     278              $C$DW$24        .dwtag  DW_TAG_TI_assign_register, DW_AT_name("PM")
     279                      .dwattr $C$DW$24, DW_AT_location[DW_OP_reg31]
     280              $C$DW$25        .dwtag  DW_TAG_TI_assign_register, DW_AT_name("OVM")
     281                      .dwattr $C$DW$25, DW_AT_location[DW_OP_regx 0x20]
     282              $C$DW$26        .dwtag  DW_TAG_TI_assign_register, DW_AT_name("PAGE0")
     283                      .dwattr $C$DW$26, DW_AT_location[DW_OP_regx 0x21]
     284              $C$DW$27        .dwtag  DW_TAG_TI_assign_register, DW_AT_name("AMODE")
     285                      .dwattr $C$DW$27, DW_AT_location[DW_OP_regx 0x22]
     286              $C$DW$28        .dwtag  DW_TAG_TI_assign_register, DW_AT_name("INTM")
     287                      .dwattr $C$DW$28, DW_AT_location[DW_OP_regx 0x23]
     288              $C$DW$29        .dwtag  DW_TAG_TI_assign_register, DW_AT_name("IFR")
     289                      .dwattr $C$DW$29, DW_AT_location[DW_OP_regx 0x24]
     290              $C$DW$30        .dwtag  DW_TAG_TI_assign_register, DW_AT_name("IER")
     291                      .dwattr $C$DW$30, DW_AT_location[DW_OP_regx 0x25]
     292              $C$DW$31        .dwtag  DW_TAG_TI_assign_register, DW_AT_name("V")
     293                      .dwattr $C$DW$31, DW_AT_location[DW_OP_regx 0x26]
     294              $C$DW$32        .dwtag  DW_TAG_TI_assign_register, DW_AT_name("PSEUDOH")
     295                      .dwattr $C$DW$32, DW_AT_location[DW_OP_regx 0x4c]
     296              $C$DW$33        .dwtag  DW_TAG_TI_assign_register, DW_AT_name("VOL")
     297                      .dwattr $C$DW$33, DW_AT_location[DW_OP_regx 0x4d]
     298              $C$DW$34        .dwtag  DW_TAG_TI_assign_register, DW_AT_name("AR0")
     299                      .dwattr $C$DW$34, DW_AT_location[DW_OP_reg4]
     300              $C$DW$35        .dwtag  DW_TAG_TI_assign_register, DW_AT_name("AR1")
     301                      .dwattr $C$DW$35, DW_AT_location[DW_OP_reg6]
     302              $C$DW$36        .dwtag  DW_TAG_TI_assign_register, DW_AT_name("AR2")
     303                      .dwattr $C$DW$36, DW_AT_location[DW_OP_reg8]
     304              $C$DW$37        .dwtag  DW_TAG_TI_assign_register, DW_AT_name("AR3")
     305                      .dwattr $C$DW$37, DW_AT_location[DW_OP_reg10]
     306              $C$DW$38        .dwtag  DW_TAG_TI_assign_register, DW_AT_name("AR4")
     307                      .dwattr $C$DW$38, DW_AT_location[DW_OP_reg12]
     308              $C$DW$39        .dwtag  DW_TAG_TI_assign_register, DW_AT_name("AR5")
     309                      .dwattr $C$DW$39, DW_AT_location[DW_OP_reg14]
     310              $C$DW$40        .dwtag  DW_TAG_TI_assign_register, DW_AT_name("AR6")
     311                      .dwattr $C$DW$40, DW_AT_location[DW_OP_reg16]
     312              $C$DW$41        .dwtag  DW_TAG_TI_assign_register, DW_AT_name("XAR6")
     313                      .dwattr $C$DW$41, DW_AT_location[DW_OP_reg17]
     314              $C$DW$42        .dwtag  DW_TAG_TI_assign_register, DW_AT_name("AR7")
     315                      .dwattr $C$DW$42, DW_AT_location[DW_OP_reg18]
     316              $C$DW$43        .dwtag  DW_TAG_TI_assign_register, DW_AT_name("XAR7")
     317                      .dwattr $C$DW$43, DW_AT_location[DW_OP_reg19]
     318              $C$DW$44        .dwtag  DW_TAG_TI_assign_register, DW_AT_name("XAR0")
     319                      .dwattr $C$DW$44, DW_AT_location[DW_OP_reg5]
     320              $C$DW$45        .dwtag  DW_TAG_TI_assign_register, DW_AT_name("XAR1")
     321                      .dwattr $C$DW$45, DW_AT_location[DW_OP_reg7]
     322              $C$DW$46        .dwtag  DW_TAG_TI_assign_register, DW_AT_name("XAR2")
     323                      .dwattr $C$DW$46, DW_AT_location[DW_OP_reg9]
     324              $C$DW$47        .dwtag  DW_TAG_TI_assign_register, DW_AT_name("XAR3")
     325                      .dwattr $C$DW$47, DW_AT_location[DW_OP_reg11]
     326              $C$DW$48        .dwtag  DW_TAG_TI_assign_register, DW_AT_name("XAR4")
     327                      .dwattr $C$DW$48, DW_AT_location[DW_OP_reg13]
     328              $C$DW$49        .dwtag  DW_TAG_TI_assign_register, DW_AT_name("XAR5")
TMS320C2000 Assembler PC v6.2.11 Wed Jul 28 15:52:33 2021

Tools Copyright (c) 1996-2015 Texas Instruments Incorporated
ecap.asm                                                             PAGE    7

     329                      .dwattr $C$DW$49, DW_AT_location[DW_OP_reg15]
     330              $C$DW$50        .dwtag  DW_TAG_TI_assign_register, DW_AT_name("R0HL")
     331                      .dwattr $C$DW$50, DW_AT_location[DW_OP_regx 0x2b]
     332              $C$DW$51        .dwtag  DW_TAG_TI_assign_register, DW_AT_name("R0H")
     333                      .dwattr $C$DW$51, DW_AT_location[DW_OP_regx 0x2c]
     334              $C$DW$52        .dwtag  DW_TAG_TI_assign_register, DW_AT_name("R1HL")
     335                      .dwattr $C$DW$52, DW_AT_location[DW_OP_regx 0x2f]
     336              $C$DW$53        .dwtag  DW_TAG_TI_assign_register, DW_AT_name("R1H")
     337                      .dwattr $C$DW$53, DW_AT_location[DW_OP_regx 0x30]
     338              $C$DW$54        .dwtag  DW_TAG_TI_assign_register, DW_AT_name("R2HL")
     339                      .dwattr $C$DW$54, DW_AT_location[DW_OP_regx 0x33]
     340              $C$DW$55        .dwtag  DW_TAG_TI_assign_register, DW_AT_name("R2H")
     341                      .dwattr $C$DW$55, DW_AT_location[DW_OP_regx 0x34]
     342              $C$DW$56        .dwtag  DW_TAG_TI_assign_register, DW_AT_name("R3HL")
     343                      .dwattr $C$DW$56, DW_AT_location[DW_OP_regx 0x37]
     344              $C$DW$57        .dwtag  DW_TAG_TI_assign_register, DW_AT_name("R3H")
     345                      .dwattr $C$DW$57, DW_AT_location[DW_OP_regx 0x38]
     346              $C$DW$58        .dwtag  DW_TAG_TI_assign_register, DW_AT_name("R4HL")
     347                      .dwattr $C$DW$58, DW_AT_location[DW_OP_regx 0x3b]
     348              $C$DW$59        .dwtag  DW_TAG_TI_assign_register, DW_AT_name("R4H")
     349                      .dwattr $C$DW$59, DW_AT_location[DW_OP_regx 0x3c]
     350              $C$DW$60        .dwtag  DW_TAG_TI_assign_register, DW_AT_name("R5HL")
     351                      .dwattr $C$DW$60, DW_AT_location[DW_OP_regx 0x3f]
     352              $C$DW$61        .dwtag  DW_TAG_TI_assign_register, DW_AT_name("R5H")
     353                      .dwattr $C$DW$61, DW_AT_location[DW_OP_regx 0x40]
     354              $C$DW$62        .dwtag  DW_TAG_TI_assign_register, DW_AT_name("R6HL")
     355                      .dwattr $C$DW$62, DW_AT_location[DW_OP_regx 0x43]
     356              $C$DW$63        .dwtag  DW_TAG_TI_assign_register, DW_AT_name("R6H")
     357                      .dwattr $C$DW$63, DW_AT_location[DW_OP_regx 0x44]
     358              $C$DW$64        .dwtag  DW_TAG_TI_assign_register, DW_AT_name("R7HL")
     359                      .dwattr $C$DW$64, DW_AT_location[DW_OP_regx 0x47]
     360              $C$DW$65        .dwtag  DW_TAG_TI_assign_register, DW_AT_name("R7H")
     361                      .dwattr $C$DW$65, DW_AT_location[DW_OP_regx 0x48]
     362              $C$DW$66        .dwtag  DW_TAG_TI_assign_register, DW_AT_name("RBL")
     363                      .dwattr $C$DW$66, DW_AT_location[DW_OP_regx 0x49]
     364              $C$DW$67        .dwtag  DW_TAG_TI_assign_register, DW_AT_name("RB")
     365                      .dwattr $C$DW$67, DW_AT_location[DW_OP_regx 0x4a]
     366              $C$DW$68        .dwtag  DW_TAG_TI_assign_register, DW_AT_name("STFL")
     367                      .dwattr $C$DW$68, DW_AT_location[DW_OP_regx 0x27]
     368              $C$DW$69        .dwtag  DW_TAG_TI_assign_register, DW_AT_name("STF")
     369                      .dwattr $C$DW$69, DW_AT_location[DW_OP_regx 0x28]
     370              $C$DW$70        .dwtag  DW_TAG_TI_assign_register, DW_AT_name("FPUHAZ")
     371                      .dwattr $C$DW$70, DW_AT_location[DW_OP_reg27]
     372              $C$DW$71        .dwtag  DW_TAG_TI_assign_register, DW_AT_name("CIE_RETA")
     373                      .dwattr $C$DW$71, DW_AT_location[DW_OP_regx 0x4e]
     374                      .dwendtag $C$DW$CU
     375              

No Assembly Errors, No Assembly Warnings
