TMS320C2000 Assembler PC v6.2.11 Wed Jul 28 15:52:34 2021

Tools Copyright (c) 1996-2015 Texas Instruments Incorporated
flash.asm                                                            PAGE    1

       1              ;***************************************************************
       2              ;* TMS320C2000 C/C++ Codegen                        PC v6.2.11 *
       3              ;* Date/Time created: Wed Jul 28 15:52:34 2021                 *
       4              ;***************************************************************
       5                      .compiler_opts --cla_support=cla0 --float_support=fpu32 --hll_source=on --mem_model:code=flat --mem_m
       6        0002  FP      .set    XAR2
       7              
       8              $C$DW$CU        .dwtag  DW_TAG_compile_unit
       9                      .dwattr $C$DW$CU, DW_AT_name("../ExtraData/driverlib/flash.c")
      10                      .dwattr $C$DW$CU, DW_AT_producer("TMS320C2000 C/C++ Codegen PC v6.2.11 Copyright (c) 1996-2015 Texas 
      11                      .dwattr $C$DW$CU, DW_AT_TI_version(0x01)
      12                      .dwattr $C$DW$CU, DW_AT_comp_dir("C:\Users\aen17\Desktop\Working\SVN\Repository\AEC_Standard\PTM079")
      13              
      14              $C$DW$1 .dwtag  DW_TAG_subprogram, DW_AT_name("__edis")
      15                      .dwattr $C$DW$1, DW_AT_TI_symbol_name("___edis")
      16                      .dwattr $C$DW$1, DW_AT_declaration
      17                      .dwattr $C$DW$1, DW_AT_external
      18              
      19              $C$DW$2 .dwtag  DW_TAG_subprogram, DW_AT_name("__eallow")
      20                      .dwattr $C$DW$2, DW_AT_TI_symbol_name("___eallow")
      21                      .dwattr $C$DW$2, DW_AT_declaration
      22                      .dwattr $C$DW$2, DW_AT_external
      23              ;       C:\ti\ccsv5\tools\compiler\c2000_6.2.11\bin\ac2000.exe -@C:\\Users\\ADMINI~1\\AppData\\Local\\Temp\\0
      24 00000000               .sect   ".TI.ramfunc"
      25                      .clink
      26              
      27              $C$DW$3 .dwtag  DW_TAG_subprogram, DW_AT_name("Flash_setWaitstates")
      28                      .dwattr $C$DW$3, DW_AT_low_pc(_Flash_setWaitstates)
      29                      .dwattr $C$DW$3, DW_AT_high_pc(0x00)
      30                      .dwattr $C$DW$3, DW_AT_TI_symbol_name("_Flash_setWaitstates")
      31                      .dwattr $C$DW$3, DW_AT_TI_begin_file("..\ExtraData\driverlib\flash.h")
      32                      .dwattr $C$DW$3, DW_AT_TI_begin_line(0xfa)
      33                      .dwattr $C$DW$3, DW_AT_TI_begin_column(0x01)
      34                      .dwattr $C$DW$3, DW_AT_TI_max_frame_size(-6)
      35                      .dwpsn  file "..\ExtraData\driverlib\flash.h",line 251,column 1,is_stmt,address _Flash_setWaitstates
      36              
      37                      .dwfde $C$DW$CIE, _Flash_setWaitstates
      38              $C$DW$4 .dwtag  DW_TAG_formal_parameter, DW_AT_name("ctrlBase")
      39                      .dwattr $C$DW$4, DW_AT_TI_symbol_name("_ctrlBase")
      40                      .dwattr $C$DW$4, DW_AT_type(*$C$DW$T$27)
      41                      .dwattr $C$DW$4, DW_AT_location[DW_OP_reg0]
      42              $C$DW$5 .dwtag  DW_TAG_formal_parameter, DW_AT_name("waitstates")
      43                      .dwattr $C$DW$5, DW_AT_TI_symbol_name("_waitstates")
      44                      .dwattr $C$DW$5, DW_AT_type(*$C$DW$T$28)
      45                      .dwattr $C$DW$5, DW_AT_location[DW_OP_reg12]
      46              
      47              ;***************************************************************
      48              ;* FNAME: _Flash_setWaitstates          FR SIZE:   4           *
      49              ;*                                                             *
      50              ;* FUNCTION ENVIRONMENT                                        *
      51              ;*                                                             *
      52              ;* FUNCTION PROPERTIES                                         *
      53              ;*                            0 Parameter,  3 Auto,  0 SOE     *
      54              ;***************************************************************
      55              
TMS320C2000 Assembler PC v6.2.11 Wed Jul 28 15:52:34 2021

Tools Copyright (c) 1996-2015 Texas Instruments Incorporated
flash.asm                                                            PAGE    2

      56 00000000       _Flash_setWaitstates:
      57                      .dwcfi  cfa_offset, -2
      58                      .dwcfi  save_reg_to_mem, 26, 0
      59                      .dwcfi  save_reg_to_reg, 78, 26
      60 00000000 FE04          ADDB      SP,#4                 ; [CPU_U] 
      61                      .dwcfi  cfa_offset, -6
      62              $C$DW$6 .dwtag  DW_TAG_variable, DW_AT_name("ctrlBase")
      63                      .dwattr $C$DW$6, DW_AT_TI_symbol_name("_ctrlBase")
      64                      .dwattr $C$DW$6, DW_AT_type(*$C$DW$T$27)
      65                      .dwattr $C$DW$6, DW_AT_location[DW_OP_breg20 -2]
      66              $C$DW$7 .dwtag  DW_TAG_variable, DW_AT_name("waitstates")
      67                      .dwattr $C$DW$7, DW_AT_TI_symbol_name("_waitstates")
      68                      .dwattr $C$DW$7, DW_AT_type(*$C$DW$T$28)
      69                      .dwattr $C$DW$7, DW_AT_location[DW_OP_breg20 -3]
      70 00000001 7C43          MOV       *-SP[3],AR4           ; [CPU_] |251| 
      71 00000002 1E42          MOVL      *-SP[2],ACC           ; [CPU_] |251| 
      72                      .dwpsn  file "..\ExtraData\driverlib\flash.h",line 262,column 5,is_stmt
      73              $C$DW$8 .dwtag  DW_TAG_TI_branch
      74                      .dwattr $C$DW$8, DW_AT_low_pc(0x00)
      75                      .dwattr $C$DW$8, DW_AT_name("___eallow")
      76                      .dwattr $C$DW$8, DW_AT_TI_call
      77 00000003 7640!         LCR       #___eallow            ; [CPU_] |262| 
         00000004 0000 
      78                      ; call occurs [#___eallow] ; [] |262| 
      79                      .dwpsn  file "..\ExtraData\driverlib\flash.h",line 266,column 5,is_stmt
      80 00000005 8A42          MOVL      XAR4,*-SP[2]          ; [CPU_] |266| 
      81 00000006 2901          CLRC      SXM                   ; [CPU_] 
      82 00000007 5603          MOV       ACC,*-SP[3] << 8      ; [CPU_] |266| 
         00000008 0843 
      83 00000009 A3C4          MOVL      P,*+XAR4[0]           ; [CPU_] |266| 
      84 0000000a 8A42          MOVL      XAR4,*-SP[2]          ; [CPU_] |266| 
      85 0000000b 18AB          AND       PL,#61695             ; [CPU_] |266| 
         0000000c F0FF 
      86 0000000d CBAA          OR        AH,PH                 ; [CPU_] |266| 
      87 0000000e CAAB          OR        AL,PL                 ; [CPU_] |266| 
      88 0000000f 1EC4          MOVL      *+XAR4[0],ACC         ; [CPU_] |266| 
      89                      .dwpsn  file "..\ExtraData\driverlib\flash.h",line 270,column 5,is_stmt
      90              $C$DW$9 .dwtag  DW_TAG_TI_branch
      91                      .dwattr $C$DW$9, DW_AT_low_pc(0x00)
      92                      .dwattr $C$DW$9, DW_AT_name("___edis")
      93                      .dwattr $C$DW$9, DW_AT_TI_call
      94 00000010 7640!         LCR       #___edis              ; [CPU_] |270| 
         00000011 0000 
      95                      ; call occurs [#___edis] ; [] |270| 
      96                      .dwpsn  file "..\ExtraData\driverlib\flash.h",line 271,column 1,is_stmt
      97 00000012 FE84          SUBB      SP,#4                 ; [CPU_U] 
      98                      .dwcfi  cfa_offset, -2
      99              $C$DW$10        .dwtag  DW_TAG_TI_branch
     100                      .dwattr $C$DW$10, DW_AT_low_pc(0x00)
     101                      .dwattr $C$DW$10, DW_AT_TI_return
     102 00000013 0006          LRETR     ; [CPU_] 
     103                      ; return occurs ; [] 
     104                      .dwattr $C$DW$3, DW_AT_TI_end_file("..\ExtraData\driverlib\flash.h")
     105                      .dwattr $C$DW$3, DW_AT_TI_end_line(0x10f)
     106                      .dwattr $C$DW$3, DW_AT_TI_end_column(0x01)
TMS320C2000 Assembler PC v6.2.11 Wed Jul 28 15:52:34 2021

Tools Copyright (c) 1996-2015 Texas Instruments Incorporated
flash.asm                                                            PAGE    3

     107                      .dwendentry
     108                      .dwendtag $C$DW$3
     109              
     110 00000014               .sect   ".TI.ramfunc"
     111                      .clink
     112              
     113              $C$DW$11        .dwtag  DW_TAG_subprogram, DW_AT_name("Flash_setBankPowerMode")
     114                      .dwattr $C$DW$11, DW_AT_low_pc(_Flash_setBankPowerMode)
     115                      .dwattr $C$DW$11, DW_AT_high_pc(0x00)
     116                      .dwattr $C$DW$11, DW_AT_TI_symbol_name("_Flash_setBankPowerMode")
     117                      .dwattr $C$DW$11, DW_AT_TI_begin_file("..\ExtraData\driverlib\flash.h")
     118                      .dwattr $C$DW$11, DW_AT_TI_begin_line(0x12c)
     119                      .dwattr $C$DW$11, DW_AT_TI_begin_column(0x01)
     120                      .dwattr $C$DW$11, DW_AT_TI_max_frame_size(-8)
     121                      .dwpsn  file "..\ExtraData\driverlib\flash.h",line 302,column 1,is_stmt,address _Flash_setBankPowerMo
     122              
     123                      .dwfde $C$DW$CIE, _Flash_setBankPowerMode
     124              $C$DW$12        .dwtag  DW_TAG_formal_parameter, DW_AT_name("ctrlBase")
     125                      .dwattr $C$DW$12, DW_AT_TI_symbol_name("_ctrlBase")
     126                      .dwattr $C$DW$12, DW_AT_type(*$C$DW$T$27)
     127                      .dwattr $C$DW$12, DW_AT_location[DW_OP_reg0]
     128              $C$DW$13        .dwtag  DW_TAG_formal_parameter, DW_AT_name("bank")
     129                      .dwattr $C$DW$13, DW_AT_TI_symbol_name("_bank")
     130                      .dwattr $C$DW$13, DW_AT_type(*$C$DW$T$20)
     131                      .dwattr $C$DW$13, DW_AT_location[DW_OP_reg12]
     132              $C$DW$14        .dwtag  DW_TAG_formal_parameter, DW_AT_name("powerMode")
     133                      .dwattr $C$DW$14, DW_AT_TI_symbol_name("_powerMode")
     134                      .dwattr $C$DW$14, DW_AT_type(*$C$DW$T$22)
     135                      .dwattr $C$DW$14, DW_AT_location[DW_OP_reg14]
     136              
     137              ;***************************************************************
     138              ;* FNAME: _Flash_setBankPowerMode       FR SIZE:   6           *
     139              ;*                                                             *
     140              ;* FUNCTION ENVIRONMENT                                        *
     141              ;*                                                             *
     142              ;* FUNCTION PROPERTIES                                         *
     143              ;*                            0 Parameter,  6 Auto,  0 SOE     *
     144              ;***************************************************************
     145              
     146 00000014       _Flash_setBankPowerMode:
     147                      .dwcfi  cfa_offset, -2
     148                      .dwcfi  save_reg_to_mem, 26, 0
     149                      .dwcfi  save_reg_to_reg, 78, 26
     150 00000014 FE06          ADDB      SP,#6                 ; [CPU_U] 
     151                      .dwcfi  cfa_offset, -8
     152              $C$DW$15        .dwtag  DW_TAG_variable, DW_AT_name("ctrlBase")
     153                      .dwattr $C$DW$15, DW_AT_TI_symbol_name("_ctrlBase")
     154                      .dwattr $C$DW$15, DW_AT_type(*$C$DW$T$27)
     155                      .dwattr $C$DW$15, DW_AT_location[DW_OP_breg20 -2]
     156              $C$DW$16        .dwtag  DW_TAG_variable, DW_AT_name("bank")
     157                      .dwattr $C$DW$16, DW_AT_TI_symbol_name("_bank")
     158                      .dwattr $C$DW$16, DW_AT_type(*$C$DW$T$20)
     159                      .dwattr $C$DW$16, DW_AT_location[DW_OP_breg20 -3]
     160              $C$DW$17        .dwtag  DW_TAG_variable, DW_AT_name("powerMode")
     161                      .dwattr $C$DW$17, DW_AT_TI_symbol_name("_powerMode")
TMS320C2000 Assembler PC v6.2.11 Wed Jul 28 15:52:34 2021

Tools Copyright (c) 1996-2015 Texas Instruments Incorporated
flash.asm                                                            PAGE    4

     162                      .dwattr $C$DW$17, DW_AT_type(*$C$DW$T$22)
     163                      .dwattr $C$DW$17, DW_AT_location[DW_OP_breg20 -4]
     164 00000015 7D44          MOV       *-SP[4],AR5           ; [CPU_] |302| 
     165 00000016 7C43          MOV       *-SP[3],AR4           ; [CPU_] |302| 
     166 00000017 1E42          MOVL      *-SP[2],ACC           ; [CPU_] |302| 
     167                      .dwpsn  file "..\ExtraData\driverlib\flash.h",line 308,column 5,is_stmt
     168              $C$DW$18        .dwtag  DW_TAG_TI_branch
     169                      .dwattr $C$DW$18, DW_AT_low_pc(0x00)
     170                      .dwattr $C$DW$18, DW_AT_name("___eallow")
     171                      .dwattr $C$DW$18, DW_AT_TI_call
     172 00000018 7640!         LCR       #___eallow            ; [CPU_] |308| 
         00000019 0000 
     173                      ; call occurs [#___eallow] ; [] |308| 
     174                      .dwpsn  file "..\ExtraData\driverlib\flash.h",line 313,column 5,is_stmt
     175 0000001a 3B01          SETC      SXM                   ; [CPU_] 
     176 0000001b 8544          MOV       ACC,*-SP[4]           ; [CPU_] |313| 
     177 0000001c FF5A          MOVL      P,ACC                 ; [CPU_] |313| 
     178 0000001d 5603          MOV       ACC,*-SP[3] << #1     ; [CPU_] |313| 
         0000001e 0143 
     179 0000001f 16A9          MOVP      T,AL                  ; [CPU_] 
     180 00000020 563B          LSLL      ACC,T                 ; [CPU_] |313| 
     181 00000021 FF5A          MOVL      P,ACC                 ; [CPU_] |313| 
     182 00000022 5603          MOV       ACC,*-SP[3] << #1     ; [CPU_] |313| 
         00000023 0143 
     183 00000024 2DA9          MOV       T,AL                  ; [CPU_] |313| 
     184 00000025 9A03          MOVB      AL,#3                 ; [CPU_] |313| 
     185 00000026 FF66          LSL       AL,T                  ; [CPU_] |313| 
     186 00000027 FF5E          NOT       AL                    ; [CPU_] |313| 
     187 00000028 88A9          MOVZ      AR6,AL                ; [CPU_] |313| 
     188 00000029 0220          MOVB      ACC,#32               ; [CPU_] |313| 
     189 0000002a 0742          ADDL      ACC,*-SP[2]           ; [CPU_] |313| 
     190 0000002b 8AA9          MOVL      XAR4,ACC              ; [CPU_] |313| 
     191 0000002c 06C4          MOVL      ACC,*+XAR4[0]         ; [CPU_] |313| 
     192 0000002d 1E46          MOVL      *-SP[6],ACC           ; [CPU_] |313| 
     193 0000002e 89A6          AND       ACC,AR6               ; [CPU_] |313| 
     194 0000002f 1E46          MOVL      *-SP[6],ACC           ; [CPU_] |313| 
     195 00000030 9246          MOV       AL,*-SP[6]            ; [CPU_] |313| 
     196 00000031 CAAB          OR        AL,PL                 ; [CPU_] |313| 
     197 00000032 9646          MOV       *-SP[6],AL            ; [CPU_] |313| 
     198 00000033 9345          MOV       AH,*-SP[5]            ; [CPU_] |313| 
     199 00000034 CBAA          OR        AH,PH                 ; [CPU_] |313| 
     200 00000035 9745          MOV       *-SP[5],AH            ; [CPU_] |313| 
     201 00000036 0220          MOVB      ACC,#32               ; [CPU_] |313| 
     202 00000037 0742          ADDL      ACC,*-SP[2]           ; [CPU_] |313| 
     203 00000038 8AA9          MOVL      XAR4,ACC              ; [CPU_] |313| 
     204 00000039 0646          MOVL      ACC,*-SP[6]           ; [CPU_] |313| 
     205 0000003a 1EC4          MOVL      *+XAR4[0],ACC         ; [CPU_] |313| 
     206                      .dwpsn  file "..\ExtraData\driverlib\flash.h",line 317,column 5,is_stmt
     207              $C$DW$19        .dwtag  DW_TAG_TI_branch
     208                      .dwattr $C$DW$19, DW_AT_low_pc(0x00)
     209                      .dwattr $C$DW$19, DW_AT_name("___edis")
     210                      .dwattr $C$DW$19, DW_AT_TI_call
     211 0000003b 7640!         LCR       #___edis              ; [CPU_] |317| 
         0000003c 0000 
     212                      ; call occurs [#___edis] ; [] |317| 
TMS320C2000 Assembler PC v6.2.11 Wed Jul 28 15:52:34 2021

Tools Copyright (c) 1996-2015 Texas Instruments Incorporated
flash.asm                                                            PAGE    5

     213                      .dwpsn  file "..\ExtraData\driverlib\flash.h",line 318,column 1,is_stmt
     214 0000003d FE86          SUBB      SP,#6                 ; [CPU_U] 
     215                      .dwcfi  cfa_offset, -2
     216              $C$DW$20        .dwtag  DW_TAG_TI_branch
     217                      .dwattr $C$DW$20, DW_AT_low_pc(0x00)
     218                      .dwattr $C$DW$20, DW_AT_TI_return
     219 0000003e 0006          LRETR     ; [CPU_] 
     220                      ; return occurs ; [] 
     221                      .dwattr $C$DW$11, DW_AT_TI_end_file("..\ExtraData\driverlib\flash.h")
     222                      .dwattr $C$DW$11, DW_AT_TI_end_line(0x13e)
     223                      .dwattr $C$DW$11, DW_AT_TI_end_column(0x01)
     224                      .dwendentry
     225                      .dwendtag $C$DW$11
     226              
     227 0000003f               .sect   ".TI.ramfunc"
     228                      .clink
     229              
     230              $C$DW$21        .dwtag  DW_TAG_subprogram, DW_AT_name("Flash_setPumpPowerMode")
     231                      .dwattr $C$DW$21, DW_AT_low_pc(_Flash_setPumpPowerMode)
     232                      .dwattr $C$DW$21, DW_AT_high_pc(0x00)
     233                      .dwattr $C$DW$21, DW_AT_TI_symbol_name("_Flash_setPumpPowerMode")
     234                      .dwattr $C$DW$21, DW_AT_TI_begin_file("..\ExtraData\driverlib\flash.h")
     235                      .dwattr $C$DW$21, DW_AT_TI_begin_line(0x153)
     236                      .dwattr $C$DW$21, DW_AT_TI_begin_column(0x01)
     237                      .dwattr $C$DW$21, DW_AT_TI_max_frame_size(-8)
     238                      .dwpsn  file "..\ExtraData\driverlib\flash.h",line 340,column 1,is_stmt,address _Flash_setPumpPowerMo
     239              
     240                      .dwfde $C$DW$CIE, _Flash_setPumpPowerMode
     241              $C$DW$22        .dwtag  DW_TAG_formal_parameter, DW_AT_name("ctrlBase")
     242                      .dwattr $C$DW$22, DW_AT_TI_symbol_name("_ctrlBase")
     243                      .dwattr $C$DW$22, DW_AT_type(*$C$DW$T$27)
     244                      .dwattr $C$DW$22, DW_AT_location[DW_OP_reg0]
     245              $C$DW$23        .dwtag  DW_TAG_formal_parameter, DW_AT_name("powerMode")
     246                      .dwattr $C$DW$23, DW_AT_TI_symbol_name("_powerMode")
     247                      .dwattr $C$DW$23, DW_AT_type(*$C$DW$T$24)
     248                      .dwattr $C$DW$23, DW_AT_location[DW_OP_reg12]
     249              
     250              ;***************************************************************
     251              ;* FNAME: _Flash_setPumpPowerMode       FR SIZE:   6           *
     252              ;*                                                             *
     253              ;* FUNCTION ENVIRONMENT                                        *
     254              ;*                                                             *
     255              ;* FUNCTION PROPERTIES                                         *
     256              ;*                            0 Parameter,  6 Auto,  0 SOE     *
     257              ;***************************************************************
     258              
     259 0000003f       _Flash_setPumpPowerMode:
     260                      .dwcfi  cfa_offset, -2
     261                      .dwcfi  save_reg_to_mem, 26, 0
     262                      .dwcfi  save_reg_to_reg, 78, 26
     263 0000003f FE06          ADDB      SP,#6                 ; [CPU_U] 
     264                      .dwcfi  cfa_offset, -8
     265              $C$DW$24        .dwtag  DW_TAG_variable, DW_AT_name("ctrlBase")
     266                      .dwattr $C$DW$24, DW_AT_TI_symbol_name("_ctrlBase")
     267                      .dwattr $C$DW$24, DW_AT_type(*$C$DW$T$27)
TMS320C2000 Assembler PC v6.2.11 Wed Jul 28 15:52:34 2021

Tools Copyright (c) 1996-2015 Texas Instruments Incorporated
flash.asm                                                            PAGE    6

     268                      .dwattr $C$DW$24, DW_AT_location[DW_OP_breg20 -2]
     269              $C$DW$25        .dwtag  DW_TAG_variable, DW_AT_name("powerMode")
     270                      .dwattr $C$DW$25, DW_AT_TI_symbol_name("_powerMode")
     271                      .dwattr $C$DW$25, DW_AT_type(*$C$DW$T$24)
     272                      .dwattr $C$DW$25, DW_AT_location[DW_OP_breg20 -3]
     273 00000040 7C43          MOV       *-SP[3],AR4           ; [CPU_] |340| 
     274 00000041 1E42          MOVL      *-SP[2],ACC           ; [CPU_] |340| 
     275                      .dwpsn  file "..\ExtraData\driverlib\flash.h",line 346,column 5,is_stmt
     276              $C$DW$26        .dwtag  DW_TAG_TI_branch
     277                      .dwattr $C$DW$26, DW_AT_low_pc(0x00)
     278                      .dwattr $C$DW$26, DW_AT_name("___eallow")
     279                      .dwattr $C$DW$26, DW_AT_TI_call
     280 00000042 7640!         LCR       #___eallow            ; [CPU_] |346| 
         00000043 0000 
     281                      ; call occurs [#___eallow] ; [] |346| 
     282                      .dwpsn  file "..\ExtraData\driverlib\flash.h",line 351,column 5,is_stmt
     283 00000044 0224          MOVB      ACC,#36               ; [CPU_] |351| 
     284 00000045 3B01          SETC      SXM                   ; [CPU_] 
     285 00000046 0742          ADDL      ACC,*-SP[2]           ; [CPU_] |351| 
     286 00000047 8AA9          MOVL      XAR4,ACC              ; [CPU_] |351| 
     287 00000048 A3C4          MOVL      P,*+XAR4[0]           ; [CPU_] |351| 
     288 00000049 18AB          AND       PL,#65534             ; [CPU_] |351| 
         0000004a FFFE 
     289 0000004b 8543          MOV       ACC,*-SP[3]           ; [CPU_] |351| 
     290 0000004c 1E46          MOVL      *-SP[6],ACC           ; [CPU_] |351| 
     291 0000004d 9246          MOV       AL,*-SP[6]            ; [CPU_] |351| 
     292 0000004e CAAB          OR        AL,PL                 ; [CPU_] |351| 
     293 0000004f 9646          MOV       *-SP[6],AL            ; [CPU_] |351| 
     294 00000050 9245          MOV       AL,*-SP[5]            ; [CPU_] |351| 
     295 00000051 CAAA          OR        AL,PH                 ; [CPU_] |351| 
     296 00000052 9645          MOV       *-SP[5],AL            ; [CPU_] |351| 
     297 00000053 0224          MOVB      ACC,#36               ; [CPU_] |351| 
     298 00000054 0742          ADDL      ACC,*-SP[2]           ; [CPU_] |351| 
     299 00000055 8AA9          MOVL      XAR4,ACC              ; [CPU_] |351| 
     300 00000056 0646          MOVL      ACC,*-SP[6]           ; [CPU_] |351| 
     301 00000057 1EC4          MOVL      *+XAR4[0],ACC         ; [CPU_] |351| 
     302                      .dwpsn  file "..\ExtraData\driverlib\flash.h",line 354,column 5,is_stmt
     303              $C$DW$27        .dwtag  DW_TAG_TI_branch
     304                      .dwattr $C$DW$27, DW_AT_low_pc(0x00)
     305                      .dwattr $C$DW$27, DW_AT_name("___edis")
     306                      .dwattr $C$DW$27, DW_AT_TI_call
     307 00000058 7640!         LCR       #___edis              ; [CPU_] |354| 
         00000059 0000 
     308                      ; call occurs [#___edis] ; [] |354| 
     309                      .dwpsn  file "..\ExtraData\driverlib\flash.h",line 355,column 1,is_stmt
     310 0000005a FE86          SUBB      SP,#6                 ; [CPU_U] 
     311                      .dwcfi  cfa_offset, -2
     312              $C$DW$28        .dwtag  DW_TAG_TI_branch
     313                      .dwattr $C$DW$28, DW_AT_low_pc(0x00)
     314                      .dwattr $C$DW$28, DW_AT_TI_return
     315 0000005b 0006          LRETR     ; [CPU_] 
     316                      ; return occurs ; [] 
     317                      .dwattr $C$DW$21, DW_AT_TI_end_file("..\ExtraData\driverlib\flash.h")
     318                      .dwattr $C$DW$21, DW_AT_TI_end_line(0x163)
     319                      .dwattr $C$DW$21, DW_AT_TI_end_column(0x01)
TMS320C2000 Assembler PC v6.2.11 Wed Jul 28 15:52:34 2021

Tools Copyright (c) 1996-2015 Texas Instruments Incorporated
flash.asm                                                            PAGE    7

     320                      .dwendentry
     321                      .dwendtag $C$DW$21
     322              
     323 0000005c               .sect   ".TI.ramfunc"
     324                      .clink
     325              
     326              $C$DW$29        .dwtag  DW_TAG_subprogram, DW_AT_name("Flash_enablePrefetch")
     327                      .dwattr $C$DW$29, DW_AT_low_pc(_Flash_enablePrefetch)
     328                      .dwattr $C$DW$29, DW_AT_high_pc(0x00)
     329                      .dwattr $C$DW$29, DW_AT_TI_symbol_name("_Flash_enablePrefetch")
     330                      .dwattr $C$DW$29, DW_AT_TI_begin_file("..\ExtraData\driverlib\flash.h")
     331                      .dwattr $C$DW$29, DW_AT_TI_begin_line(0x172)
     332                      .dwattr $C$DW$29, DW_AT_TI_begin_column(0x01)
     333                      .dwattr $C$DW$29, DW_AT_TI_max_frame_size(-4)
     334                      .dwpsn  file "..\ExtraData\driverlib\flash.h",line 371,column 1,is_stmt,address _Flash_enablePrefetch
     335              
     336                      .dwfde $C$DW$CIE, _Flash_enablePrefetch
     337              $C$DW$30        .dwtag  DW_TAG_formal_parameter, DW_AT_name("ctrlBase")
     338                      .dwattr $C$DW$30, DW_AT_TI_symbol_name("_ctrlBase")
     339                      .dwattr $C$DW$30, DW_AT_type(*$C$DW$T$27)
     340                      .dwattr $C$DW$30, DW_AT_location[DW_OP_reg0]
     341              
     342              ;***************************************************************
     343              ;* FNAME: _Flash_enablePrefetch         FR SIZE:   2           *
     344              ;*                                                             *
     345              ;* FUNCTION ENVIRONMENT                                        *
     346              ;*                                                             *
     347              ;* FUNCTION PROPERTIES                                         *
     348              ;*                            0 Parameter,  2 Auto,  0 SOE     *
     349              ;***************************************************************
     350              
     351 0000005c       _Flash_enablePrefetch:
     352                      .dwcfi  cfa_offset, -2
     353                      .dwcfi  save_reg_to_mem, 26, 0
     354                      .dwcfi  save_reg_to_reg, 78, 26
     355 0000005c FE02          ADDB      SP,#2                 ; [CPU_U] 
     356                      .dwcfi  cfa_offset, -4
     357              $C$DW$31        .dwtag  DW_TAG_variable, DW_AT_name("ctrlBase")
     358                      .dwattr $C$DW$31, DW_AT_TI_symbol_name("_ctrlBase")
     359                      .dwattr $C$DW$31, DW_AT_type(*$C$DW$T$27)
     360                      .dwattr $C$DW$31, DW_AT_location[DW_OP_breg20 -2]
     361 0000005d 1E42          MOVL      *-SP[2],ACC           ; [CPU_] |371| 
     362                      .dwpsn  file "..\ExtraData\driverlib\flash.h",line 377,column 5,is_stmt
     363              $C$DW$32        .dwtag  DW_TAG_TI_branch
     364                      .dwattr $C$DW$32, DW_AT_low_pc(0x00)
     365                      .dwattr $C$DW$32, DW_AT_name("___eallow")
     366                      .dwattr $C$DW$32, DW_AT_TI_call
     367 0000005e 7640!         LCR       #___eallow            ; [CPU_] |377| 
         0000005f 0000 
     368                      ; call occurs [#___eallow] ; [] |377| 
     369                      .dwpsn  file "..\ExtraData\driverlib\flash.h",line 382,column 5,is_stmt
     370 00000060 FF20          MOV       ACC,#384              ; [CPU_] |382| 
         00000061 0180 
     371 00000062 0742          ADDL      ACC,*-SP[2]           ; [CPU_] |382| 
     372 00000063 8AA9          MOVL      XAR4,ACC              ; [CPU_] |382| 
TMS320C2000 Assembler PC v6.2.11 Wed Jul 28 15:52:34 2021

Tools Copyright (c) 1996-2015 Texas Instruments Incorporated
flash.asm                                                            PAGE    8

     373 00000064 1AC4          OR        *+XAR4[0],#1          ; [CPU_] |382| 
         00000065 0001 
     374                      .dwpsn  file "..\ExtraData\driverlib\flash.h",line 384,column 5,is_stmt
     375              $C$DW$33        .dwtag  DW_TAG_TI_branch
     376                      .dwattr $C$DW$33, DW_AT_low_pc(0x00)
     377                      .dwattr $C$DW$33, DW_AT_name("___edis")
     378                      .dwattr $C$DW$33, DW_AT_TI_call
     379 00000066 7640!         LCR       #___edis              ; [CPU_] |384| 
         00000067 0000 
     380                      ; call occurs [#___edis] ; [] |384| 
     381                      .dwpsn  file "..\ExtraData\driverlib\flash.h",line 385,column 1,is_stmt
     382 00000068 FE82          SUBB      SP,#2                 ; [CPU_U] 
     383                      .dwcfi  cfa_offset, -2
     384              $C$DW$34        .dwtag  DW_TAG_TI_branch
     385                      .dwattr $C$DW$34, DW_AT_low_pc(0x00)
     386                      .dwattr $C$DW$34, DW_AT_TI_return
     387 00000069 0006          LRETR     ; [CPU_] 
     388                      ; return occurs ; [] 
     389                      .dwattr $C$DW$29, DW_AT_TI_end_file("..\ExtraData\driverlib\flash.h")
     390                      .dwattr $C$DW$29, DW_AT_TI_end_line(0x181)
     391                      .dwattr $C$DW$29, DW_AT_TI_end_column(0x01)
     392                      .dwendentry
     393                      .dwendtag $C$DW$29
     394              
     395 0000006a               .sect   ".TI.ramfunc"
     396                      .clink
     397              
     398              $C$DW$35        .dwtag  DW_TAG_subprogram, DW_AT_name("Flash_disablePrefetch")
     399                      .dwattr $C$DW$35, DW_AT_low_pc(_Flash_disablePrefetch)
     400                      .dwattr $C$DW$35, DW_AT_high_pc(0x00)
     401                      .dwattr $C$DW$35, DW_AT_TI_symbol_name("_Flash_disablePrefetch")
     402                      .dwattr $C$DW$35, DW_AT_TI_begin_file("..\ExtraData\driverlib\flash.h")
     403                      .dwattr $C$DW$35, DW_AT_TI_begin_line(0x190)
     404                      .dwattr $C$DW$35, DW_AT_TI_begin_column(0x01)
     405                      .dwattr $C$DW$35, DW_AT_TI_max_frame_size(-4)
     406                      .dwpsn  file "..\ExtraData\driverlib\flash.h",line 401,column 1,is_stmt,address _Flash_disablePrefetc
     407              
     408                      .dwfde $C$DW$CIE, _Flash_disablePrefetch
     409              $C$DW$36        .dwtag  DW_TAG_formal_parameter, DW_AT_name("ctrlBase")
     410                      .dwattr $C$DW$36, DW_AT_TI_symbol_name("_ctrlBase")
     411                      .dwattr $C$DW$36, DW_AT_type(*$C$DW$T$27)
     412                      .dwattr $C$DW$36, DW_AT_location[DW_OP_reg0]
     413              
     414              ;***************************************************************
     415              ;* FNAME: _Flash_disablePrefetch        FR SIZE:   2           *
     416              ;*                                                             *
     417              ;* FUNCTION ENVIRONMENT                                        *
     418              ;*                                                             *
     419              ;* FUNCTION PROPERTIES                                         *
     420              ;*                            0 Parameter,  2 Auto,  0 SOE     *
     421              ;***************************************************************
     422              
     423 0000006a       _Flash_disablePrefetch:
     424                      .dwcfi  cfa_offset, -2
     425                      .dwcfi  save_reg_to_mem, 26, 0
TMS320C2000 Assembler PC v6.2.11 Wed Jul 28 15:52:34 2021

Tools Copyright (c) 1996-2015 Texas Instruments Incorporated
flash.asm                                                            PAGE    9

     426                      .dwcfi  save_reg_to_reg, 78, 26
     427 0000006a FE02          ADDB      SP,#2                 ; [CPU_U] 
     428                      .dwcfi  cfa_offset, -4
     429              $C$DW$37        .dwtag  DW_TAG_variable, DW_AT_name("ctrlBase")
     430                      .dwattr $C$DW$37, DW_AT_TI_symbol_name("_ctrlBase")
     431                      .dwattr $C$DW$37, DW_AT_type(*$C$DW$T$27)
     432                      .dwattr $C$DW$37, DW_AT_location[DW_OP_breg20 -2]
     433 0000006b 1E42          MOVL      *-SP[2],ACC           ; [CPU_] |401| 
     434                      .dwpsn  file "..\ExtraData\driverlib\flash.h",line 407,column 5,is_stmt
     435              $C$DW$38        .dwtag  DW_TAG_TI_branch
     436                      .dwattr $C$DW$38, DW_AT_low_pc(0x00)
     437                      .dwattr $C$DW$38, DW_AT_name("___eallow")
     438                      .dwattr $C$DW$38, DW_AT_TI_call
     439 0000006c 7640!         LCR       #___eallow            ; [CPU_] |407| 
         0000006d 0000 
     440                      ; call occurs [#___eallow] ; [] |407| 
     441                      .dwpsn  file "..\ExtraData\driverlib\flash.h",line 412,column 5,is_stmt
     442 0000006e FF20          MOV       ACC,#384              ; [CPU_] |412| 
         0000006f 0180 
     443 00000070 0742          ADDL      ACC,*-SP[2]           ; [CPU_] |412| 
     444 00000071 8AA9          MOVL      XAR4,ACC              ; [CPU_] |412| 
     445 00000072 18C4          AND       *+XAR4[0],#65534      ; [CPU_] |412| 
         00000073 FFFE 
     446                      .dwpsn  file "..\ExtraData\driverlib\flash.h",line 414,column 5,is_stmt
     447              $C$DW$39        .dwtag  DW_TAG_TI_branch
     448                      .dwattr $C$DW$39, DW_AT_low_pc(0x00)
     449                      .dwattr $C$DW$39, DW_AT_name("___edis")
     450                      .dwattr $C$DW$39, DW_AT_TI_call
     451 00000074 7640!         LCR       #___edis              ; [CPU_] |414| 
         00000075 0000 
     452                      ; call occurs [#___edis] ; [] |414| 
     453                      .dwpsn  file "..\ExtraData\driverlib\flash.h",line 415,column 1,is_stmt
     454 00000076 FE82          SUBB      SP,#2                 ; [CPU_U] 
     455                      .dwcfi  cfa_offset, -2
     456              $C$DW$40        .dwtag  DW_TAG_TI_branch
     457                      .dwattr $C$DW$40, DW_AT_low_pc(0x00)
     458                      .dwattr $C$DW$40, DW_AT_TI_return
     459 00000077 0006          LRETR     ; [CPU_] 
     460                      ; return occurs ; [] 
     461                      .dwattr $C$DW$35, DW_AT_TI_end_file("..\ExtraData\driverlib\flash.h")
     462                      .dwattr $C$DW$35, DW_AT_TI_end_line(0x19f)
     463                      .dwattr $C$DW$35, DW_AT_TI_end_column(0x01)
     464                      .dwendentry
     465                      .dwendtag $C$DW$35
     466              
     467 00000078               .sect   ".TI.ramfunc"
     468                      .clink
     469              
     470              $C$DW$41        .dwtag  DW_TAG_subprogram, DW_AT_name("Flash_enableCache")
     471                      .dwattr $C$DW$41, DW_AT_low_pc(_Flash_enableCache)
     472                      .dwattr $C$DW$41, DW_AT_high_pc(0x00)
     473                      .dwattr $C$DW$41, DW_AT_TI_symbol_name("_Flash_enableCache")
     474                      .dwattr $C$DW$41, DW_AT_TI_begin_file("..\ExtraData\driverlib\flash.h")
     475                      .dwattr $C$DW$41, DW_AT_TI_begin_line(0x1ae)
     476                      .dwattr $C$DW$41, DW_AT_TI_begin_column(0x01)
TMS320C2000 Assembler PC v6.2.11 Wed Jul 28 15:52:34 2021

Tools Copyright (c) 1996-2015 Texas Instruments Incorporated
flash.asm                                                            PAGE   10

     477                      .dwattr $C$DW$41, DW_AT_TI_max_frame_size(-4)
     478                      .dwpsn  file "..\ExtraData\driverlib\flash.h",line 431,column 1,is_stmt,address _Flash_enableCache
     479              
     480                      .dwfde $C$DW$CIE, _Flash_enableCache
     481              $C$DW$42        .dwtag  DW_TAG_formal_parameter, DW_AT_name("ctrlBase")
     482                      .dwattr $C$DW$42, DW_AT_TI_symbol_name("_ctrlBase")
     483                      .dwattr $C$DW$42, DW_AT_type(*$C$DW$T$27)
     484                      .dwattr $C$DW$42, DW_AT_location[DW_OP_reg0]
     485              
     486              ;***************************************************************
     487              ;* FNAME: _Flash_enableCache            FR SIZE:   2           *
     488              ;*                                                             *
     489              ;* FUNCTION ENVIRONMENT                                        *
     490              ;*                                                             *
     491              ;* FUNCTION PROPERTIES                                         *
     492              ;*                            0 Parameter,  2 Auto,  0 SOE     *
     493              ;***************************************************************
     494              
     495 00000078       _Flash_enableCache:
     496                      .dwcfi  cfa_offset, -2
     497                      .dwcfi  save_reg_to_mem, 26, 0
     498                      .dwcfi  save_reg_to_reg, 78, 26
     499 00000078 FE02          ADDB      SP,#2                 ; [CPU_U] 
     500                      .dwcfi  cfa_offset, -4
     501              $C$DW$43        .dwtag  DW_TAG_variable, DW_AT_name("ctrlBase")
     502                      .dwattr $C$DW$43, DW_AT_TI_symbol_name("_ctrlBase")
     503                      .dwattr $C$DW$43, DW_AT_type(*$C$DW$T$27)
     504                      .dwattr $C$DW$43, DW_AT_location[DW_OP_breg20 -2]
     505 00000079 1E42          MOVL      *-SP[2],ACC           ; [CPU_] |431| 
     506                      .dwpsn  file "..\ExtraData\driverlib\flash.h",line 437,column 5,is_stmt
     507              $C$DW$44        .dwtag  DW_TAG_TI_branch
     508                      .dwattr $C$DW$44, DW_AT_low_pc(0x00)
     509                      .dwattr $C$DW$44, DW_AT_name("___eallow")
     510                      .dwattr $C$DW$44, DW_AT_TI_call
     511 0000007a 7640!         LCR       #___eallow            ; [CPU_] |437| 
         0000007b 0000 
     512                      ; call occurs [#___eallow] ; [] |437| 
     513                      .dwpsn  file "..\ExtraData\driverlib\flash.h",line 442,column 5,is_stmt
     514 0000007c FF20          MOV       ACC,#384              ; [CPU_] |442| 
         0000007d 0180 
     515 0000007e 0742          ADDL      ACC,*-SP[2]           ; [CPU_] |442| 
     516 0000007f 8AA9          MOVL      XAR4,ACC              ; [CPU_] |442| 
     517 00000080 1AC4          OR        *+XAR4[0],#2          ; [CPU_] |442| 
         00000081 0002 
     518                      .dwpsn  file "..\ExtraData\driverlib\flash.h",line 444,column 5,is_stmt
     519              $C$DW$45        .dwtag  DW_TAG_TI_branch
     520                      .dwattr $C$DW$45, DW_AT_low_pc(0x00)
     521                      .dwattr $C$DW$45, DW_AT_name("___edis")
     522                      .dwattr $C$DW$45, DW_AT_TI_call
     523 00000082 7640!         LCR       #___edis              ; [CPU_] |444| 
         00000083 0000 
     524                      ; call occurs [#___edis] ; [] |444| 
     525                      .dwpsn  file "..\ExtraData\driverlib\flash.h",line 445,column 1,is_stmt
     526 00000084 FE82          SUBB      SP,#2                 ; [CPU_U] 
     527                      .dwcfi  cfa_offset, -2
TMS320C2000 Assembler PC v6.2.11 Wed Jul 28 15:52:34 2021

Tools Copyright (c) 1996-2015 Texas Instruments Incorporated
flash.asm                                                            PAGE   11

     528              $C$DW$46        .dwtag  DW_TAG_TI_branch
     529                      .dwattr $C$DW$46, DW_AT_low_pc(0x00)
     530                      .dwattr $C$DW$46, DW_AT_TI_return
     531 00000085 0006          LRETR     ; [CPU_] 
     532                      ; return occurs ; [] 
     533                      .dwattr $C$DW$41, DW_AT_TI_end_file("..\ExtraData\driverlib\flash.h")
     534                      .dwattr $C$DW$41, DW_AT_TI_end_line(0x1bd)
     535                      .dwattr $C$DW$41, DW_AT_TI_end_column(0x01)
     536                      .dwendentry
     537                      .dwendtag $C$DW$41
     538              
     539 00000086               .sect   ".TI.ramfunc"
     540                      .clink
     541              
     542              $C$DW$47        .dwtag  DW_TAG_subprogram, DW_AT_name("Flash_disableCache")
     543                      .dwattr $C$DW$47, DW_AT_low_pc(_Flash_disableCache)
     544                      .dwattr $C$DW$47, DW_AT_high_pc(0x00)
     545                      .dwattr $C$DW$47, DW_AT_TI_symbol_name("_Flash_disableCache")
     546                      .dwattr $C$DW$47, DW_AT_TI_begin_file("..\ExtraData\driverlib\flash.h")
     547                      .dwattr $C$DW$47, DW_AT_TI_begin_line(0x1cc)
     548                      .dwattr $C$DW$47, DW_AT_TI_begin_column(0x01)
     549                      .dwattr $C$DW$47, DW_AT_TI_max_frame_size(-4)
     550                      .dwpsn  file "..\ExtraData\driverlib\flash.h",line 461,column 1,is_stmt,address _Flash_disableCache
     551              
     552                      .dwfde $C$DW$CIE, _Flash_disableCache
     553              $C$DW$48        .dwtag  DW_TAG_formal_parameter, DW_AT_name("ctrlBase")
     554                      .dwattr $C$DW$48, DW_AT_TI_symbol_name("_ctrlBase")
     555                      .dwattr $C$DW$48, DW_AT_type(*$C$DW$T$27)
     556                      .dwattr $C$DW$48, DW_AT_location[DW_OP_reg0]
     557              
     558              ;***************************************************************
     559              ;* FNAME: _Flash_disableCache           FR SIZE:   2           *
     560              ;*                                                             *
     561              ;* FUNCTION ENVIRONMENT                                        *
     562              ;*                                                             *
     563              ;* FUNCTION PROPERTIES                                         *
     564              ;*                            0 Parameter,  2 Auto,  0 SOE     *
     565              ;***************************************************************
     566              
     567 00000086       _Flash_disableCache:
     568                      .dwcfi  cfa_offset, -2
     569                      .dwcfi  save_reg_to_mem, 26, 0
     570                      .dwcfi  save_reg_to_reg, 78, 26
     571 00000086 FE02          ADDB      SP,#2                 ; [CPU_U] 
     572                      .dwcfi  cfa_offset, -4
     573              $C$DW$49        .dwtag  DW_TAG_variable, DW_AT_name("ctrlBase")
     574                      .dwattr $C$DW$49, DW_AT_TI_symbol_name("_ctrlBase")
     575                      .dwattr $C$DW$49, DW_AT_type(*$C$DW$T$27)
     576                      .dwattr $C$DW$49, DW_AT_location[DW_OP_breg20 -2]
     577 00000087 1E42          MOVL      *-SP[2],ACC           ; [CPU_] |461| 
     578                      .dwpsn  file "..\ExtraData\driverlib\flash.h",line 467,column 5,is_stmt
     579              $C$DW$50        .dwtag  DW_TAG_TI_branch
     580                      .dwattr $C$DW$50, DW_AT_low_pc(0x00)
     581                      .dwattr $C$DW$50, DW_AT_name("___eallow")
     582                      .dwattr $C$DW$50, DW_AT_TI_call
TMS320C2000 Assembler PC v6.2.11 Wed Jul 28 15:52:34 2021

Tools Copyright (c) 1996-2015 Texas Instruments Incorporated
flash.asm                                                            PAGE   12

     583 00000088 7640!         LCR       #___eallow            ; [CPU_] |467| 
         00000089 0000 
     584                      ; call occurs [#___eallow] ; [] |467| 
     585                      .dwpsn  file "..\ExtraData\driverlib\flash.h",line 472,column 5,is_stmt
     586 0000008a FF20          MOV       ACC,#384              ; [CPU_] |472| 
         0000008b 0180 
     587 0000008c 0742          ADDL      ACC,*-SP[2]           ; [CPU_] |472| 
     588 0000008d 8AA9          MOVL      XAR4,ACC              ; [CPU_] |472| 
     589 0000008e 18C4          AND       *+XAR4[0],#65533      ; [CPU_] |472| 
         0000008f FFFD 
     590                      .dwpsn  file "..\ExtraData\driverlib\flash.h",line 474,column 5,is_stmt
     591              $C$DW$51        .dwtag  DW_TAG_TI_branch
     592                      .dwattr $C$DW$51, DW_AT_low_pc(0x00)
     593                      .dwattr $C$DW$51, DW_AT_name("___edis")
     594                      .dwattr $C$DW$51, DW_AT_TI_call
     595 00000090 7640!         LCR       #___edis              ; [CPU_] |474| 
         00000091 0000 
     596                      ; call occurs [#___edis] ; [] |474| 
     597                      .dwpsn  file "..\ExtraData\driverlib\flash.h",line 475,column 1,is_stmt
     598 00000092 FE82          SUBB      SP,#2                 ; [CPU_U] 
     599                      .dwcfi  cfa_offset, -2
     600              $C$DW$52        .dwtag  DW_TAG_TI_branch
     601                      .dwattr $C$DW$52, DW_AT_low_pc(0x00)
     602                      .dwattr $C$DW$52, DW_AT_TI_return
     603 00000093 0006          LRETR     ; [CPU_] 
     604                      ; return occurs ; [] 
     605                      .dwattr $C$DW$47, DW_AT_TI_end_file("..\ExtraData\driverlib\flash.h")
     606                      .dwattr $C$DW$47, DW_AT_TI_end_line(0x1db)
     607                      .dwattr $C$DW$47, DW_AT_TI_end_column(0x01)
     608                      .dwendentry
     609                      .dwendtag $C$DW$47
     610              
     611 00000094               .sect   ".TI.ramfunc"
     612                      .clink
     613              
     614              $C$DW$53        .dwtag  DW_TAG_subprogram, DW_AT_name("Flash_enableECC")
     615                      .dwattr $C$DW$53, DW_AT_low_pc(_Flash_enableECC)
     616                      .dwattr $C$DW$53, DW_AT_high_pc(0x00)
     617                      .dwattr $C$DW$53, DW_AT_TI_symbol_name("_Flash_enableECC")
     618                      .dwattr $C$DW$53, DW_AT_TI_begin_file("..\ExtraData\driverlib\flash.h")
     619                      .dwattr $C$DW$53, DW_AT_TI_begin_line(0x1ea)
     620                      .dwattr $C$DW$53, DW_AT_TI_begin_column(0x01)
     621                      .dwattr $C$DW$53, DW_AT_TI_max_frame_size(-4)
     622                      .dwpsn  file "..\ExtraData\driverlib\flash.h",line 491,column 1,is_stmt,address _Flash_enableECC
     623              
     624                      .dwfde $C$DW$CIE, _Flash_enableECC
     625              $C$DW$54        .dwtag  DW_TAG_formal_parameter, DW_AT_name("eccBase")
     626                      .dwattr $C$DW$54, DW_AT_TI_symbol_name("_eccBase")
     627                      .dwattr $C$DW$54, DW_AT_type(*$C$DW$T$27)
     628                      .dwattr $C$DW$54, DW_AT_location[DW_OP_reg0]
     629              
     630              ;***************************************************************
     631              ;* FNAME: _Flash_enableECC              FR SIZE:   2           *
     632              ;*                                                             *
     633              ;* FUNCTION ENVIRONMENT                                        *
TMS320C2000 Assembler PC v6.2.11 Wed Jul 28 15:52:34 2021

Tools Copyright (c) 1996-2015 Texas Instruments Incorporated
flash.asm                                                            PAGE   13

     634              ;*                                                             *
     635              ;* FUNCTION PROPERTIES                                         *
     636              ;*                            0 Parameter,  2 Auto,  0 SOE     *
     637              ;***************************************************************
     638              
     639 00000094       _Flash_enableECC:
     640                      .dwcfi  cfa_offset, -2
     641                      .dwcfi  save_reg_to_mem, 26, 0
     642                      .dwcfi  save_reg_to_reg, 78, 26
     643 00000094 FE02          ADDB      SP,#2                 ; [CPU_U] 
     644                      .dwcfi  cfa_offset, -4
     645              $C$DW$55        .dwtag  DW_TAG_variable, DW_AT_name("eccBase")
     646                      .dwattr $C$DW$55, DW_AT_TI_symbol_name("_eccBase")
     647                      .dwattr $C$DW$55, DW_AT_type(*$C$DW$T$27)
     648                      .dwattr $C$DW$55, DW_AT_location[DW_OP_breg20 -2]
     649 00000095 1E42          MOVL      *-SP[2],ACC           ; [CPU_] |491| 
     650                      .dwpsn  file "..\ExtraData\driverlib\flash.h",line 497,column 5,is_stmt
     651              $C$DW$56        .dwtag  DW_TAG_TI_branch
     652                      .dwattr $C$DW$56, DW_AT_low_pc(0x00)
     653                      .dwattr $C$DW$56, DW_AT_name("___eallow")
     654                      .dwattr $C$DW$56, DW_AT_TI_call
     655 00000096 7640!         LCR       #___eallow            ; [CPU_] |497| 
         00000097 0000 
     656                      ; call occurs [#___eallow] ; [] |497| 
     657                      .dwpsn  file "..\ExtraData\driverlib\flash.h",line 502,column 5,is_stmt
     658 00000098 8A42          MOVL      XAR4,*-SP[2]          ; [CPU_] |502| 
     659 00000099 06C4          MOVL      ACC,*+XAR4[0]         ; [CPU_] |502| 
     660 0000009a 8A42          MOVL      XAR4,*-SP[2]          ; [CPU_] |502| 
     661 0000009b 18A9          AND       AL,#65520             ; [CPU_] |502| 
         0000009c FFF0 
     662 0000009d 500A          ORB       AL,#0x0a              ; [CPU_] |502| 
     663 0000009e 1EC4          MOVL      *+XAR4[0],ACC         ; [CPU_] |502| 
     664                      .dwpsn  file "..\ExtraData\driverlib\flash.h",line 505,column 5,is_stmt
     665              $C$DW$57        .dwtag  DW_TAG_TI_branch
     666                      .dwattr $C$DW$57, DW_AT_low_pc(0x00)
     667                      .dwattr $C$DW$57, DW_AT_name("___edis")
     668                      .dwattr $C$DW$57, DW_AT_TI_call
     669 0000009f 7640!         LCR       #___edis              ; [CPU_] |505| 
         000000a0 0000 
     670                      ; call occurs [#___edis] ; [] |505| 
     671                      .dwpsn  file "..\ExtraData\driverlib\flash.h",line 506,column 1,is_stmt
     672 000000a1 FE82          SUBB      SP,#2                 ; [CPU_U] 
     673                      .dwcfi  cfa_offset, -2
     674              $C$DW$58        .dwtag  DW_TAG_TI_branch
     675                      .dwattr $C$DW$58, DW_AT_low_pc(0x00)
     676                      .dwattr $C$DW$58, DW_AT_TI_return
     677 000000a2 0006          LRETR     ; [CPU_] 
     678                      ; return occurs ; [] 
     679                      .dwattr $C$DW$53, DW_AT_TI_end_file("..\ExtraData\driverlib\flash.h")
     680                      .dwattr $C$DW$53, DW_AT_TI_end_line(0x1fa)
     681                      .dwattr $C$DW$53, DW_AT_TI_end_column(0x01)
     682                      .dwendentry
     683                      .dwendtag $C$DW$53
     684              
     685 000000a3               .sect   ".TI.ramfunc"
TMS320C2000 Assembler PC v6.2.11 Wed Jul 28 15:52:34 2021

Tools Copyright (c) 1996-2015 Texas Instruments Incorporated
flash.asm                                                            PAGE   14

     686                      .clink
     687                      .global _Flash_initModule
     688              
     689              $C$DW$59        .dwtag  DW_TAG_subprogram, DW_AT_name("Flash_initModule")
     690                      .dwattr $C$DW$59, DW_AT_low_pc(_Flash_initModule)
     691                      .dwattr $C$DW$59, DW_AT_high_pc(0x00)
     692                      .dwattr $C$DW$59, DW_AT_TI_symbol_name("_Flash_initModule")
     693                      .dwattr $C$DW$59, DW_AT_external
     694                      .dwattr $C$DW$59, DW_AT_TI_begin_file("../ExtraData/driverlib/flash.c")
     695                      .dwattr $C$DW$59, DW_AT_TI_begin_line(0x3b)
     696                      .dwattr $C$DW$59, DW_AT_TI_begin_column(0x01)
     697                      .dwattr $C$DW$59, DW_AT_TI_max_frame_size(-6)
     698                      .dwpsn  file "../ExtraData/driverlib/flash.c",line 60,column 1,is_stmt,address _Flash_initModule
     699              
     700                      .dwfde $C$DW$CIE, _Flash_initModule
     701              $C$DW$60        .dwtag  DW_TAG_formal_parameter, DW_AT_name("ctrlBase")
     702                      .dwattr $C$DW$60, DW_AT_TI_symbol_name("_ctrlBase")
     703                      .dwattr $C$DW$60, DW_AT_type(*$C$DW$T$27)
     704                      .dwattr $C$DW$60, DW_AT_location[DW_OP_reg0]
     705              $C$DW$61        .dwtag  DW_TAG_formal_parameter, DW_AT_name("eccBase")
     706                      .dwattr $C$DW$61, DW_AT_TI_symbol_name("_eccBase")
     707                      .dwattr $C$DW$61, DW_AT_type(*$C$DW$T$27)
     708                      .dwattr $C$DW$61, DW_AT_location[DW_OP_breg20 -8]
     709              $C$DW$62        .dwtag  DW_TAG_formal_parameter, DW_AT_name("waitstates")
     710                      .dwattr $C$DW$62, DW_AT_TI_symbol_name("_waitstates")
     711                      .dwattr $C$DW$62, DW_AT_type(*$C$DW$T$28)
     712                      .dwattr $C$DW$62, DW_AT_location[DW_OP_reg12]
     713              
     714              ;***************************************************************
     715              ;* FNAME: _Flash_initModule             FR SIZE:   4           *
     716              ;*                                                             *
     717              ;* FUNCTION ENVIRONMENT                                        *
     718              ;*                                                             *
     719              ;* FUNCTION PROPERTIES                                         *
     720              ;*                            0 Parameter,  3 Auto,  0 SOE     *
     721              ;***************************************************************
     722              
     723 000000a3       _Flash_initModule:
     724                      .dwcfi  cfa_offset, -2
     725                      .dwcfi  save_reg_to_mem, 26, 0
     726                      .dwcfi  save_reg_to_reg, 78, 26
     727 000000a3 FE04          ADDB      SP,#4                 ; [CPU_U] 
     728                      .dwcfi  cfa_offset, -6
     729              $C$DW$63        .dwtag  DW_TAG_variable, DW_AT_name("ctrlBase")
     730                      .dwattr $C$DW$63, DW_AT_TI_symbol_name("_ctrlBase")
     731                      .dwattr $C$DW$63, DW_AT_type(*$C$DW$T$27)
     732                      .dwattr $C$DW$63, DW_AT_location[DW_OP_breg20 -2]
     733              $C$DW$64        .dwtag  DW_TAG_variable, DW_AT_name("waitstates")
     734                      .dwattr $C$DW$64, DW_AT_TI_symbol_name("_waitstates")
     735                      .dwattr $C$DW$64, DW_AT_type(*$C$DW$T$28)
     736                      .dwattr $C$DW$64, DW_AT_location[DW_OP_breg20 -3]
     737 000000a4 7C43          MOV       *-SP[3],AR4           ; [CPU_] |60| 
     738 000000a5 1E42          MOVL      *-SP[2],ACC           ; [CPU_] |60| 
     739                      .dwpsn  file "../ExtraData/driverlib/flash.c",line 71,column 5,is_stmt
     740 000000a6 0642          MOVL      ACC,*-SP[2]           ; [CPU_] |71| 
TMS320C2000 Assembler PC v6.2.11 Wed Jul 28 15:52:34 2021

Tools Copyright (c) 1996-2015 Texas Instruments Incorporated
flash.asm                                                            PAGE   15

     741 000000a7 D503          MOVB      XAR5,#3               ; [CPU_] |71| 
     742 000000a8 D400          MOVB      XAR4,#0               ; [CPU_] |71| 
     743              $C$DW$65        .dwtag  DW_TAG_TI_branch
     744                      .dwattr $C$DW$65, DW_AT_low_pc(0x00)
     745                      .dwattr $C$DW$65, DW_AT_name("_Flash_setBankPowerMode")
     746                      .dwattr $C$DW$65, DW_AT_TI_call
     747 000000a9 7640+         LCR       #_Flash_setBankPowerMode ; [CPU_] |71| 
         000000aa 0014 
     748                      ; call occurs [#_Flash_setBankPowerMode] ; [] |71| 
     749                      .dwpsn  file "../ExtraData/driverlib/flash.c",line 77,column 5,is_stmt
     750 000000ab 0642          MOVL      ACC,*-SP[2]           ; [CPU_] |77| 
     751 000000ac D401          MOVB      XAR4,#1               ; [CPU_] |77| 
     752              $C$DW$66        .dwtag  DW_TAG_TI_branch
     753                      .dwattr $C$DW$66, DW_AT_low_pc(0x00)
     754                      .dwattr $C$DW$66, DW_AT_name("_Flash_setPumpPowerMode")
     755                      .dwattr $C$DW$66, DW_AT_TI_call
     756 000000ad 7640+         LCR       #_Flash_setPumpPowerMode ; [CPU_] |77| 
         000000ae 003F 
     757                      ; call occurs [#_Flash_setPumpPowerMode] ; [] |77| 
     758                      .dwpsn  file "../ExtraData/driverlib/flash.c",line 82,column 5,is_stmt
     759 000000af 0642          MOVL      ACC,*-SP[2]           ; [CPU_] |82| 
     760              $C$DW$67        .dwtag  DW_TAG_TI_branch
     761                      .dwattr $C$DW$67, DW_AT_low_pc(0x00)
     762                      .dwattr $C$DW$67, DW_AT_name("_Flash_disableCache")
     763                      .dwattr $C$DW$67, DW_AT_TI_call
     764 000000b0 7640+         LCR       #_Flash_disableCache  ; [CPU_] |82| 
         000000b1 0086 
     765                      ; call occurs [#_Flash_disableCache] ; [] |82| 
     766                      .dwpsn  file "../ExtraData/driverlib/flash.c",line 83,column 5,is_stmt
     767 000000b2 0642          MOVL      ACC,*-SP[2]           ; [CPU_] |83| 
     768              $C$DW$68        .dwtag  DW_TAG_TI_branch
     769                      .dwattr $C$DW$68, DW_AT_low_pc(0x00)
     770                      .dwattr $C$DW$68, DW_AT_name("_Flash_disablePrefetch")
     771                      .dwattr $C$DW$68, DW_AT_TI_call
     772 000000b3 7640+         LCR       #_Flash_disablePrefetch ; [CPU_] |83| 
         000000b4 006A 
     773                      ; call occurs [#_Flash_disablePrefetch] ; [] |83| 
     774                      .dwpsn  file "../ExtraData/driverlib/flash.c",line 88,column 5,is_stmt
     775 000000b5 5C43          MOVZ      AR4,*-SP[3]           ; [CPU_] |88| 
     776 000000b6 0642          MOVL      ACC,*-SP[2]           ; [CPU_] |88| 
     777              $C$DW$69        .dwtag  DW_TAG_TI_branch
     778                      .dwattr $C$DW$69, DW_AT_low_pc(0x00)
     779                      .dwattr $C$DW$69, DW_AT_name("_Flash_setWaitstates")
     780                      .dwattr $C$DW$69, DW_AT_TI_call
     781 000000b7 7640+         LCR       #_Flash_setWaitstates ; [CPU_] |88| 
         000000b8 0000 
     782                      ; call occurs [#_Flash_setWaitstates] ; [] |88| 
     783                      .dwpsn  file "../ExtraData/driverlib/flash.c",line 94,column 5,is_stmt
     784 000000b9 0642          MOVL      ACC,*-SP[2]           ; [CPU_] |94| 
     785              $C$DW$70        .dwtag  DW_TAG_TI_branch
     786                      .dwattr $C$DW$70, DW_AT_low_pc(0x00)
     787                      .dwattr $C$DW$70, DW_AT_name("_Flash_enableCache")
     788                      .dwattr $C$DW$70, DW_AT_TI_call
     789 000000ba 7640+         LCR       #_Flash_enableCache   ; [CPU_] |94| 
         000000bb 0078 
TMS320C2000 Assembler PC v6.2.11 Wed Jul 28 15:52:34 2021

Tools Copyright (c) 1996-2015 Texas Instruments Incorporated
flash.asm                                                            PAGE   16

     790                      ; call occurs [#_Flash_enableCache] ; [] |94| 
     791                      .dwpsn  file "../ExtraData/driverlib/flash.c",line 95,column 5,is_stmt
     792 000000bc 0642          MOVL      ACC,*-SP[2]           ; [CPU_] |95| 
     793              $C$DW$71        .dwtag  DW_TAG_TI_branch
     794                      .dwattr $C$DW$71, DW_AT_low_pc(0x00)
     795                      .dwattr $C$DW$71, DW_AT_name("_Flash_enablePrefetch")
     796                      .dwattr $C$DW$71, DW_AT_TI_call
     797 000000bd 7640+         LCR       #_Flash_enablePrefetch ; [CPU_] |95| 
         000000be 005C 
     798                      ; call occurs [#_Flash_enablePrefetch] ; [] |95| 
     799                      .dwpsn  file "../ExtraData/driverlib/flash.c",line 101,column 5,is_stmt
     800 000000bf 0648          MOVL      ACC,*-SP[8]           ; [CPU_] |101| 
     801              $C$DW$72        .dwtag  DW_TAG_TI_branch
     802                      .dwattr $C$DW$72, DW_AT_low_pc(0x00)
     803                      .dwattr $C$DW$72, DW_AT_name("_Flash_enableECC")
     804                      .dwattr $C$DW$72, DW_AT_TI_call
     805 000000c0 7640+         LCR       #_Flash_enableECC     ; [CPU_] |101| 
         000000c1 0094 
     806                      ; call occurs [#_Flash_enableECC] ; [] |101| 
     807                      .dwpsn  file "../ExtraData/driverlib/flash.c",line 107,column 5,is_stmt
     808 000000c2 F607   RPT #7 || NOP
         000000c3 7700 
     809                      .dwpsn  file "../ExtraData/driverlib/flash.c",line 108,column 1,is_stmt
     810 000000c4 FF69          SPM       #0                    ; [CPU_] 
     811 000000c5 FE84          SUBB      SP,#4                 ; [CPU_U] 
     812                      .dwcfi  cfa_offset, -2
     813              $C$DW$73        .dwtag  DW_TAG_TI_branch
     814                      .dwattr $C$DW$73, DW_AT_low_pc(0x00)
     815                      .dwattr $C$DW$73, DW_AT_TI_return
     816 000000c6 0006          LRETR     ; [CPU_] 
     817                      ; return occurs ; [] 
     818                      .dwattr $C$DW$59, DW_AT_TI_end_file("../ExtraData/driverlib/flash.c")
     819                      .dwattr $C$DW$59, DW_AT_TI_end_line(0x6c)
     820                      .dwattr $C$DW$59, DW_AT_TI_end_column(0x01)
     821                      .dwendentry
     822                      .dwendtag $C$DW$59
     823              
     824 000000c7               .sect   ".TI.ramfunc"
     825                      .clink
     826                      .global _Flash_powerDown
     827              
     828              $C$DW$74        .dwtag  DW_TAG_subprogram, DW_AT_name("Flash_powerDown")
     829                      .dwattr $C$DW$74, DW_AT_low_pc(_Flash_powerDown)
     830                      .dwattr $C$DW$74, DW_AT_high_pc(0x00)
     831                      .dwattr $C$DW$74, DW_AT_TI_symbol_name("_Flash_powerDown")
     832                      .dwattr $C$DW$74, DW_AT_external
     833                      .dwattr $C$DW$74, DW_AT_TI_begin_file("../ExtraData/driverlib/flash.c")
     834                      .dwattr $C$DW$74, DW_AT_TI_begin_line(0x77)
     835                      .dwattr $C$DW$74, DW_AT_TI_begin_column(0x01)
     836                      .dwattr $C$DW$74, DW_AT_TI_max_frame_size(-4)
     837                      .dwpsn  file "../ExtraData/driverlib/flash.c",line 120,column 1,is_stmt,address _Flash_powerDown
     838              
     839                      .dwfde $C$DW$CIE, _Flash_powerDown
     840              $C$DW$75        .dwtag  DW_TAG_formal_parameter, DW_AT_name("ctrlBase")
     841                      .dwattr $C$DW$75, DW_AT_TI_symbol_name("_ctrlBase")
TMS320C2000 Assembler PC v6.2.11 Wed Jul 28 15:52:34 2021

Tools Copyright (c) 1996-2015 Texas Instruments Incorporated
flash.asm                                                            PAGE   17

     842                      .dwattr $C$DW$75, DW_AT_type(*$C$DW$T$27)
     843                      .dwattr $C$DW$75, DW_AT_location[DW_OP_reg0]
     844              
     845              ;***************************************************************
     846              ;* FNAME: _Flash_powerDown              FR SIZE:   2           *
     847              ;*                                                             *
     848              ;* FUNCTION ENVIRONMENT                                        *
     849              ;*                                                             *
     850              ;* FUNCTION PROPERTIES                                         *
     851              ;*                            0 Parameter,  2 Auto,  0 SOE     *
     852              ;***************************************************************
     853              
     854 000000c7       _Flash_powerDown:
     855                      .dwcfi  cfa_offset, -2
     856                      .dwcfi  save_reg_to_mem, 26, 0
     857                      .dwcfi  save_reg_to_reg, 78, 26
     858 000000c7 FE02          ADDB      SP,#2                 ; [CPU_U] 
     859                      .dwcfi  cfa_offset, -4
     860              $C$DW$76        .dwtag  DW_TAG_variable, DW_AT_name("ctrlBase")
     861                      .dwattr $C$DW$76, DW_AT_TI_symbol_name("_ctrlBase")
     862                      .dwattr $C$DW$76, DW_AT_type(*$C$DW$T$27)
     863                      .dwattr $C$DW$76, DW_AT_location[DW_OP_breg20 -2]
     864 000000c8 1E42          MOVL      *-SP[2],ACC           ; [CPU_] |120| 
     865                      .dwpsn  file "../ExtraData/driverlib/flash.c",line 129,column 5,is_stmt
     866 000000c9 0642          MOVL      ACC,*-SP[2]           ; [CPU_] |129| 
     867 000000ca D400          MOVB      XAR4,#0               ; [CPU_] |129| 
     868 000000cb D500          MOVB      XAR5,#0               ; [CPU_] |129| 
     869              $C$DW$77        .dwtag  DW_TAG_TI_branch
     870                      .dwattr $C$DW$77, DW_AT_low_pc(0x00)
     871                      .dwattr $C$DW$77, DW_AT_name("_Flash_setBankPowerMode")
     872                      .dwattr $C$DW$77, DW_AT_TI_call
     873 000000cc 7640+         LCR       #_Flash_setBankPowerMode ; [CPU_] |129| 
         000000cd 0014 
     874                      ; call occurs [#_Flash_setBankPowerMode] ; [] |129| 
     875                      .dwpsn  file "../ExtraData/driverlib/flash.c",line 135,column 5,is_stmt
     876 000000ce 0642          MOVL      ACC,*-SP[2]           ; [CPU_] |135| 
     877 000000cf D400          MOVB      XAR4,#0               ; [CPU_] |135| 
     878              $C$DW$78        .dwtag  DW_TAG_TI_branch
     879                      .dwattr $C$DW$78, DW_AT_low_pc(0x00)
     880                      .dwattr $C$DW$78, DW_AT_name("_Flash_setPumpPowerMode")
     881                      .dwattr $C$DW$78, DW_AT_TI_call
     882 000000d0 7640+         LCR       #_Flash_setPumpPowerMode ; [CPU_] |135| 
         000000d1 003F 
     883                      ; call occurs [#_Flash_setPumpPowerMode] ; [] |135| 
     884                      .dwpsn  file "../ExtraData/driverlib/flash.c",line 136,column 1,is_stmt
     885 000000d2 FE82          SUBB      SP,#2                 ; [CPU_U] 
     886                      .dwcfi  cfa_offset, -2
     887              $C$DW$79        .dwtag  DW_TAG_TI_branch
     888                      .dwattr $C$DW$79, DW_AT_low_pc(0x00)
     889                      .dwattr $C$DW$79, DW_AT_TI_return
     890 000000d3 0006          LRETR     ; [CPU_] 
     891                      ; return occurs ; [] 
     892                      .dwattr $C$DW$74, DW_AT_TI_end_file("../ExtraData/driverlib/flash.c")
     893                      .dwattr $C$DW$74, DW_AT_TI_end_line(0x88)
     894                      .dwattr $C$DW$74, DW_AT_TI_end_column(0x01)
TMS320C2000 Assembler PC v6.2.11 Wed Jul 28 15:52:34 2021

Tools Copyright (c) 1996-2015 Texas Instruments Incorporated
flash.asm                                                            PAGE   18

     895                      .dwendentry
     896                      .dwendtag $C$DW$74
     897              
     898              ;**************************************************************
     899              ;* UNDEFINED EXTERNAL REFERENCES                              *
     900              ;**************************************************************
     901                      .global ___edis
     902                      .global ___eallow
     903              
     904              ;***************************************************************
     905              ;* TYPE INFORMATION                                            *
     906              ;***************************************************************
     907              
     908              $C$DW$T$19      .dwtag  DW_TAG_enumeration_type
     909                      .dwattr $C$DW$T$19, DW_AT_byte_size(0x01)
     910              $C$DW$80        .dwtag  DW_TAG_enumerator, DW_AT_name("FLASH_BANK"), DW_AT_const_value(0x00)
     911                      .dwendtag $C$DW$T$19
     912              
     913              $C$DW$T$20      .dwtag  DW_TAG_typedef, DW_AT_name("Flash_BankNumber")
     914                      .dwattr $C$DW$T$20, DW_AT_type(*$C$DW$T$19)
     915                      .dwattr $C$DW$T$20, DW_AT_language(DW_LANG_C)
     916              
     917              $C$DW$T$21      .dwtag  DW_TAG_enumeration_type
     918                      .dwattr $C$DW$T$21, DW_AT_byte_size(0x01)
     919              $C$DW$81        .dwtag  DW_TAG_enumerator, DW_AT_name("FLASH_BANK_PWR_SLEEP"), DW_AT_const_value(0x00)
     920              $C$DW$82        .dwtag  DW_TAG_enumerator, DW_AT_name("FLASH_BANK_PWR_STANDBY"), DW_AT_const_value(0x01)
     921              $C$DW$83        .dwtag  DW_TAG_enumerator, DW_AT_name("FLASH_BANK_PWR_ACTIVE"), DW_AT_const_value(0x03)
     922                      .dwendtag $C$DW$T$21
     923              
     924              $C$DW$T$22      .dwtag  DW_TAG_typedef, DW_AT_name("Flash_BankPowerMode")
     925                      .dwattr $C$DW$T$22, DW_AT_type(*$C$DW$T$21)
     926                      .dwattr $C$DW$T$22, DW_AT_language(DW_LANG_C)
     927              
     928              $C$DW$T$23      .dwtag  DW_TAG_enumeration_type
     929                      .dwattr $C$DW$T$23, DW_AT_byte_size(0x01)
     930              $C$DW$84        .dwtag  DW_TAG_enumerator, DW_AT_name("FLASH_PUMP_PWR_SLEEP"), DW_AT_const_value(0x00)
     931              $C$DW$85        .dwtag  DW_TAG_enumerator, DW_AT_name("FLASH_PUMP_PWR_ACTIVE"), DW_AT_const_value(0x01)
     932                      .dwendtag $C$DW$T$23
     933              
     934              $C$DW$T$24      .dwtag  DW_TAG_typedef, DW_AT_name("Flash_PumpPowerMode")
     935                      .dwattr $C$DW$T$24, DW_AT_type(*$C$DW$T$23)
     936                      .dwattr $C$DW$T$24, DW_AT_language(DW_LANG_C)
     937              $C$DW$T$4       .dwtag  DW_TAG_base_type
     938                      .dwattr $C$DW$T$4, DW_AT_encoding(DW_ATE_boolean)
     939                      .dwattr $C$DW$T$4, DW_AT_name("bool")
     940                      .dwattr $C$DW$T$4, DW_AT_byte_size(0x01)
     941              $C$DW$T$5       .dwtag  DW_TAG_base_type
     942                      .dwattr $C$DW$T$5, DW_AT_encoding(DW_ATE_signed_char)
     943                      .dwattr $C$DW$T$5, DW_AT_name("signed char")
     944                      .dwattr $C$DW$T$5, DW_AT_byte_size(0x01)
     945              $C$DW$T$6       .dwtag  DW_TAG_base_type
     946                      .dwattr $C$DW$T$6, DW_AT_encoding(DW_ATE_unsigned_char)
     947                      .dwattr $C$DW$T$6, DW_AT_name("unsigned char")
     948                      .dwattr $C$DW$T$6, DW_AT_byte_size(0x01)
     949              $C$DW$T$7       .dwtag  DW_TAG_base_type
TMS320C2000 Assembler PC v6.2.11 Wed Jul 28 15:52:34 2021

Tools Copyright (c) 1996-2015 Texas Instruments Incorporated
flash.asm                                                            PAGE   19

     950                      .dwattr $C$DW$T$7, DW_AT_encoding(DW_ATE_signed_char)
     951                      .dwattr $C$DW$T$7, DW_AT_name("wchar_t")
     952                      .dwattr $C$DW$T$7, DW_AT_byte_size(0x01)
     953              $C$DW$T$8       .dwtag  DW_TAG_base_type
     954                      .dwattr $C$DW$T$8, DW_AT_encoding(DW_ATE_signed)
     955                      .dwattr $C$DW$T$8, DW_AT_name("short")
     956                      .dwattr $C$DW$T$8, DW_AT_byte_size(0x01)
     957              $C$DW$T$9       .dwtag  DW_TAG_base_type
     958                      .dwattr $C$DW$T$9, DW_AT_encoding(DW_ATE_unsigned)
     959                      .dwattr $C$DW$T$9, DW_AT_name("unsigned short")
     960                      .dwattr $C$DW$T$9, DW_AT_byte_size(0x01)
     961              $C$DW$T$28      .dwtag  DW_TAG_typedef, DW_AT_name("uint16_t")
     962                      .dwattr $C$DW$T$28, DW_AT_type(*$C$DW$T$9)
     963                      .dwattr $C$DW$T$28, DW_AT_language(DW_LANG_C)
     964              $C$DW$T$10      .dwtag  DW_TAG_base_type
     965                      .dwattr $C$DW$T$10, DW_AT_encoding(DW_ATE_signed)
     966                      .dwattr $C$DW$T$10, DW_AT_name("int")
     967                      .dwattr $C$DW$T$10, DW_AT_byte_size(0x01)
     968              $C$DW$T$11      .dwtag  DW_TAG_base_type
     969                      .dwattr $C$DW$T$11, DW_AT_encoding(DW_ATE_unsigned)
     970                      .dwattr $C$DW$T$11, DW_AT_name("unsigned int")
     971                      .dwattr $C$DW$T$11, DW_AT_byte_size(0x01)
     972              $C$DW$T$12      .dwtag  DW_TAG_base_type
     973                      .dwattr $C$DW$T$12, DW_AT_encoding(DW_ATE_signed)
     974                      .dwattr $C$DW$T$12, DW_AT_name("long")
     975                      .dwattr $C$DW$T$12, DW_AT_byte_size(0x02)
     976              $C$DW$T$13      .dwtag  DW_TAG_base_type
     977                      .dwattr $C$DW$T$13, DW_AT_encoding(DW_ATE_unsigned)
     978                      .dwattr $C$DW$T$13, DW_AT_name("unsigned long")
     979                      .dwattr $C$DW$T$13, DW_AT_byte_size(0x02)
     980              $C$DW$T$27      .dwtag  DW_TAG_typedef, DW_AT_name("uint32_t")
     981                      .dwattr $C$DW$T$27, DW_AT_type(*$C$DW$T$13)
     982                      .dwattr $C$DW$T$27, DW_AT_language(DW_LANG_C)
     983              $C$DW$T$14      .dwtag  DW_TAG_base_type
     984                      .dwattr $C$DW$T$14, DW_AT_encoding(DW_ATE_signed)
     985                      .dwattr $C$DW$T$14, DW_AT_name("long long")
     986                      .dwattr $C$DW$T$14, DW_AT_byte_size(0x04)
     987              $C$DW$T$15      .dwtag  DW_TAG_base_type
     988                      .dwattr $C$DW$T$15, DW_AT_encoding(DW_ATE_unsigned)
     989                      .dwattr $C$DW$T$15, DW_AT_name("unsigned long long")
     990                      .dwattr $C$DW$T$15, DW_AT_byte_size(0x04)
     991              $C$DW$T$16      .dwtag  DW_TAG_base_type
     992                      .dwattr $C$DW$T$16, DW_AT_encoding(DW_ATE_float)
     993                      .dwattr $C$DW$T$16, DW_AT_name("float")
     994                      .dwattr $C$DW$T$16, DW_AT_byte_size(0x02)
     995              $C$DW$T$17      .dwtag  DW_TAG_base_type
     996                      .dwattr $C$DW$T$17, DW_AT_encoding(DW_ATE_float)
     997                      .dwattr $C$DW$T$17, DW_AT_name("double")
     998                      .dwattr $C$DW$T$17, DW_AT_byte_size(0x02)
     999              $C$DW$T$18      .dwtag  DW_TAG_base_type
    1000                      .dwattr $C$DW$T$18, DW_AT_encoding(DW_ATE_float)
    1001                      .dwattr $C$DW$T$18, DW_AT_name("long double")
    1002                      .dwattr $C$DW$T$18, DW_AT_byte_size(0x04)
    1003                      .dwattr $C$DW$CU, DW_AT_language(DW_LANG_C)
    1004              
TMS320C2000 Assembler PC v6.2.11 Wed Jul 28 15:52:34 2021

Tools Copyright (c) 1996-2015 Texas Instruments Incorporated
flash.asm                                                            PAGE   20

    1005              ;***************************************************************
    1006              ;* DWARF CIE ENTRIES                                           *
    1007              ;***************************************************************
    1008              
    1009              $C$DW$CIE       .dwcie 78
    1010                      .dwcfi  cfa_register, 20
    1011                      .dwcfi  cfa_offset, 0
    1012                      .dwcfi  undefined, 0
    1013                      .dwcfi  undefined, 1
    1014                      .dwcfi  undefined, 2
    1015                      .dwcfi  undefined, 3
    1016                      .dwcfi  undefined, 20
    1017                      .dwcfi  undefined, 21
    1018                      .dwcfi  undefined, 22
    1019                      .dwcfi  undefined, 23
    1020                      .dwcfi  undefined, 24
    1021                      .dwcfi  undefined, 25
    1022                      .dwcfi  undefined, 26
    1023                      .dwcfi  same_value, 28
    1024                      .dwcfi  undefined, 29
    1025                      .dwcfi  undefined, 30
    1026                      .dwcfi  undefined, 31
    1027                      .dwcfi  undefined, 32
    1028                      .dwcfi  undefined, 33
    1029                      .dwcfi  undefined, 34
    1030                      .dwcfi  undefined, 35
    1031                      .dwcfi  undefined, 36
    1032                      .dwcfi  undefined, 37
    1033                      .dwcfi  undefined, 38
    1034                      .dwcfi  undefined, 75
    1035                      .dwcfi  undefined, 76
    1036                      .dwcfi  undefined, 77
    1037                      .dwcfi  undefined, 4
    1038                      .dwcfi  same_value, 6
    1039                      .dwcfi  same_value, 8
    1040                      .dwcfi  same_value, 10
    1041                      .dwcfi  undefined, 12
    1042                      .dwcfi  undefined, 14
    1043                      .dwcfi  undefined, 16
    1044                      .dwcfi  undefined, 17
    1045                      .dwcfi  undefined, 18
    1046                      .dwcfi  undefined, 19
    1047                      .dwcfi  undefined, 5
    1048                      .dwcfi  same_value, 7
    1049                      .dwcfi  same_value, 9
    1050                      .dwcfi  same_value, 11
    1051                      .dwcfi  undefined, 13
    1052                      .dwcfi  undefined, 15
    1053                      .dwcfi  undefined, 43
    1054                      .dwcfi  undefined, 44
    1055                      .dwcfi  undefined, 47
    1056                      .dwcfi  undefined, 48
    1057                      .dwcfi  undefined, 51
    1058                      .dwcfi  undefined, 52
    1059                      .dwcfi  undefined, 55
TMS320C2000 Assembler PC v6.2.11 Wed Jul 28 15:52:34 2021

Tools Copyright (c) 1996-2015 Texas Instruments Incorporated
flash.asm                                                            PAGE   21

    1060                      .dwcfi  undefined, 56
    1061                      .dwcfi  same_value, 59
    1062                      .dwcfi  same_value, 60
    1063                      .dwcfi  same_value, 63
    1064                      .dwcfi  same_value, 64
    1065                      .dwcfi  same_value, 67
    1066                      .dwcfi  same_value, 68
    1067                      .dwcfi  same_value, 71
    1068                      .dwcfi  same_value, 72
    1069                      .dwcfi  undefined, 73
    1070                      .dwcfi  undefined, 74
    1071                      .dwcfi  undefined, 39
    1072                      .dwcfi  undefined, 40
    1073                      .dwcfi  undefined, 27
    1074                      .dwcfi  undefined, 78
    1075                      .dwendentry
    1076              
    1077              ;***************************************************************
    1078              ;* DWARF REGISTER MAP                                          *
    1079              ;***************************************************************
    1080              
    1081              $C$DW$86        .dwtag  DW_TAG_TI_assign_register, DW_AT_name("AL")
    1082                      .dwattr $C$DW$86, DW_AT_location[DW_OP_reg0]
    1083              $C$DW$87        .dwtag  DW_TAG_TI_assign_register, DW_AT_name("AH")
    1084                      .dwattr $C$DW$87, DW_AT_location[DW_OP_reg1]
    1085              $C$DW$88        .dwtag  DW_TAG_TI_assign_register, DW_AT_name("PL")
    1086                      .dwattr $C$DW$88, DW_AT_location[DW_OP_reg2]
    1087              $C$DW$89        .dwtag  DW_TAG_TI_assign_register, DW_AT_name("PH")
    1088                      .dwattr $C$DW$89, DW_AT_location[DW_OP_reg3]
    1089              $C$DW$90        .dwtag  DW_TAG_TI_assign_register, DW_AT_name("SP")
    1090                      .dwattr $C$DW$90, DW_AT_location[DW_OP_reg20]
    1091              $C$DW$91        .dwtag  DW_TAG_TI_assign_register, DW_AT_name("XT")
    1092                      .dwattr $C$DW$91, DW_AT_location[DW_OP_reg21]
    1093              $C$DW$92        .dwtag  DW_TAG_TI_assign_register, DW_AT_name("T")
    1094                      .dwattr $C$DW$92, DW_AT_location[DW_OP_reg22]
    1095              $C$DW$93        .dwtag  DW_TAG_TI_assign_register, DW_AT_name("ST0")
    1096                      .dwattr $C$DW$93, DW_AT_location[DW_OP_reg23]
    1097              $C$DW$94        .dwtag  DW_TAG_TI_assign_register, DW_AT_name("ST1")
    1098                      .dwattr $C$DW$94, DW_AT_location[DW_OP_reg24]
    1099              $C$DW$95        .dwtag  DW_TAG_TI_assign_register, DW_AT_name("PC")
    1100                      .dwattr $C$DW$95, DW_AT_location[DW_OP_reg25]
    1101              $C$DW$96        .dwtag  DW_TAG_TI_assign_register, DW_AT_name("RPC")
    1102                      .dwattr $C$DW$96, DW_AT_location[DW_OP_reg26]
    1103              $C$DW$97        .dwtag  DW_TAG_TI_assign_register, DW_AT_name("FP")
    1104                      .dwattr $C$DW$97, DW_AT_location[DW_OP_reg28]
    1105              $C$DW$98        .dwtag  DW_TAG_TI_assign_register, DW_AT_name("DP")
    1106                      .dwattr $C$DW$98, DW_AT_location[DW_OP_reg29]
    1107              $C$DW$99        .dwtag  DW_TAG_TI_assign_register, DW_AT_name("SXM")
    1108                      .dwattr $C$DW$99, DW_AT_location[DW_OP_reg30]
    1109              $C$DW$100       .dwtag  DW_TAG_TI_assign_register, DW_AT_name("PM")
    1110                      .dwattr $C$DW$100, DW_AT_location[DW_OP_reg31]
    1111              $C$DW$101       .dwtag  DW_TAG_TI_assign_register, DW_AT_name("OVM")
    1112                      .dwattr $C$DW$101, DW_AT_location[DW_OP_regx 0x20]
    1113              $C$DW$102       .dwtag  DW_TAG_TI_assign_register, DW_AT_name("PAGE0")
    1114                      .dwattr $C$DW$102, DW_AT_location[DW_OP_regx 0x21]
TMS320C2000 Assembler PC v6.2.11 Wed Jul 28 15:52:34 2021

Tools Copyright (c) 1996-2015 Texas Instruments Incorporated
flash.asm                                                            PAGE   22

    1115              $C$DW$103       .dwtag  DW_TAG_TI_assign_register, DW_AT_name("AMODE")
    1116                      .dwattr $C$DW$103, DW_AT_location[DW_OP_regx 0x22]
    1117              $C$DW$104       .dwtag  DW_TAG_TI_assign_register, DW_AT_name("INTM")
    1118                      .dwattr $C$DW$104, DW_AT_location[DW_OP_regx 0x23]
    1119              $C$DW$105       .dwtag  DW_TAG_TI_assign_register, DW_AT_name("IFR")
    1120                      .dwattr $C$DW$105, DW_AT_location[DW_OP_regx 0x24]
    1121              $C$DW$106       .dwtag  DW_TAG_TI_assign_register, DW_AT_name("IER")
    1122                      .dwattr $C$DW$106, DW_AT_location[DW_OP_regx 0x25]
    1123              $C$DW$107       .dwtag  DW_TAG_TI_assign_register, DW_AT_name("V")
    1124                      .dwattr $C$DW$107, DW_AT_location[DW_OP_regx 0x26]
    1125              $C$DW$108       .dwtag  DW_TAG_TI_assign_register, DW_AT_name("PSEUDOH")
    1126                      .dwattr $C$DW$108, DW_AT_location[DW_OP_regx 0x4c]
    1127              $C$DW$109       .dwtag  DW_TAG_TI_assign_register, DW_AT_name("VOL")
    1128                      .dwattr $C$DW$109, DW_AT_location[DW_OP_regx 0x4d]
    1129              $C$DW$110       .dwtag  DW_TAG_TI_assign_register, DW_AT_name("AR0")
    1130                      .dwattr $C$DW$110, DW_AT_location[DW_OP_reg4]
    1131              $C$DW$111       .dwtag  DW_TAG_TI_assign_register, DW_AT_name("AR1")
    1132                      .dwattr $C$DW$111, DW_AT_location[DW_OP_reg6]
    1133              $C$DW$112       .dwtag  DW_TAG_TI_assign_register, DW_AT_name("AR2")
    1134                      .dwattr $C$DW$112, DW_AT_location[DW_OP_reg8]
    1135              $C$DW$113       .dwtag  DW_TAG_TI_assign_register, DW_AT_name("AR3")
    1136                      .dwattr $C$DW$113, DW_AT_location[DW_OP_reg10]
    1137              $C$DW$114       .dwtag  DW_TAG_TI_assign_register, DW_AT_name("AR4")
    1138                      .dwattr $C$DW$114, DW_AT_location[DW_OP_reg12]
    1139              $C$DW$115       .dwtag  DW_TAG_TI_assign_register, DW_AT_name("AR5")
    1140                      .dwattr $C$DW$115, DW_AT_location[DW_OP_reg14]
    1141              $C$DW$116       .dwtag  DW_TAG_TI_assign_register, DW_AT_name("AR6")
    1142                      .dwattr $C$DW$116, DW_AT_location[DW_OP_reg16]
    1143              $C$DW$117       .dwtag  DW_TAG_TI_assign_register, DW_AT_name("XAR6")
    1144                      .dwattr $C$DW$117, DW_AT_location[DW_OP_reg17]
    1145              $C$DW$118       .dwtag  DW_TAG_TI_assign_register, DW_AT_name("AR7")
    1146                      .dwattr $C$DW$118, DW_AT_location[DW_OP_reg18]
    1147              $C$DW$119       .dwtag  DW_TAG_TI_assign_register, DW_AT_name("XAR7")
    1148                      .dwattr $C$DW$119, DW_AT_location[DW_OP_reg19]
    1149              $C$DW$120       .dwtag  DW_TAG_TI_assign_register, DW_AT_name("XAR0")
    1150                      .dwattr $C$DW$120, DW_AT_location[DW_OP_reg5]
    1151              $C$DW$121       .dwtag  DW_TAG_TI_assign_register, DW_AT_name("XAR1")
    1152                      .dwattr $C$DW$121, DW_AT_location[DW_OP_reg7]
    1153              $C$DW$122       .dwtag  DW_TAG_TI_assign_register, DW_AT_name("XAR2")
    1154                      .dwattr $C$DW$122, DW_AT_location[DW_OP_reg9]
    1155              $C$DW$123       .dwtag  DW_TAG_TI_assign_register, DW_AT_name("XAR3")
    1156                      .dwattr $C$DW$123, DW_AT_location[DW_OP_reg11]
    1157              $C$DW$124       .dwtag  DW_TAG_TI_assign_register, DW_AT_name("XAR4")
    1158                      .dwattr $C$DW$124, DW_AT_location[DW_OP_reg13]
    1159              $C$DW$125       .dwtag  DW_TAG_TI_assign_register, DW_AT_name("XAR5")
    1160                      .dwattr $C$DW$125, DW_AT_location[DW_OP_reg15]
    1161              $C$DW$126       .dwtag  DW_TAG_TI_assign_register, DW_AT_name("R0HL")
    1162                      .dwattr $C$DW$126, DW_AT_location[DW_OP_regx 0x2b]
    1163              $C$DW$127       .dwtag  DW_TAG_TI_assign_register, DW_AT_name("R0H")
    1164                      .dwattr $C$DW$127, DW_AT_location[DW_OP_regx 0x2c]
    1165              $C$DW$128       .dwtag  DW_TAG_TI_assign_register, DW_AT_name("R1HL")
    1166                      .dwattr $C$DW$128, DW_AT_location[DW_OP_regx 0x2f]
    1167              $C$DW$129       .dwtag  DW_TAG_TI_assign_register, DW_AT_name("R1H")
    1168                      .dwattr $C$DW$129, DW_AT_location[DW_OP_regx 0x30]
    1169              $C$DW$130       .dwtag  DW_TAG_TI_assign_register, DW_AT_name("R2HL")
TMS320C2000 Assembler PC v6.2.11 Wed Jul 28 15:52:34 2021

Tools Copyright (c) 1996-2015 Texas Instruments Incorporated
flash.asm                                                            PAGE   23

    1170                      .dwattr $C$DW$130, DW_AT_location[DW_OP_regx 0x33]
    1171              $C$DW$131       .dwtag  DW_TAG_TI_assign_register, DW_AT_name("R2H")
    1172                      .dwattr $C$DW$131, DW_AT_location[DW_OP_regx 0x34]
    1173              $C$DW$132       .dwtag  DW_TAG_TI_assign_register, DW_AT_name("R3HL")
    1174                      .dwattr $C$DW$132, DW_AT_location[DW_OP_regx 0x37]
    1175              $C$DW$133       .dwtag  DW_TAG_TI_assign_register, DW_AT_name("R3H")
    1176                      .dwattr $C$DW$133, DW_AT_location[DW_OP_regx 0x38]
    1177              $C$DW$134       .dwtag  DW_TAG_TI_assign_register, DW_AT_name("R4HL")
    1178                      .dwattr $C$DW$134, DW_AT_location[DW_OP_regx 0x3b]
    1179              $C$DW$135       .dwtag  DW_TAG_TI_assign_register, DW_AT_name("R4H")
    1180                      .dwattr $C$DW$135, DW_AT_location[DW_OP_regx 0x3c]
    1181              $C$DW$136       .dwtag  DW_TAG_TI_assign_register, DW_AT_name("R5HL")
    1182                      .dwattr $C$DW$136, DW_AT_location[DW_OP_regx 0x3f]
    1183              $C$DW$137       .dwtag  DW_TAG_TI_assign_register, DW_AT_name("R5H")
    1184                      .dwattr $C$DW$137, DW_AT_location[DW_OP_regx 0x40]
    1185              $C$DW$138       .dwtag  DW_TAG_TI_assign_register, DW_AT_name("R6HL")
    1186                      .dwattr $C$DW$138, DW_AT_location[DW_OP_regx 0x43]
    1187              $C$DW$139       .dwtag  DW_TAG_TI_assign_register, DW_AT_name("R6H")
    1188                      .dwattr $C$DW$139, DW_AT_location[DW_OP_regx 0x44]
    1189              $C$DW$140       .dwtag  DW_TAG_TI_assign_register, DW_AT_name("R7HL")
    1190                      .dwattr $C$DW$140, DW_AT_location[DW_OP_regx 0x47]
    1191              $C$DW$141       .dwtag  DW_TAG_TI_assign_register, DW_AT_name("R7H")
    1192                      .dwattr $C$DW$141, DW_AT_location[DW_OP_regx 0x48]
    1193              $C$DW$142       .dwtag  DW_TAG_TI_assign_register, DW_AT_name("RBL")
    1194                      .dwattr $C$DW$142, DW_AT_location[DW_OP_regx 0x49]
    1195              $C$DW$143       .dwtag  DW_TAG_TI_assign_register, DW_AT_name("RB")
    1196                      .dwattr $C$DW$143, DW_AT_location[DW_OP_regx 0x4a]
    1197              $C$DW$144       .dwtag  DW_TAG_TI_assign_register, DW_AT_name("STFL")
    1198                      .dwattr $C$DW$144, DW_AT_location[DW_OP_regx 0x27]
    1199              $C$DW$145       .dwtag  DW_TAG_TI_assign_register, DW_AT_name("STF")
    1200                      .dwattr $C$DW$145, DW_AT_location[DW_OP_regx 0x28]
    1201              $C$DW$146       .dwtag  DW_TAG_TI_assign_register, DW_AT_name("FPUHAZ")
    1202                      .dwattr $C$DW$146, DW_AT_location[DW_OP_reg27]
    1203              $C$DW$147       .dwtag  DW_TAG_TI_assign_register, DW_AT_name("CIE_RETA")
    1204                      .dwattr $C$DW$147, DW_AT_location[DW_OP_regx 0x4e]
    1205                      .dwendtag $C$DW$CU
    1206              

No Assembly Errors, No Assembly Warnings
